<?xml version="1.0" encoding="UTF-8" standalone="no"?>
<!-- Created with Inkscape (http://www.inkscape.org/) -->

<svg
   xmlns:dc="http://purl.org/dc/elements/1.1/"
   xmlns:cc="http://creativecommons.org/ns#"
   xmlns:rdf="http://www.w3.org/1999/02/22-rdf-syntax-ns#"
   xmlns:svg="http://www.w3.org/2000/svg"
   xmlns="http://www.w3.org/2000/svg"
   xmlns:sodipodi="http://sodipodi.sourceforge.net/DTD/sodipodi-0.dtd"
   xmlns:inkscape="http://www.inkscape.org/namespaces/inkscape"
   id="svg10159"
   version="1.1"
   inkscape:version="0.91 r13725"
   xml:space="preserve"
   width="460.63"
   height="460.63"
   viewBox="0 0 460.63 460.63"
   sodipodi:docname="OSCEdays_Plus_LGreen_White.svg"
   inkscape:export-filename="/home/sam/Documents/OSCEdays_org/OSCEdays_Plus_Blue.png"
   inkscape:export-xdpi="90"
   inkscape:export-ydpi="90"><metadata
     id="metadata10165"><rdf:RDF><cc:Work
         rdf:about=""><dc:format>image/svg+xml</dc:format><dc:type
           rdf:resource="http://purl.org/dc/dcmitype/StillImage" /><dc:title></dc:title></cc:Work></rdf:RDF></metadata><defs
     id="defs10163"><filter
       style="color-interpolation-filters:sRGB;"
       inkscape:label="Drop Shadow"
       id="filter10749"><feFlood
         flood-opacity="0.498039"
         flood-color="rgb(0,0,0)"
         result="flood"
         id="feFlood10751" /><feComposite
         in="flood"
         in2="SourceGraphic"
         operator="in"
         result="composite1"
         id="feComposite10753" /><feGaussianBlur
         in="composite1"
         stdDeviation="1"
         result="blur"
         id="feGaussianBlur10755" /><feOffset
         dx="1"
         dy="-1.1"
         result="offset"
         id="feOffset10757" /><feComposite
         in="SourceGraphic"
         in2="offset"
         operator="over"
         result="composite2"
         id="feComposite10759" /></filter><filter
       style="color-interpolation-filters:sRGB;"
       inkscape:label="Drop Shadow"
       id="filter10761"><feFlood
         flood-opacity="0.498039"
         flood-color="rgb(0,0,0)"
         result="flood"
         id="feFlood10763" /><feComposite
         in="flood"
         in2="SourceGraphic"
         operator="in"
         result="composite1"
         id="feComposite10765" /><feGaussianBlur
         in="composite1"
         stdDeviation="1"
         result="blur"
         id="feGaussianBlur10767" /><feOffset
         dx="1"
         dy="-1.1"
         result="offset"
         id="feOffset10769" /><feComposite
         in="SourceGraphic"
         in2="offset"
         operator="over"
         result="composite2"
         id="feComposite10771" /></filter><filter
       style="color-interpolation-filters:sRGB;"
       inkscape:label="Drop Shadow"
       id="filter10773"><feFlood
         flood-opacity="0.498039"
         flood-color="rgb(0,0,0)"
         result="flood"
         id="feFlood10775" /><feComposite
         in="flood"
         in2="SourceGraphic"
         operator="in"
         result="composite1"
         id="feComposite10777" /><feGaussianBlur
         in="composite1"
         stdDeviation="1"
         result="blur"
         id="feGaussianBlur10779" /><feOffset
         dx="1"
         dy="-1.1"
         result="offset"
         id="feOffset10781" /><feComposite
         in="SourceGraphic"
         in2="offset"
         operator="over"
         result="composite2"
         id="feComposite10783" /></filter><filter
       style="color-interpolation-filters:sRGB;"
       inkscape:label="Drop Shadow"
       id="filter10785"><feFlood
         flood-opacity="0.498039"
         flood-color="rgb(0,0,0)"
         result="flood"
         id="feFlood10787" /><feComposite
         in="flood"
         in2="SourceGraphic"
         operator="in"
         result="composite1"
         id="feComposite10789" /><feGaussianBlur
         in="composite1"
         stdDeviation="1"
         result="blur"
         id="feGaussianBlur10791" /><feOffset
         dx="1"
         dy="-1.1"
         result="offset"
         id="feOffset10793" /><feComposite
         in="SourceGraphic"
         in2="offset"
         operator="over"
         result="composite2"
         id="feComposite10795" /></filter><filter
       style="color-interpolation-filters:sRGB;"
       inkscape:label="Drop Shadow"
       id="filter10797"><feFlood
         flood-opacity="0.498039"
         flood-color="rgb(0,0,0)"
         result="flood"
         id="feFlood10799" /><feComposite
         in="flood"
         in2="SourceGraphic"
         operator="in"
         result="composite1"
         id="feComposite10801" /><feGaussianBlur
         in="composite1"
         stdDeviation="1"
         result="blur"
         id="feGaussianBlur10803" /><feOffset
         dx="1"
         dy="-1.1"
         result="offset"
         id="feOffset10805" /><feComposite
         in="SourceGraphic"
         in2="offset"
         operator="over"
         result="composite2"
         id="feComposite10807" /></filter><filter
       style="color-interpolation-filters:sRGB;"
       inkscape:label="Drop Shadow"
       id="filter10809"><feFlood
         flood-opacity="0.498039"
         flood-color="rgb(0,0,0)"
         result="flood"
         id="feFlood10811" /><feComposite
         in="flood"
         in2="SourceGraphic"
         operator="in"
         result="composite1"
         id="feComposite10813" /><feGaussianBlur
         in="composite1"
         stdDeviation="1"
         result="blur"
         id="feGaussianBlur10815" /><feOffset
         dx="1"
         dy="-1.1"
         result="offset"
         id="feOffset10817" /><feComposite
         in="SourceGraphic"
         in2="offset"
         operator="over"
         result="composite2"
         id="feComposite10819" /></filter><filter
       style="color-interpolation-filters:sRGB;"
       inkscape:label="Drop Shadow"
       id="filter10821"><feFlood
         flood-opacity="0.498039"
         flood-color="rgb(0,0,0)"
         result="flood"
         id="feFlood10823" /><feComposite
         in="flood"
         in2="SourceGraphic"
         operator="in"
         result="composite1"
         id="feComposite10825" /><feGaussianBlur
         in="composite1"
         stdDeviation="1"
         result="blur"
         id="feGaussianBlur10827" /><feOffset
         dx="1"
         dy="-1.1"
         result="offset"
         id="feOffset10829" /><feComposite
         in="SourceGraphic"
         in2="offset"
         operator="over"
         result="composite2"
         id="feComposite10831" /></filter><filter
       style="color-interpolation-filters:sRGB;"
       inkscape:label="Drop Shadow"
       id="filter10833"><feFlood
         flood-opacity="0.498039"
         flood-color="rgb(0,0,0)"
         result="flood"
         id="feFlood10835" /><feComposite
         in="flood"
         in2="SourceGraphic"
         operator="in"
         result="composite1"
         id="feComposite10837" /><feGaussianBlur
         in="composite1"
         stdDeviation="1"
         result="blur"
         id="feGaussianBlur10839" /><feOffset
         dx="1"
         dy="-1.1"
         result="offset"
         id="feOffset10841" /><feComposite
         in="SourceGraphic"
         in2="offset"
         operator="over"
         result="composite2"
         id="feComposite10843" /></filter><filter
       style="color-interpolation-filters:sRGB;"
       inkscape:label="Drop Shadow"
       id="filter10845"><feFlood
         flood-opacity="0.498039"
         flood-color="rgb(0,0,0)"
         result="flood"
         id="feFlood10847" /><feComposite
         in="flood"
         in2="SourceGraphic"
         operator="in"
         result="composite1"
         id="feComposite10849" /><feGaussianBlur
         in="composite1"
         stdDeviation="1"
         result="blur"
         id="feGaussianBlur10851" /><feOffset
         dx="1"
         dy="-1.1"
         result="offset"
         id="feOffset10853" /><feComposite
         in="SourceGraphic"
         in2="offset"
         operator="over"
         result="composite2"
         id="feComposite10855" /></filter><filter
       style="color-interpolation-filters:sRGB;"
       inkscape:label="Drop Shadow"
       id="filter10857"><feFlood
         flood-opacity="0.498039"
         flood-color="rgb(0,0,0)"
         result="flood"
         id="feFlood10859" /><feComposite
         in="flood"
         in2="SourceGraphic"
         operator="in"
         result="composite1"
         id="feComposite10861" /><feGaussianBlur
         in="composite1"
         stdDeviation="1"
         result="blur"
         id="feGaussianBlur10863" /><feOffset
         dx="1"
         dy="-1.1"
         result="offset"
         id="feOffset10865" /><feComposite
         in="SourceGraphic"
         in2="offset"
         operator="over"
         result="composite2"
         id="feComposite10867" /></filter></defs><sodipodi:namedview
     pagecolor="#ffffff"
     bordercolor="#666666"
     borderopacity="1"
     objecttolerance="10"
     gridtolerance="10"
     guidetolerance="10"
     inkscape:pageopacity="0"
     inkscape:pageshadow="2"
     inkscape:window-width="1600"
     inkscape:window-height="844"
     id="namedview10161"
     showgrid="false"
     inkscape:zoom="1.0246836"
     inkscape:cx="153.85362"
     inkscape:cy="236.38742"
     inkscape:window-x="0"
     inkscape:window-y="0"
     inkscape:window-maximized="1"
     inkscape:current-layer="g10167" /><g
     id="g10167"
     inkscape:groupmode="layer"
     inkscape:label="OSCED_GRID_Design_v08"
     transform="matrix(1.25,0,0,-1.25,0,460.63)"><g
       id="g10177"
       transform="translate(198.3926,255.1113)"
       style="fill:#026699;"><path
         d="m 0,0 0,-0.07 -28.26,-28.26 -0.049,0 0,28.33 L 0,0 Z"
         style="fill:#ffffff;fill-opacity:1;fill-rule:nonzero;stroke:none;"
         id="path10179"
         inkscape:connector-curvature="0" /></g><g
       id="g10173"
       transform="translate(198.3926,255.041)"
       style="fill:#026699;"><path
         d="m 0,0 0,-28.26 -28.26,0 L 0,0 Z"
         style="fill:#ffffff;fill-opacity:1;fill-rule:nonzero;stroke:none;"
         id="path10175"
         inkscape:connector-curvature="0" /></g><g
       id="g10181"
       transform="translate(170.084,226.7324)"
       style="fill:#026699;"><path
         d="m 0,0 0.049,0.049 28.26,0 L 28.34,-113.33 0,-84.99 0,-42.611 0,0 Z"
         style="fill:#ffffff;fill-opacity:1;fill-rule:nonzero;stroke:none;"
         id="path10183"
         inkscape:connector-curvature="0" /></g><g
       id="g10169"
       transform="translate(198.4238,113.4023)"
       style="fill:#026699;"><path
         d="m 0,0 0,-0.01 -28.34,0 0,28.35 L 0,0 Z"
         style="fill:#ffffff;fill-opacity:1;fill-rule:nonzero;stroke:none;"
         id="path10171"
         inkscape:connector-curvature="0" /></g><g
       id="g10185"
       transform="translate(113.4023,170.082)"
       style="fill:#00b2d2;"><path
         d="m 0,0 -0.01,0 0,28.34 28.35,0 L 0,0 Z"
         style="fill:#abc178;fill-opacity:1;fill-rule:nonzero;stroke:none;"
         id="path10187"
         inkscape:connector-curvature="0" /></g><g
       id="g10193"
       transform="translate(255.1113,170.1133)"
       style="fill:#00b2d2;"><path
         d="m 0,0 -0.07,0 -28.26,28.26 0,0.049 28.33,0 L 0,0 Z"
         style="fill:#abc178;fill-opacity:1;fill-rule:nonzero;stroke:none;"
         id="path10195"
         inkscape:connector-curvature="0" /></g><g
       id="g10197"
       transform="translate(226.7324,198.4219)"
       style="fill:#00b2d2;"><path
         d="m 0,0 0.049,-0.049 0,-28.26 L -113.33,-28.34 -84.99,0 -42.611,0 0,0 Z"
         style="fill:#abc178;fill-opacity:1;fill-rule:nonzero;stroke:none;"
         id="path10199"
         inkscape:connector-curvature="0" /></g><g
       id="g10189"
       transform="translate(255.041,170.1133)"
       style="fill:#00b2d2;"><path
         d="m 0,0 -28.26,0 0,28.26 L 0,0 Z"
         style="fill:#abc178;fill-opacity:1;fill-rule:nonzero;stroke:none;"
         id="path10191"
         inkscape:connector-curvature="0" /></g><g
       id="g10201"
       transform="translate(198.1699,170.1348)"
       style="fill:#026699;fill-opacity:1"><path
         d="m 0,0 -28.26,0 0,28.26 L 0,0 Z"
         style="fill:#026699;fill-opacity:1;fill-rule:nonzero;stroke:none;"
         id="path10203"
         inkscape:connector-curvature="0" /></g><g
       id="g10205"
       transform="translate(198.2402,170.1348)"
       style="fill:#abc178;"><path
         d="m 0,0 -0.07,0 -28.26,28.26 0,0.051 28.33,0 L 0,0 Z"
         style="fill:#026699;fill-opacity:1;fill-rule:nonzero;stroke:none;"
         id="path10207"
         inkscape:connector-curvature="0" /></g></g></svg>