<?xml version="1.0" encoding="UTF-8" standalone="no"?>
<!-- Created with Inkscape (http://www.inkscape.org/) -->

<svg
   xmlns:dc="http://purl.org/dc/elements/1.1/"
   xmlns:cc="http://creativecommons.org/ns#"
   xmlns:rdf="http://www.w3.org/1999/02/22-rdf-syntax-ns#"
   xmlns:svg="http://www.w3.org/2000/svg"
   xmlns="http://www.w3.org/2000/svg"
   xmlns:sodipodi="http://sodipodi.sourceforge.net/DTD/sodipodi-0.dtd"
   xmlns:inkscape="http://www.inkscape.org/namespaces/inkscape"
   width="1078"
   height="768"
   id="svg2"
   version="1.1"
   inkscape:version="0.91 r13725"
   sodipodi:docname="05 - linear economy_SLIDE.svg"
   viewBox="0 0 1078 768"
   inkscape:export-filename="/home/sam/Documents/presentations/pechakucha_oscedays/exports/pechakucha06a.png"
   inkscape:export-xdpi="90"
   inkscape:export-ydpi="90">
  <defs
     id="defs4" />
  <sodipodi:namedview
     id="base"
     pagecolor="#ffffff"
     bordercolor="#666666"
     borderopacity="1.0"
     inkscape:pageopacity="0.0"
     inkscape:pageshadow="2"
     inkscape:zoom="0.70710676"
     inkscape:cx="519.9341"
     inkscape:cy="319.39954"
     inkscape:document-units="px"
     inkscape:current-layer="layer2"
     showgrid="false"
     width="1920px"
     inkscape:showpageshadow="false"
     inkscape:window-width="1539"
     inkscape:window-height="876"
     inkscape:window-x="61"
     inkscape:window-y="24"
     inkscape:window-maximized="1"
     showguides="false" />
  <metadata
     id="metadata7">
    <rdf:RDF>
      <cc:Work
         rdf:about="">
        <dc:format>image/svg+xml</dc:format>
        <dc:type
           rdf:resource="http://purl.org/dc/dcmitype/StillImage" />
        <dc:title />
      </cc:Work>
    </rdf:RDF>
  </metadata>
  <g
     inkscape:groupmode="layer"
     id="layer2"
     inkscape:label="background"
     style="display:inline"
     transform="translate(0,-312)">
    <rect
       style="display:inline;opacity:1;fill:#026699;fill-opacity:1;stroke:none;stroke-width:7;stroke-linecap:butt;stroke-linejoin:round;stroke-miterlimit:4;stroke-dasharray:none;stroke-dashoffset:0;stroke-opacity:1"
       id="rect4432"
       width="1078"
       height="768"
       x="0"
       y="312" />
  </g>
  <g
     inkscape:groupmode="layer"
     id="layer1"
     inkscape:label="linear"
     style="display:inline">
    <path
       style="fill:#026699;fill-opacity:1;fill-rule:evenodd;stroke:#ffffff;stroke-width:5;stroke-linecap:butt;stroke-linejoin:miter;stroke-miterlimit:4;stroke-dasharray:none;stroke-opacity:1"
       d="m 605.21153,380.5484 -3.43501,34.90583 -52.4814,-2.46097 c -2.52725,-6.5624 -3.66183,-15.44805 -9.69621,-36.43668 l 3.37402,0.65634 z"
       id="path4387"
       inkscape:connector-curvature="0"
       sodipodi:nodetypes="cccccc" />
    <g
       transform="matrix(1.1085724,0,0,1.1087484,-19.996975,-288.25689)"
       style="font-style:normal;font-variant:normal;font-weight:bold;font-stretch:normal;font-size:40px;line-height:125%;font-family:Montserrat;-inkscape-font-specification:'Montserrat, Bold';text-align:center;letter-spacing:2.82999945px;word-spacing:0px;writing-mode:lr-tb;text-anchor:middle;display:inline;fill:#ffffff;fill-opacity:1;stroke:none;stroke-width:17.29999924;stroke-linecap:butt;stroke-linejoin:miter;stroke-miterlimit:4;stroke-dasharray:none;stroke-opacity:1"
       id="flowRoot4257-6">
      <path
         d="m 306.22129,417.06799 0,-22.04 -7.12,0 0,28 19,0 0,-5.96 -11.88,0 z"
         style="fill:#ffffff;fill-opacity:1"
         id="path4217" />
      <path
         d="m 331.47317,423.02799 0,-28 -7.12,0 0,28 7.12,0 z"
         style="fill:#ffffff;fill-opacity:1"
         id="path4219" />
      <path
         d="m 365.75754,423.02799 0,-28 -6.64,0 0,17.28 -12.92,-17.28 -6.28,0 0,28 6.68,0 0,-17.24 12.88,17.24 6.28,0 z"
         style="fill:#ffffff;fill-opacity:1"
         id="path4221" />
      <path
         d="m 396.07379,400.62799 0,-5.6 -21.92,0 0,28 22.36,0 0,-5.6 -15.24,0 0,-5.64 13.36,0 0,-5.6 -13.36,0 0,-5.56 14.8,0 z"
         style="fill:#ffffff;fill-opacity:1"
         id="path4223" />
      <path
         d="m 422.53692,417.86799 2,5.16 7.6,0 -11.8,-28 -7.32,0 -12.08,28 7.32,0 2.04,-5.16 12.24,0 z m -2.08,-5.4 -8.08,0 4.08,-10.36 4,10.36 z"
         style="fill:#ffffff;fill-opacity:1"
         id="path4225" />
      <path
         d="m 454.42816,423.02799 8.08,0 -5.88,-9.24 c 3.28,-1.64 5.08,-4.72 5.08,-9 0,-6.24 -4.24,-9.76 -11.64,-9.76 l -12.52,0 0,28 7.12,0 0,-7.88 5.4,0 0.2,0 4.16,7.88 z m -9.76,-13.48 0,-8.92 5.4,0 c 3.08,0 4.88,1.48 4.88,4.4 0,2.96 -1.8,4.52 -4.88,4.52 l -5.4,0 z"
         style="fill:#ffffff;fill-opacity:1"
         id="path4227" />
      <path
         d="m 503.40942,400.62799 0,-5.6 -21.92,0 0,28 22.36,0 0,-5.6 -15.24,0 0,-5.64 13.36,0 0,-5.6 -13.36,0 0,-5.56 14.8,0 z"
         style="fill:#ffffff;fill-opacity:1"
         id="path4229" />
      <path
         d="m 524.39254,394.78799 c -8.52,0 -14.96,6.08 -14.96,14.16 0,8.2 6.28,14.4 14.72,14.4 4.12,0 8.56,-2.04 11.56,-5.12 l -4.16,-4.4 c -1.96,2 -4.68,3.28 -7.04,3.28 -4.44,0 -7.8,-3.56 -7.8,-8.24 0,-4.6 3.36,-8.12 7.8,-8.12 2.48,0 5.2,1.4 7.04,3.64 l 4.12,-4.88 c -2.8,-2.88 -7.12,-4.72 -11.28,-4.72 z"
         style="fill:#ffffff;fill-opacity:1"
         id="path4231" />
      <path
         d="m 554.57004,394.78799 c -8.64,0 -15.12,6.04 -15.12,14.2 0,8.2 6.48,14.36 15.12,14.36 8.68,0 15.16,-6.2 15.16,-14.36 0,-8.12 -6.48,-14.2 -15.16,-14.2 z m 0.08,5.96 c 4.32,0 7.76,3.56 7.76,8.28 0,4.72 -3.44,8.36 -7.76,8.36 -4.28,0 -7.92,-3.64 -7.92,-8.36 0,-4.72 3.6,-8.28 7.92,-8.28 z"
         style="fill:#ffffff;fill-opacity:1"
         id="path4233" />
      <path
         d="m 602.14753,423.02799 0,-28 -6.64,0 0,17.28 -12.92,-17.28 -6.28,0 0,28 6.68,0 0,-17.24 12.88,17.24 6.28,0 z"
         style="fill:#ffffff;fill-opacity:1"
         id="path4235" />
      <path
         d="m 623.8238,394.78799 c -8.64,0 -15.12,6.04 -15.12,14.2 0,8.2 6.48,14.36 15.12,14.36 8.68,0 15.16,-6.2 15.16,-14.36 0,-8.12 -6.48,-14.2 -15.16,-14.2 z m 0.08,5.96 c 4.32,0 7.76,3.56 7.76,8.28 0,4.72 -3.44,8.36 -7.76,8.36 -4.28,0 -7.92,-3.64 -7.92,-8.36 0,-4.72 3.6,-8.28 7.92,-8.28 z"
         style="fill:#ffffff;fill-opacity:1"
         id="path4237" />
      <path
         d="m 676.32128,423.02799 0,-28.04 -7.76,0 -7.6,16.68 -7.6,-16.68 -7.8,0 0,28.04 6.36,0 0,-18.2 6.72,15.4 4.64,0 6.72,-15.4 0.04,18.2 6.28,0 z"
         style="fill:#ffffff;fill-opacity:1"
         id="path4239" />
      <path
         d="m 699.23752,413.98799 10.16,-18.96 -7.12,0 -6.6,12.2 -6.76,-12.2 -7.12,0 10.36,19.16 0,8.84 7.08,0 0,-9.04 z"
         style="fill:#ffffff;fill-opacity:1"
         id="path4241" />
    </g>
    <path
       sodipodi:nodetypes="ccccccccc"
       inkscape:connector-curvature="0"
       id="path4371"
       d="m 555.7288,419.58562 47.07602,3.38499 0.18111,2.24431 -54.59057,-1.31901 -10.93661,-47.49627 -12.68141,-0.7526 -0.42267,-4.84021 16.95887,0.21227 z"
       style="fill:#ffffff;fill-opacity:1;fill-rule:evenodd;stroke:none;stroke-width:9.32580471;stroke-linecap:butt;stroke-linejoin:miter;stroke-miterlimit:4;stroke-dasharray:none;stroke-opacity:1" />
    <g
       style="fill:#ffffff;fill-opacity:1"
       transform="matrix(-0.66639902,0,0,0.66639902,1004.3284,312.33965)"
       id="g4373">
      <path
         inkscape:connector-curvature="0"
         id="ellipse4375"
         d="m 623.08044,181.05 a 7.5588365,7.5216146 0 0 1 -7.55883,7.52162 7.5588365,7.5216146 0 0 1 -7.55884,-7.52162 7.5588365,7.5216146 0 0 1 7.55884,-7.52161 7.5588365,7.5216146 0 0 1 7.55883,7.52161 z"
         style="opacity:1;fill:#ffffff;fill-opacity:1;stroke:none;stroke-width:9.32580471;stroke-linecap:round;stroke-linejoin:round;stroke-miterlimit:4;stroke-dasharray:none;stroke-dashoffset:0;stroke-opacity:1" />
      <path
         inkscape:connector-curvature="0"
         id="ellipse4377"
         d="m 691.62457,180.09027 a 9.2333355,9.1878681 0 0 1 -9.23333,9.18787 9.2333355,9.1878681 0 0 1 -9.23334,-9.18787 9.2333355,9.1878681 0 0 1 9.23334,-9.18787 9.2333355,9.1878681 0 0 1 9.23333,9.18787 z"
         style="opacity:1;fill:#ffffff;fill-opacity:1;stroke:none;stroke-width:9.32580471;stroke-linecap:round;stroke-linejoin:round;stroke-miterlimit:4;stroke-dasharray:none;stroke-dashoffset:0;stroke-opacity:1" />
    </g>
    <path
       inkscape:connector-curvature="0"
       id="path4379"
       d="m 602.85112,403.85281 -55.25541,-2.77983"
       style="fill:#ffffff;fill-opacity:1;fill-rule:evenodd;stroke:#ffffff;stroke-width:6.99999905;stroke-linecap:butt;stroke-linejoin:miter;stroke-miterlimit:4;stroke-dasharray:none;stroke-opacity:1"
       sodipodi:nodetypes="cc" />
    <path
       style="fill:#ffffff;fill-opacity:1;fill-rule:evenodd;stroke:#ffffff;stroke-width:6.99999905;stroke-linecap:butt;stroke-linejoin:miter;stroke-miterlimit:4;stroke-dasharray:none;stroke-opacity:1"
       d="m 585.30085,379.86531 -1.15202,34.137"
       id="path4381"
       inkscape:connector-curvature="0"
       sodipodi:nodetypes="cc" />
    <path
       inkscape:connector-curvature="0"
       id="path4383"
       d="m 562.84486,378.7915 4.81158,35.02694"
       style="fill:#ffffff;fill-opacity:1;fill-rule:evenodd;stroke:#ffffff;stroke-width:6.99999905;stroke-linecap:butt;stroke-linejoin:miter;stroke-miterlimit:4;stroke-dasharray:none;stroke-opacity:1"
       sodipodi:nodetypes="cc" />
    <path
       sodipodi:nodetypes="ccccc"
       style="fill:#ffffff;fill-opacity:1;fill-rule:evenodd;stroke:#ffffff;stroke-width:6.99999905;stroke-linecap:butt;stroke-linejoin:miter;stroke-miterlimit:4;stroke-dasharray:none;stroke-opacity:1"
       d="m 603.74375,392.0652 -31.93887,-1.63154 -15.96944,-0.81578 -7.98471,-0.40788 -3.99236,-0.20394"
       id="path4385"
       inkscape:connector-curvature="0" />
    <g
       id="g46023"
       transform="matrix(0.58815979,0,0,0.58823369,87.714083,275.80215)"
       style="fill:#ffffff;fill-opacity:1">
      <path
         style="fill:#ffffff;fill-opacity:1"
         id="path3-3"
         d="m 462.88785,173.485 c -15.2882,0 -23.99575,-12.8085 -24.11253,-12.98491 l 5.53089,-3.65869 c 0.50066,0.74541 12.65197,18.30958 33.87979,4.95196 l 3.53321,5.61413 c -7.05399,4.43763 -13.36631,6.07751 -18.83136,6.07751 l 0,0 z"
         inkscape:connector-curvature="0" />
      <path
         style="fill:#ffffff;fill-opacity:1"
         id="path5"
         d="m 519.47262,173.0564 6.65768,0 c -0.3727,-6.52725 -3.9233,-12.03204 -9.99709,-15.49941 -8.82805,-5.04016 -21.60798,-4.89233 -31.79391,0.36525 l 3.04124,5.89489 c 8.27397,-4.26991 18.50587,-4.47117 25.4642,-0.50066 2.80148,1.59889 6.18188,4.58298 6.62788,9.73993 z"
         inkscape:connector-curvature="0" />
      <path
         style="fill:#ffffff;fill-opacity:1"
         id="path7"
         d="m 526.05079,180.41973 -6.59184,0 -2.32069,69.91008 -37.36455,-24.90018 0,24.90639 -37.37822,-24.90639 0,24.90639 -37.37573,-24.90639 0,51.48124 124.23378,0 -3.20275,-96.49114 z m -89.48062,90.0521 -25.11013,0 0,-12.23454 25.11013,0 0,12.23454 z m 37.37573,0 -25.11013,0 0,-12.23454 25.11138,0 0,12.23454 z m 37.37698,0 -25.11138,0 0,-12.23454 25.11138,0 0,12.23454 z"
         inkscape:connector-curvature="0" />
    </g>
    <g
       transform="matrix(0.34616762,-9.2694141e-4,-9.4003669e-4,-0.34134398,221.98773,540.92534)"
       id="g4390"
       style="stroke:#ffffff;stroke-width:1.50060248;stroke-opacity:1;fill:none;fill-opacity:1">
      <path
         sodipodi:nodetypes="ccc"
         style="fill:none;fill-rule:evenodd;stroke:#ffffff;stroke-width:20.36371994;stroke-linecap:round;stroke-linejoin:round;stroke-miterlimit:4;stroke-dasharray:none;stroke-opacity:1;fill-opacity:1"
         d="m 599.37506,402.75122 203.05794,-10e-6 -70.35713,-70.35712"
         id="path4392"
         inkscape:connector-curvature="0" />
      <path
         inkscape:connector-curvature="0"
         id="path4394"
         d="m 802.433,402.3591 -70.35713,70.35712"
         style="fill:none;fill-rule:evenodd;stroke:#ffffff;stroke-width:20.36371994;stroke-linecap:round;stroke-linejoin:round;stroke-miterlimit:4;stroke-dasharray:none;stroke-opacity:1;fill-opacity:1"
         sodipodi:nodetypes="cc" />
    </g>
    <g
       id="g46028"
       transform="matrix(0.66639901,0,0,0.66639901,673.40943,179.10076)"
       style="fill:#ffffff;fill-opacity:1">
      <path
         style="opacity:1;fill:#ffffff;fill-opacity:1;stroke:none;stroke-width:15;stroke-linecap:square;stroke-linejoin:round;stroke-miterlimit:4;stroke-dasharray:30, 15;stroke-dashoffset:0;stroke-opacity:1"
         d="m 172.82912,315.73386 a 29.022509,29.022509 0 0 1 -29.02251,29.0225 29.022509,29.022509 0 0 1 -29.02251,-29.0225 29.022509,29.022509 0 0 1 29.02251,-29.02251 29.022509,29.022509 0 0 1 29.02251,29.02251 z"
         id="path4142" />
      <path
         id="rect4144"
         d="m 89.654945,373.04537 c 0.35419,-22.65173 17.469795,-27.78371 27.297075,-28.725 9.256,-0.88655 15.16855,8.33247 27.29707,8.04558 12.12851,-0.28663 18.04106,-8.93213 27.29707,-8.04558 9.82727,0.94129 27.47409,6.6042 27.29714,28.725 l 0,16.40145 -109.188355,0 z"
         style="opacity:1;fill:#ffffff;fill-opacity:1;stroke:none;stroke-width:15;stroke-linecap:square;stroke-linejoin:round;stroke-miterlimit:4;stroke-dasharray:30, 15;stroke-dashoffset:0;stroke-opacity:1"
         inkscape:connector-curvature="0" />
    </g>
    <g
       style="stroke:#ffffff;stroke-width:1.50060248;stroke-opacity:1;fill:none;fill-opacity:1"
       id="g46944"
       transform="matrix(0.34616762,-9.2694141e-4,-9.4003669e-4,-0.34134398,425.52387,540.92534)">
      <g
         id="g46976"
         style="stroke-width:1.50060248;fill:none;fill-opacity:1;stroke:#ffffff;stroke-opacity:1">
        <path
           sodipodi:nodetypes="ccc"
           style="fill:none;fill-rule:evenodd;stroke:#ffffff;stroke-width:20.36371994;stroke-linecap:round;stroke-linejoin:round;stroke-miterlimit:4;stroke-dasharray:none;stroke-opacity:1;fill-opacity:1"
           d="m 599.37506,402.75122 203.05794,-10e-6 -70.35713,-70.35712"
           id="path46946"
           inkscape:connector-curvature="0" />
        <path
           inkscape:connector-curvature="0"
           id="path46948"
           d="m 802.433,402.3591 -70.35713,70.35712"
           style="fill:none;fill-rule:evenodd;stroke:#ffffff;stroke-width:20.36371994;stroke-linecap:round;stroke-linejoin:round;stroke-miterlimit:4;stroke-dasharray:none;stroke-opacity:1;fill-opacity:1"
           sodipodi:nodetypes="cc" />
      </g>
      <g
         id="g46981"
         style="stroke-width:1.50060248;fill:none;fill-opacity:1;stroke:#ffffff;stroke-opacity:1">
        <path
           inkscape:connector-curvature="0"
           id="path46983"
           d="m 599.37506,402.75122 203.05794,-10e-6 -70.35713,-70.35712"
           style="fill:none;fill-rule:evenodd;stroke:#ffffff;stroke-width:20.36371994;stroke-linecap:round;stroke-linejoin:round;stroke-miterlimit:4;stroke-dasharray:none;stroke-opacity:1;fill-opacity:1"
           sodipodi:nodetypes="ccc" />
        <path
           sodipodi:nodetypes="cc"
           style="fill:none;fill-rule:evenodd;stroke:#ffffff;stroke-width:20.36371994;stroke-linecap:round;stroke-linejoin:round;stroke-miterlimit:4;stroke-dasharray:none;stroke-opacity:1;fill-opacity:1"
           d="m 802.433,402.3591 -70.35713,70.35712"
           id="path46985"
           inkscape:connector-curvature="0" />
      </g>
    </g>
    <g
       transform="matrix(0.34616762,-9.2694141e-4,-9.4003669e-4,-0.34134398,629.05999,540.92534)"
       id="g47015"
       style="stroke:#ffffff;stroke-width:1.50060248;stroke-opacity:1;fill:none;fill-opacity:1">
      <g
         id="g47017"
         style="stroke-width:1.50060248;fill:none;fill-opacity:1;stroke:#ffffff;stroke-opacity:1">
        <path
           inkscape:connector-curvature="0"
           id="path47019"
           d="m 599.37506,402.75122 203.05794,-10e-6 -70.35713,-70.35712"
           style="fill:none;fill-rule:evenodd;stroke:#ffffff;stroke-width:20.36371994;stroke-linecap:round;stroke-linejoin:round;stroke-miterlimit:4;stroke-dasharray:none;stroke-opacity:1;fill-opacity:1"
           sodipodi:nodetypes="ccc" />
        <path
           sodipodi:nodetypes="cc"
           style="fill:none;fill-rule:evenodd;stroke:#ffffff;stroke-width:20.36371994;stroke-linecap:round;stroke-linejoin:round;stroke-miterlimit:4;stroke-dasharray:none;stroke-opacity:1;fill-opacity:1"
           d="m 802.433,402.3591 -70.35713,70.35712"
           id="path47021"
           inkscape:connector-curvature="0" />
      </g>
      <g
         id="g47023"
         style="stroke-width:1.50060248;fill:none;fill-opacity:1;stroke:#ffffff;stroke-opacity:1">
        <path
           sodipodi:nodetypes="ccc"
           style="fill:none;fill-rule:evenodd;stroke:#ffffff;stroke-width:20.36371994;stroke-linecap:round;stroke-linejoin:round;stroke-miterlimit:4;stroke-dasharray:none;stroke-opacity:1;fill-opacity:1"
           d="m 599.37506,402.75122 203.05794,-10e-6 -70.35713,-70.35712"
           id="path47025"
           inkscape:connector-curvature="0" />
        <path
           inkscape:connector-curvature="0"
           id="path47027"
           d="m 802.433,402.3591 -70.35713,70.35712"
           style="fill:none;fill-rule:evenodd;stroke:#ffffff;stroke-width:20.36371994;stroke-linecap:round;stroke-linejoin:round;stroke-miterlimit:4;stroke-dasharray:none;stroke-opacity:1;fill-opacity:1"
           sodipodi:nodetypes="cc" />
      </g>
    </g>
    <g
       style="display:inline;opacity:1;fill:#ffffff;fill-opacity:1;stroke:#026699;stroke-width:5.37139273;stroke-miterlimit:4;stroke-dasharray:none;stroke-opacity:1"
       id="g4324"
       transform="matrix(0.37237876,0,0,0.37230708,387.07832,330.29515)">
      <path
         inkscape:connector-curvature="0"
         id="path4322"
         d="m 1658.1654,277.37315 21.5668,-125.1579 0.7071,-3.18199 -6.364,-17.67767 -105.7125,1.41422 -6.3639,14.84924 2.1213,7.77818 20.5061,122.68302 z"
         style="fill:#ffffff;fill-opacity:1;fill-rule:evenodd;stroke:#026699;stroke-width:5.37139273;stroke-linecap:butt;stroke-linejoin:miter;stroke-miterlimit:4;stroke-dasharray:none;stroke-opacity:1" />
      <path
         style="fill:#ffffff;fill-opacity:1;stroke:none;stroke-width:3.11812997;stroke-miterlimit:4;stroke-dasharray:none;stroke-opacity:1"
         sodipodi:nodetypes="csccsccsccsccsccsccsccsscccssccscccccsccccccccscccccccsccscccccccccccccccccccccccc"
         inkscape:connector-curvature="0"
         d="m 1603.5566,110.98026 c -6.546,0 -11.3612,6.18485 -11.3612,13.35147 l 0,3.92172 -4.965,0 -15.949,0 c -6.546,0 -11.8882,5.88256 -12.7924,13.04918 l -1.3536,10.25905 c -0.1525,1.20647 0.9015,2.41295 2.1053,2.41295 l 2.4076,0 14.5981,114.27267 c 0.9015,7.09439 6.3186,13.05186 12.7897,13.05186 l 15.8768,0 31.9007,0 15.7992,0 c 6.5433,0 11.8855,-5.95747 12.8673,-13.05186 l 14.5954,-114.27267 2.3327,0 c 1.2038,0 2.3327,-1.20648 2.1802,-2.41295 l -1.3536,-10.26172 c -0.9042,-7.16662 -6.3962,-13.04919 -12.8673,-13.04919 l -15.8768,0 -4.965,0 0,-3.92171 c 0,-7.16662 -4.8901,-13.35147 -11.4361,-13.35147 l -34.533,0 z m 2.6049,6.90116 29.3232,0 c 3.7612,0 7.1479,1.16697 7.1479,6.44764 l 0,3.92171 -43.6189,0 0,-3.92171 c 0,-5.27799 3.3866,-6.44764 7.1478,-6.44764 z m -34.8828,17.20096 15.949,0 67.2657,0 15.8768,0 c 3.7612,0 4.9874,1.78413 5.9714,6.74725 l 1.054,5.31606 -1.8057,0 -21.0938,0 -49.5832,0 -17.6825,0 -22.9022,0 0.9791,-5.31606 c 0.6768,-5.28067 2.2102,-6.74725 5.9714,-6.74725 z m -5.3422,18.89225 21.2912,0 17.6825,0 49.5832,0 18.6862,0 -14.5954,113.74568 c -0.6768,5.20843 -2.2102,6.75259 -5.9714,6.75259 l -15.7992,0 -31.9007,0 -15.8768,0 c -3.7612,0 -5.2946,-1.54416 -5.9741,-6.75259 z m 25.1538,14.85756 c -0.075,0 -0.1498,0 -0.2247,0.0749 -1.054,0.14981 -3.1082,1.28138 -2.9584,2.26315 l 9.0285,87.64997 c 0.1498,1.1289 3.8088,2.03844 4.9376,1.88596 1.1289,-0.0776 2.0305,-1.20648 1.9556,-2.26315 l -9.1034,-87.65265 c -0.075,-1.12622 -2.5063,-2.10799 -3.6352,-1.95818 z m 59.0911,0 c -0.075,0 -0.1525,0 -0.2274,0.0749 -0.9015,0.14981 -2.8834,0.97909 -2.9557,1.88595 l -9.1034,87.65266 c -0.075,1.05667 2.1318,2.18289 3.258,2.26314 1.054,0.15248 3.4827,-0.75705 3.5603,-1.88595 l 9.1034,-87.64998 c 0.1498,-1.20915 -2.3565,-2.49053 -3.6352,-2.34072 z m -29.5442,0.30229 c -0.075,0 -0.1525,0.0749 -0.2247,0.0749 -0.9791,0.22471 -3.0333,1.13157 -2.9584,2.11334 l 0,88.32945 c -0.075,1.1289 2.2789,2.18289 3.4078,2.18289 1.1289,0 3.4105,-1.05667 3.4105,-2.18289 l 0,-88.32945 c 0.075,-1.20648 -2.4314,-2.26315 -3.6352,-2.18824 z"
         id="path4352" />
    </g>
    <g
       transform="matrix(0.37237876,0,0,0.37230708,386.93792,329.74369)"
       id="g47081"
       style="display:inline;opacity:1;fill:#ffffff;fill-opacity:1;stroke:none;stroke-width:3.57949066;stroke-miterlimit:4;stroke-dasharray:none;stroke-opacity:1">
      <path
         style="fill:#ffffff;fill-opacity:1;fill-rule:evenodd;stroke:none;stroke-width:3.57949066;stroke-linecap:butt;stroke-linejoin:miter;stroke-miterlimit:4;stroke-dasharray:none;stroke-opacity:1"
         d="m 1658.1654,277.37315 21.5668,-125.1579 0.7071,-3.18199 -6.364,-17.67767 -105.7125,1.41422 -6.3639,14.84924 2.1213,7.77818 20.5061,122.68302 z"
         id="path47083"
         inkscape:connector-curvature="0" />
    </g>
    <path
       style="color:#000000;font-style:normal;font-variant:normal;font-weight:normal;font-stretch:normal;font-size:medium;line-height:normal;font-family:sans-serif;text-indent:0;text-align:start;text-decoration:none;text-decoration-line:none;text-decoration-style:solid;text-decoration-color:#000000;letter-spacing:normal;word-spacing:normal;text-transform:none;direction:ltr;block-progression:tb;writing-mode:lr-tb;baseline-shift:baseline;text-anchor:start;white-space:normal;clip-rule:nonzero;display:inline;overflow:visible;visibility:visible;opacity:1;isolation:auto;mix-blend-mode:normal;color-interpolation:sRGB;color-interpolation-filters:linearRGB;solid-color:#000000;solid-opacity:1;fill:#ffffff;fill-opacity:1;fill-rule:evenodd;stroke:none;stroke-width:1.99999988;stroke-linecap:butt;stroke-linejoin:miter;stroke-miterlimit:4;stroke-dasharray:none;stroke-dashoffset:0;stroke-opacity:1;color-rendering:auto;image-rendering:auto;shape-rendering:auto;text-rendering:auto;enable-background:accumulate"
       d="m 958.40722,375.39797 c -2.14102,-0.25664 -4.54226,0.0272 -6.38155,0.81868 l -0.70285,0.30196 0.39568,0.65469 c 0,0 0.47938,0.79339 1.0113,1.73367 0.53194,0.94028 1.12446,2.06826 1.29506,2.54586 l 0.1653,0.46205 0.49199,-0.0208 c 0.3521,-0.0153 1.18034,0.0926 1.85863,0.21606 0.67829,0.1235 1.23649,0.2525 1.23649,0.2525 l 0.61042,0.14057 0.17832,-0.60002 c 0.33366,-1.12369 1.2909,-2.19857 4.11033,-2.81137 l 0.73148,-0.1601 -0.2434,-0.70804 c -0.30411,-0.8845 -0.99812,-1.53905 -1.83911,-1.98618 -0.84098,-0.44714 -1.84758,-0.71119 -2.91809,-0.83951 z"
       id="path4390"
       inkscape:connector-curvature="0"
       sodipodi:nodetypes="ccccsccccccccccscc" />
    <path
       style="fill:#ffffff;fill-opacity:1;fill-rule:evenodd;stroke:#026699;stroke-width:1px;stroke-linecap:butt;stroke-linejoin:miter;stroke-opacity:1"
       d="m 967.3001,387.87081 46.9304,0.007"
       id="path47093"
       inkscape:connector-curvature="0"
       sodipodi:nodetypes="cc" />
    <path
       style="color:#000000;font-style:normal;font-variant:normal;font-weight:normal;font-stretch:normal;font-size:medium;line-height:normal;font-family:sans-serif;text-indent:0;text-align:start;text-decoration:none;text-decoration-line:none;text-decoration-style:solid;text-decoration-color:#000000;letter-spacing:normal;word-spacing:normal;text-transform:none;direction:ltr;block-progression:tb;writing-mode:lr-tb;baseline-shift:baseline;text-anchor:start;white-space:normal;clip-rule:nonzero;display:inline;overflow:visible;visibility:visible;opacity:1;isolation:auto;mix-blend-mode:normal;color-interpolation:sRGB;color-interpolation-filters:linearRGB;solid-color:#000000;solid-opacity:1;fill:#000000;fill-opacity:0;fill-rule:evenodd;stroke:#026699;stroke-width:4.78803396;stroke-linecap:butt;stroke-linejoin:miter;stroke-miterlimit:4;stroke-dasharray:none;stroke-dashoffset:0;stroke-opacity:1;color-rendering:auto;image-rendering:auto;shape-rendering:auto;text-rendering:auto;enable-background:accumulate"
       d="m 952.78979,382.77594 c -4.72806,-0.0721 -9.21548,1.2358 -12.60129,4.47318 l -0.0199,0.0189 -0.0189,0.0199 c -5.67358,5.96979 -3.87593,13.45198 -3.59356,16.07948 -2.40356,2.56425 -3.51487,6.67261 -4.14247,10.60001 -0.66493,4.16094 -0.71478,8.08469 -0.61621,9.79307 l 0,0.0156 0.003,0.0151 c 0.12773,1.50697 -0.22271,5.74504 3.16017,9.18171 3.37812,3.43187 10.14323,5.9969 23.97348,5.74514 10.83234,0.30645 15.79029,-2.35757 17.84689,-5.72951 1.02832,-1.68596 1.2749,-3.45115 1.2798,-4.87428 0.004,-1.42313 -0.19748,-2.69658 -0.19372,-2.82 l 0.003,-0.0549 -0.004,-0.0544 c -0.40843,-6.29877 -1.21712,-10.95372 -3.91371,-15.42788 0.77406,-5.74154 0.96134,-11.03441 -0.69958,-15.49653 -1.69943,-4.56558 -5.43251,-8.1217 -11.90266,-9.99102 -2.81621,-0.91264 -5.73039,-1.45048 -8.55875,-1.49359 z m 0.0238,2.31189 c 2.54745,0.0434 5.21407,0.53075 7.84637,1.38609 l 0.0185,0.006 0.0184,0.006 c 5.97767,1.7242 8.92545,4.6496 10.3889,8.58125 1.46346,3.93163 1.33258,9.01714 0.53142,14.77531 l -0.0578,0.41673 0.22357,0.35611 c 2.60813,4.15589 3.36399,8.36722 3.77588,14.71944 l -0.003,-0.10939 c -0.0266,0.87672 0.19679,1.71657 0.19277,2.88204 -0.004,1.16547 -0.20085,2.46376 -0.94206,3.67903 -1.48244,2.43055 -5.36724,4.91869 -15.80883,4.6233 l -0.027,-6.7e-4 -0.027,4.8e-4 c -13.56701,0.25433 -19.64806,-2.32338 -22.33801,-5.05612 -2.68994,-2.73274 -2.32923,-5.68703 -2.50462,-7.75632 l 0.003,0.0312 c -0.0833,-1.44358 -0.04,-5.34652 0.59112,-9.29584 0.63108,-3.9493 1.94159,-7.95656 3.85688,-9.72961 l 0.40023,-0.37079 -0.0322,-0.54411 c -0.1876,-3.2112 -2.15493,-9.4552 2.88261,-14.78195 2.86686,-2.7317 6.77285,-3.88951 11.0108,-3.81731 z"
       id="path4288"
       inkscape:connector-curvature="0" />
    <path
       style="fill:#ffffff;fill-opacity:1;fill-rule:evenodd;stroke:#026699;stroke-width:1.99999976;stroke-linecap:butt;stroke-linejoin:miter;stroke-miterlimit:4;stroke-dasharray:none;stroke-opacity:1"
       d="m 961.10047,385.12546 c 12.45518,3.59258 13.36652,12.96708 11.7444,24.62559 2.74362,4.37183 3.53429,8.84662 3.95007,15.25855 -0.0606,2.00028 3.52853,12.90603 -17.74537,12.30419 -27.43639,0.51433 -25.71227,-10.2935 -26.0154,-13.86977 -0.18189,-3.15197 0.18619,-15.65344 4.81609,-19.93955 -0.16018,-2.74147 -2.27691,-9.88673 3.22003,-15.67067 5.00331,-4.78396 12.755,-5.07232 20.03018,-2.70834 z"
       id="path4388"
       inkscape:connector-curvature="0"
       sodipodi:nodetypes="cccccccc" />
    <path
       style="fill:#026699;fill-opacity:1;fill-rule:evenodd;stroke:#026699;stroke-width:4;stroke-linecap:round;stroke-linejoin:miter;stroke-miterlimit:4;stroke-dasharray:none;stroke-opacity:1"
       d="m 979.58121,393.76101 3.3574,32.86725"
       id="path47087"
       inkscape:connector-curvature="0" />
    <path
       inkscape:connector-curvature="0"
       id="path47089"
       d="m 1001.5978,393.76101 -3.35742,32.86725"
       style="fill:#026699;fill-opacity:1;fill-rule:evenodd;stroke:#026699;stroke-width:4;stroke-linecap:round;stroke-linejoin:miter;stroke-miterlimit:4;stroke-dasharray:none;stroke-opacity:1" />
    <path
       style="fill:#026699;fill-opacity:1;fill-rule:evenodd;stroke:#026699;stroke-width:4;stroke-linecap:round;stroke-linejoin:miter;stroke-miterlimit:4;stroke-dasharray:none;stroke-opacity:1"
       d="m 990.58315,394.58564 0.0586,31.80702"
       id="path47091"
       inkscape:connector-curvature="0"
       sodipodi:nodetypes="cc" />
    <path
       style="fill:#ffffff;fill-opacity:1;fill-rule:evenodd;stroke:none;stroke-width:1px;stroke-linecap:butt;stroke-linejoin:miter;stroke-opacity:1"
       d="m 217.0463,443.73125 -12.11561,-17.13166 -9.71337,-7.47175 c 0,0 -5.94976,-12.68123 -10.61455,-17.51262 -10.43371,0.30952 -6.23333,11.42689 -13.44938,17.95777 -4.45028,-1.0845 -5.0194,3.69071 -7.04662,5.36105 -2.05456,1.69286 -11.7527,-4.98106 -12.99164,-3.2249 -2.40938,3.41523 -5.41684,7.11567 -7.83037,22.31857 z"
       id="path47101"
       inkscape:connector-curvature="0"
       sodipodi:nodetypes="cccccsscc" />
    <path
       inkscape:connector-curvature="0"
       id="ellipse9"
       d="m 127.76111,383.38947 a 6.2550655,7.5085898 16.057151 0 1 -8.08788,5.48552 6.2550655,7.5085898 16.057151 0 1 -3.93419,-8.94577 6.2550655,7.5085898 16.057151 0 1 8.08788,-5.48553 6.2550655,7.5085898 16.057151 0 1 3.93419,8.94578 z"
       style="fill:#ffffff;fill-opacity:1" />
    <path
       sodipodi:nodetypes="cccccccccccccccssc"
       inkscape:connector-curvature="0"
       style="fill:#ffffff;fill-opacity:1"
       d="m 123.21027,392.14506 c 5.58009,4.31403 12.61668,8.02747 16.89304,11.18844 3.10028,2.29042 1.11853,7.0303 -3.78563,4.46888 -4.60701,-2.40762 -12.04611,-7.07294 -15.35205,-8.9536 -1.7704,0.85694 -5.11736,10.45091 -5.69912,13.38168 -0.64245,3.23631 11.38724,8.44914 13.09276,12.67213 1.24932,3.09401 2.79266,10.92685 3.65589,16.4473 0.67488,4.31404 -5.26526,4.76396 -6.20906,0.80777 -0.92077,-3.85887 -1.8906,-10.03536 -3.68506,-12.94103 -1.51091,-2.44738 -9.50385,-7.32957 -9.50803,-6.47157 -0.0115,2.42644 2.72465,7.19249 2.65455,9.70683 -0.091,3.22793 -3.74631,8.18028 -5.3587,10.31166 -3.11912,4.12046 -7.86846,2.69262 -6.11585,-0.81154 1.5423,-3.08146 3.7704,-7.54767 4.09163,-9.90505 0.40493,-2.96532 -6.38145,-11.02619 -6.97472,-14.85786 -0.56032,-3.62241 1.41965,-6.01255 2.26649,-8.72226 1.7312,-5.53947 3.99181,-17.09268 7.02027,-18.90185 4.31698,-2.57895 10.59028,0.70713 13.01359,2.58007 z"
       id="path11-3" />
    <path
       style="fill:#ffffff;fill-opacity:1;stroke:none;stroke-width:1.57012916;stroke-opacity:1"
       sodipodi:nodetypes="ccccccccccscccc"
       inkscape:connector-curvature="0"
       d="m 159.33594,385.43389 c -0.83155,-0.89418 -2.54818,-2.50392 -3.34407,-3.18504 -2.6964,-2.23078 -6.20476,-4.46575 -10.76886,-6.47262 -0.30239,-0.13288 -0.655,-0.10463 -0.93123,0.0816 -0.27624,0.1852 -0.43842,0.49806 -0.43005,0.82974 l 0.0576,2.50806 c 0.008,0.38087 0.23961,0.72093 0.59117,0.8716 0.0806,0.0335 4.29415,1.85306 8.7327,4.95961 1.77095,1.16792 2.70372,1.76213 3.74482,2.9517 2.68384,2.39924 5.01821,5.25469 6.01641,8.44914 0.1287,0.41225 0.66471,1.16951 1.0822,1.30486 0.0597,0.0194 0.36713,-0.0678 0.43096,-0.0813 0.36264,-0.68145 0.3955,-1.26675 0.37966,-1.60443 -0.0272,-0.3118 -0.56084,-5.09877 -5.56126,-10.61294 z"
       id="path13-8" />
    <path
       id="path47144"
       d="m 159.66763,385.07395 c 0.53886,-0.58387 0.51061,-1.49207 -0.0649,-2.04035 l -1.22211,-1.16562 c -0.57549,-0.54828 -1.48265,-0.53781 -2.0414,0.0293 l -0.34738,0.35157 -2.74871,2.778 -16.02103,18.80005 c -0.27519,0.27832 -0.42586,0.655 -0.42063,1.04528 0.005,0.39029 0.16741,0.76278 0.44992,1.03169 l 0.5395,0.7015 c 0.271,0.2595 0.63198,0.40388 1.00553,0.40388 0.0157,0 0.0314,0 0.046,-8.9e-4 0.39133,-0.0125 0.75964,-0.18101 1.02436,-0.4677 6.59684,-7.15867 13.20398,-14.30787 19.80079,-21.46656 z"
       inkscape:connector-curvature="0"
       sodipodi:nodetypes="cccccccsccsccc"
       style="fill:#ffffff;fill-opacity:1" />
    <path
       style="fill:#026699;fill-opacity:1;fill-rule:evenodd;stroke:#ffffff;stroke-width:2;stroke-linecap:butt;stroke-linejoin:miter;stroke-miterlimit:4;stroke-dasharray:none;stroke-opacity:1"
       d="m 115.85017,378.88677 c 4.06452,0.57588 6.50431,0.60397 8.46997,0.56104 0.98283,-0.0215 1.84712,-0.0607 2.73671,-0.058 0.44478,10e-4 0.8959,0.0131 1.37131,0.0428 0.23771,0.0149 0.48149,0.0342 0.73359,0.0589 0.25211,0.0247 0.97068,0.15899 0.74188,-0.20021 -0.27988,-0.72061 -0.65506,-0.74531 -1.04493,-0.96973 -0.38988,-0.22441 -0.75281,-0.35697 -0.92491,-0.7102 -1.3943,-2.66017 -0.23544,-5.43297 -5.99102,-5.53293 -5.75559,-0.1 -5.50898,5.31626 -5.50898,5.31626 0,0 -0.4547,0.66817 -0.58362,1.49218 z"
       id="path47142"
       inkscape:connector-curvature="0"
       sodipodi:nodetypes="csssscsczcc" />
    <g
       style="stroke:#ffffff;stroke-width:1.50060248;stroke-opacity:1;fill:none;fill-opacity:1"
       id="g44048"
       transform="matrix(0.34616762,-9.2694141e-4,-9.4003669e-4,-0.34134398,18.451589,540.92534)">
      <path
         inkscape:connector-curvature="0"
         id="path44050"
         d="m 599.37506,402.75122 203.05794,-10e-6 -70.35713,-70.35712"
         style="fill:none;fill-rule:evenodd;stroke:#ffffff;stroke-width:20.36371994;stroke-linecap:round;stroke-linejoin:round;stroke-miterlimit:4;stroke-dasharray:none;stroke-opacity:1;fill-opacity:1"
         sodipodi:nodetypes="ccc" />
      <path
         sodipodi:nodetypes="cc"
         style="fill:none;fill-rule:evenodd;stroke:#ffffff;stroke-width:20.36371994;stroke-linecap:round;stroke-linejoin:round;stroke-miterlimit:4;stroke-dasharray:none;stroke-opacity:1;fill-opacity:1"
         d="m 802.433,402.3591 -70.35713,70.35712"
         id="path44052"
         inkscape:connector-curvature="0" />
    </g>
    <g
       transform="matrix(0.98420763,0,0,0.98436389,-351.34599,73.03487)"
       style="font-style:normal;font-variant:normal;font-weight:bold;font-stretch:normal;font-size:40px;line-height:125%;font-family:Montserrat;-inkscape-font-specification:'Montserrat, Bold';text-align:center;letter-spacing:2.82999945px;word-spacing:0px;writing-mode:lr-tb;text-anchor:middle;display:inline;fill:#ffffff;fill-opacity:1;stroke:none;stroke-width:17.29999924;stroke-linecap:butt;stroke-linejoin:miter;stroke-miterlimit:4;stroke-dasharray:none;stroke-opacity:1"
       id="flowRoot4249">
      <path
         d="m 422.76591,402.64298 0,-6.65217 8.14046,0 0,-0.99219 -8.14046,0 0,-6.29137 9.31304,0 0,-1.03729 -10.46308,0 0,16.01031 10.66603,0 0,-1.03729 -9.51599,0 z"
         style="font-style:normal;font-variant:normal;font-weight:300;font-stretch:normal;font-size:22.54973602px;font-family:Raleway;-inkscape-font-specification:'Raleway Light';fill:#ffffff;fill-opacity:1"
         id="path4248" />
      <path
         d="m 436.35742,387.66996 6.26883,8.1179 -6.08843,7.89241 1.33043,0 5.41194,-7.05807 5.41194,7.05807 1.30788,0 -6.08843,-7.89241 6.26883,-8.1179 -1.30789,0 -5.59233,7.28356 -5.59234,-7.28356 -1.33043,0 z"
         style="font-style:normal;font-variant:normal;font-weight:300;font-stretch:normal;font-size:22.54973602px;font-family:Raleway;-inkscape-font-specification:'Raleway Light';fill:#ffffff;fill-opacity:1"
         id="path4250" />
      <path
         d="m 466.51664,387.66996 -12.8759,0 0,1.03729 5.86293,0 0,14.97302 1.15004,0 0,-14.97302 5.86293,0 0,-1.03729 z"
         style="font-style:normal;font-variant:normal;font-weight:300;font-stretch:normal;font-size:22.54973602px;font-family:Raleway;-inkscape-font-specification:'Raleway Light';fill:#ffffff;fill-opacity:1"
         id="path4252" />
      <path
         d="m 473.09624,403.68027 0,-6.04333 5.18644,0 3.87855,6.04333 1.33044,0 -3.9913,-6.22373 c 2.25497,-0.33824 3.7658,-2.45792 3.7658,-4.82564 0,-2.43537 -1.93928,-4.96094 -4.64524,-4.96094 l -6.67473,0 0,16.01031 1.15004,0 z m 0,-14.97302 5.45704,0 c 1.96182,0 3.56286,1.87163 3.56286,3.92365 0,2.00693 -1.33044,3.9462 -3.40502,3.9462 l -5.61488,0 0,-7.86985 z"
         style="font-style:normal;font-variant:normal;font-weight:300;font-stretch:normal;font-size:22.54973602px;font-family:Raleway;-inkscape-font-specification:'Raleway Light';fill:#ffffff;fill-opacity:1"
         id="path4254" />
      <path
         d="m 488.85816,403.68027 2.23242,-5.27664 7.64436,0 2.23243,5.27664 1.24023,0 -6.81002,-16.01031 -0.94709,0 -6.81002,16.01031 1.21769,0 z m 9.56109,-6.22373 -7.05807,0 3.56286,-8.3885 3.49521,8.3885 z"
         style="font-style:normal;font-variant:normal;font-weight:300;font-stretch:normal;font-size:22.54973602px;font-family:Raleway;-inkscape-font-specification:'Raleway Light';fill:#ffffff;fill-opacity:1"
         id="path4256" />
      <path
         d="m 506.49523,395.56237 c 0,4.05895 3.08931,8.2532 7.46396,8.2532 2.45792,0 5.27664,-1.30788 6.33648,-3.72071 l -0.96964,-0.47354 c -1.10494,2.18732 -3.35991,3.13441 -5.27664,3.13441 -3.60796,0 -6.40412,-3.35991 -6.40412,-7.12571 0,-3.38246 2.27752,-6.99042 6.33647,-6.99042 1.87163,0 3.92366,0.76669 5.02859,2.97656 l 0.94709,-0.54119 c -0.96964,-2.02948 -3.04421,-3.49521 -5.88548,-3.49521 -4.80309,0 -7.57671,4.1266 -7.57671,7.98261 z"
         style="font-style:normal;font-variant:normal;font-weight:300;font-stretch:normal;font-size:22.54973602px;font-family:Raleway;-inkscape-font-specification:'Raleway Light';fill:#ffffff;fill-opacity:1"
         id="path4258" />
      <path
         d="m 537.02969,387.66996 -12.8759,0 0,1.03729 5.86294,0 0,14.97302 1.15003,0 0,-14.97302 5.86293,0 0,-1.03729 z"
         style="font-style:normal;font-variant:normal;font-weight:300;font-stretch:normal;font-size:22.54973602px;font-family:Raleway;-inkscape-font-specification:'Raleway Light';fill:#ffffff;fill-opacity:1"
         id="path4260" />
      <path
         d="m 543.60929,403.68027 0,-15.98776 -1.15003,0 0,15.98776 1.15003,0 z"
         style="font-style:normal;font-variant:normal;font-weight:300;font-stretch:normal;font-size:22.54973602px;font-family:Raleway;-inkscape-font-specification:'Raleway Light';fill:#ffffff;fill-opacity:1"
         id="path4262" />
      <path
         d="m 557.11167,403.79302 c 4.2619,0 7.48651,-3.8109 7.48651,-8.1179 0,-3.99131 -3.02166,-8.11791 -7.46396,-8.11791 -4.2619,0 -7.50906,3.85601 -7.50906,8.11791 0,4.10405 3.04421,8.09535 7.48651,8.1179 z m -6.33648,-8.1179 c 0,-3.49521 2.50302,-7.05807 6.33648,-7.05807 3.65306,0 6.33647,3.38246 6.33647,7.05807 0,3.47265 -2.50302,7.05806 -6.33647,7.05806 -3.72071,0 -6.33648,-3.38246 -6.33648,-7.05806 z"
         style="font-style:normal;font-variant:normal;font-weight:300;font-stretch:normal;font-size:22.54973602px;font-family:Raleway;-inkscape-font-specification:'Raleway Light';fill:#ffffff;fill-opacity:1"
         id="path4264" />
      <path
         d="m 582.82436,403.68027 1.05984,0 0,-15.98776 -1.15004,0 0,14.07103 -11.22977,-14.09358 -0.87944,0 0,16.01031 1.15004,0 0,-13.84554 11.04937,13.84554 z"
         style="font-style:normal;font-variant:normal;font-weight:300;font-stretch:normal;font-size:22.54973602px;font-family:Raleway;-inkscape-font-specification:'Raleway Light';fill:#ffffff;fill-opacity:1"
         id="path4266" />
    </g>
    <g
       transform="matrix(0.98420763,0,0,0.98436389,-125.63583,73.03487)"
       style="font-style:normal;font-variant:normal;font-weight:bold;font-stretch:normal;font-size:40px;line-height:125%;font-family:Montserrat;-inkscape-font-specification:'Montserrat, Bold';text-align:center;letter-spacing:2.82999945px;word-spacing:0px;writing-mode:lr-tb;text-anchor:middle;display:inline;fill:#ffffff;fill-opacity:1;stroke:none;stroke-width:17.29999924;stroke-linecap:butt;stroke-linejoin:miter;stroke-miterlimit:4;stroke-dasharray:none;stroke-opacity:1"
       id="flowRoot4257">
      <path
         d="m 404.89929,403.68027 0,-16.01031 -1.15004,0 -6.67472,11.45527 -6.67472,-11.45527 -1.15004,0 0,16.01031 1.15004,0 0,-13.84554 6.31392,10.80133 0.72159,0 6.31393,-10.80133 0,13.84554 1.15004,0 z"
         style="font-style:normal;font-variant:normal;font-weight:300;font-stretch:normal;font-size:22.54973602px;font-family:Raleway;-inkscape-font-specification:'Raleway Light';fill:#ffffff;fill-opacity:1"
         id="path4269" />
      <path
         d="m 411.49086,403.68027 2.23243,-5.27664 7.64436,0 2.23242,5.27664 1.24024,0 -6.81002,-16.01031 -0.94709,0 -6.81002,16.01031 1.21768,0 z m 9.56109,-6.22373 -7.05807,0 3.56286,-8.3885 3.49521,8.3885 z"
         style="font-style:normal;font-variant:normal;font-weight:300;font-stretch:normal;font-size:22.54973602px;font-family:Raleway;-inkscape-font-specification:'Raleway Light';fill:#ffffff;fill-opacity:1"
         id="path4271" />
      <path
         d="m 442.38718,403.68027 1.05984,0 0,-15.98776 -1.15004,0 0,14.07103 -11.22977,-14.09358 -0.87944,0 0,16.01031 1.15004,0 0,-13.84554 11.04937,13.84554 z"
         style="font-style:normal;font-variant:normal;font-weight:300;font-stretch:normal;font-size:22.54973602px;font-family:Raleway;-inkscape-font-specification:'Raleway Light';fill:#ffffff;fill-opacity:1"
         id="path4273" />
      <path
         d="m 456.90675,402.73318 c -4.2619,0 -5.50213,-3.47266 -5.50213,-7.01297 l 0,-8.05025 -1.15004,0 0,8.05025 c 0,4.05896 1.60103,8.07281 6.67472,8.07281 4.91584,0 6.67472,-3.78836 6.67472,-8.07281 l 0,-8.05025 -1.15003,0 0,8.05025 c 0,3.45011 -1.19514,7.01297 -5.54724,7.01297 z"
         style="font-style:normal;font-variant:normal;font-weight:300;font-stretch:normal;font-size:22.54973602px;font-family:Raleway;-inkscape-font-specification:'Raleway Light';fill:#ffffff;fill-opacity:1"
         id="path4275" />
      <path
         d="m 471.57113,403.68027 0,-7.62181 7.86986,0 0,-0.99219 -7.86986,0 0,-6.35902 9.26794,0 0,-1.03729 -10.41798,0 0,16.01031 1.15004,0 z"
         style="font-style:normal;font-variant:normal;font-weight:300;font-stretch:normal;font-size:22.54973602px;font-family:Raleway;-inkscape-font-specification:'Raleway Light';fill:#ffffff;fill-opacity:1"
         id="path4277" />
      <path
         d="m 484.4703,403.68027 2.23242,-5.27664 7.64436,0 2.23242,5.27664 1.24024,0 -6.81002,-16.01031 -0.94709,0 -6.81002,16.01031 1.21769,0 z m 9.56108,-6.22373 -7.05806,0 3.56285,-8.3885 3.49521,8.3885 z"
         style="font-style:normal;font-variant:normal;font-weight:300;font-stretch:normal;font-size:22.54973602px;font-family:Raleway;-inkscape-font-specification:'Raleway Light';fill:#ffffff;fill-opacity:1"
         id="path4279" />
      <path
         d="m 502.10737,395.56237 c 0,4.05895 3.08931,8.2532 7.46396,8.2532 2.45792,0 5.27664,-1.30788 6.33647,-3.72071 l -0.96963,-0.47354 c -1.10494,2.18732 -3.35992,3.13441 -5.27664,3.13441 -3.60796,0 -6.40413,-3.35991 -6.40413,-7.12571 0,-3.38246 2.27753,-6.99042 6.33648,-6.99042 1.87163,0 3.92365,0.76669 5.02859,2.97656 l 0.94709,-0.54119 c -0.96964,-2.02948 -3.04422,-3.49521 -5.88548,-3.49521 -4.8031,0 -7.57671,4.1266 -7.57671,7.98261 z"
         style="font-style:normal;font-variant:normal;font-weight:300;font-stretch:normal;font-size:22.54973602px;font-family:Raleway;-inkscape-font-specification:'Raleway Light';fill:#ffffff;fill-opacity:1"
         id="path4281" />
      <path
         d="m 532.64183,387.66996 -12.8759,0 0,1.03729 5.86293,0 0,14.97302 1.15004,0 0,-14.97302 5.86293,0 0,-1.03729 z"
         style="font-style:normal;font-variant:normal;font-weight:300;font-stretch:normal;font-size:22.54973602px;font-family:Raleway;-inkscape-font-specification:'Raleway Light';fill:#ffffff;fill-opacity:1"
         id="path4283" />
      <path
         d="m 544.47552,402.73318 c -4.2619,0 -5.50214,-3.47266 -5.50214,-7.01297 l 0,-8.05025 -1.15003,0 0,8.05025 c 0,4.05896 1.60103,8.07281 6.67472,8.07281 4.91584,0 6.67472,-3.78836 6.67472,-8.07281 l 0,-8.05025 -1.15004,0 0,8.05025 c 0,3.45011 -1.19513,7.01297 -5.54723,7.01297 z"
         style="font-style:normal;font-variant:normal;font-weight:300;font-stretch:normal;font-size:22.54973602px;font-family:Raleway;-inkscape-font-specification:'Raleway Light';fill:#ffffff;fill-opacity:1"
         id="path4285" />
      <path
         d="m 559.1399,403.68027 0,-6.04333 5.18644,0 3.87856,6.04333 1.33043,0 -3.9913,-6.22373 c 2.25497,-0.33824 3.7658,-2.45792 3.7658,-4.82564 0,-2.43537 -1.93927,-4.96094 -4.64524,-4.96094 l -6.67472,0 0,16.01031 1.15003,0 z m 0,-14.97302 5.45704,0 c 1.96183,0 3.56286,1.87163 3.56286,3.92365 0,2.00693 -1.33044,3.9462 -3.40501,3.9462 l -5.61489,0 0,-7.86985 z"
         style="font-style:normal;font-variant:normal;font-weight:300;font-stretch:normal;font-size:22.54973602px;font-family:Raleway;-inkscape-font-specification:'Raleway Light';fill:#ffffff;fill-opacity:1"
         id="path4287" />
      <path
         d="m 576.76817,403.68027 0,-15.98776 -1.15004,0 0,15.98776 1.15004,0 z"
         style="font-style:normal;font-variant:normal;font-weight:300;font-stretch:normal;font-size:22.54973602px;font-family:Raleway;-inkscape-font-specification:'Raleway Light';fill:#ffffff;fill-opacity:1"
         id="path4289" />
      <path
         d="m 596.02071,403.68027 1.05984,0 0,-15.98776 -1.15004,0 0,14.07103 -11.22977,-14.09358 -0.87944,0 0,16.01031 1.15004,0 0,-13.84554 11.04937,13.84554 z"
         style="font-style:normal;font-variant:normal;font-weight:300;font-stretch:normal;font-size:22.54973602px;font-family:Raleway;-inkscape-font-specification:'Raleway Light';fill:#ffffff;fill-opacity:1"
         id="path4291" />
      <path
         d="m 615.97478,403.68027 1.01474,0 0,-7.77966 -4.64525,0 0,0.92454 3.63051,0 0,3.11187 c -1.64613,1.91672 -3.35991,2.79616 -5.29919,2.79616 -3.60796,0 -6.42667,-3.29226 -6.42667,-7.05806 0,-3.54031 2.39027,-7.05807 6.17862,-7.05807 2.25498,0 4.10406,0.90199 5.20899,2.99911 l 0.92454,-0.56374 c -1.01474,-2.05203 -2.88636,-3.49521 -6.11098,-3.49521 -4.2619,0 -7.35121,3.85601 -7.35121,8.09536 0,4.0364 3.15696,8.14045 7.50906,8.14045 2.00693,0 3.81091,-0.85689 5.36684,-2.59322 l 0,2.48047 z"
         style="font-style:normal;font-variant:normal;font-weight:300;font-stretch:normal;font-size:22.54973602px;font-family:Raleway;-inkscape-font-specification:'Raleway Light';fill:#ffffff;fill-opacity:1"
         id="path4293" />
    </g>
    <g
       transform="matrix(0.98420763,0,0,0.98436389,83.683551,73.03487)"
       style="font-style:normal;font-variant:normal;font-weight:bold;font-stretch:normal;font-size:40px;line-height:125%;font-family:Montserrat;-inkscape-font-specification:'Montserrat, Bold';text-align:center;letter-spacing:2.82999945px;word-spacing:0px;writing-mode:lr-tb;text-anchor:middle;display:inline;fill:#ffffff;fill-opacity:1;stroke:none;stroke-width:17.29999924;stroke-linecap:butt;stroke-linejoin:miter;stroke-miterlimit:4;stroke-dasharray:none;stroke-opacity:1"
       id="flowRoot4265">
      <path
         d="m 461.45775,403.68027 0,-6.04333 5.18644,0 3.87855,6.04333 1.33044,0 -3.99131,-6.22373 c 2.25498,-0.33824 3.76581,-2.45792 3.76581,-4.82564 0,-2.43537 -1.93928,-4.96094 -4.64525,-4.96094 l -6.67472,0 0,16.01031 1.15004,0 z m 0,-14.97302 5.45704,0 c 1.96182,0 3.56285,1.87163 3.56285,3.92365 0,2.00693 -1.33043,3.9462 -3.40501,3.9462 l -5.61488,0 0,-7.86985 z"
         style="font-style:normal;font-variant:normal;font-weight:300;font-stretch:normal;font-size:22.54973602px;font-family:Raleway;-inkscape-font-specification:'Raleway Light';fill:#ffffff;fill-opacity:1"
         id="path4296" />
      <path
         d="m 479.08601,402.64298 0,-6.65217 8.14046,0 0,-0.99219 -8.14046,0 0,-6.29137 9.31304,0 0,-1.03729 -10.46307,0 0,16.01031 10.66602,0 0,-1.03729 -9.51599,0 z"
         style="font-style:normal;font-variant:normal;font-weight:300;font-stretch:normal;font-size:22.54973602px;font-family:Raleway;-inkscape-font-specification:'Raleway Light';fill:#ffffff;fill-opacity:1"
         id="path4298" />
      <path
         d="m 505.86912,387.66996 -12.8759,0 0,1.03729 5.86293,0 0,14.97302 1.15003,0 0,-14.97302 5.86294,0 0,-1.03729 z"
         style="font-style:normal;font-variant:normal;font-weight:300;font-stretch:normal;font-size:22.54973602px;font-family:Raleway;-inkscape-font-specification:'Raleway Light';fill:#ffffff;fill-opacity:1"
         id="path4300" />
      <path
         d="m 509.17302,403.68027 2.23242,-5.27664 7.64436,0 2.23242,5.27664 1.24024,0 -6.81002,-16.01031 -0.94709,0 -6.81002,16.01031 1.21769,0 z m 9.56108,-6.22373 -7.05806,0 3.56285,-8.3885 3.49521,8.3885 z"
         style="font-style:normal;font-variant:normal;font-weight:300;font-stretch:normal;font-size:22.54973602px;font-family:Raleway;-inkscape-font-specification:'Raleway Light';fill:#ffffff;fill-opacity:1"
         id="path4302" />
      <path
         d="m 529.01996,403.68027 0,-15.98776 -1.15004,0 0,15.98776 1.15004,0 z"
         style="font-style:normal;font-variant:normal;font-weight:300;font-stretch:normal;font-size:22.54973602px;font-family:Raleway;-inkscape-font-specification:'Raleway Light';fill:#ffffff;fill-opacity:1"
         id="path4304" />
      <path
         d="m 546.78423,403.68027 0,-1.03729 -9.56109,0 0,-14.97302 -1.15004,0 0,16.01031 10.71113,0 z"
         style="font-style:normal;font-variant:normal;font-weight:300;font-stretch:normal;font-size:22.54973602px;font-family:Raleway;-inkscape-font-specification:'Raleway Light';fill:#ffffff;fill-opacity:1"
         id="path4306" />
    </g>
    <g
       transform="matrix(0.98420763,0,0,0.98436389,275.45167,73.03487)"
       style="font-style:normal;font-variant:normal;font-weight:bold;font-stretch:normal;font-size:40px;line-height:125%;font-family:Montserrat;-inkscape-font-specification:'Montserrat, Bold';text-align:center;letter-spacing:2.82999945px;word-spacing:0px;writing-mode:lr-tb;text-anchor:middle;display:inline;fill:#ffffff;fill-opacity:1;stroke:none;stroke-width:17.29999924;stroke-linecap:butt;stroke-linejoin:miter;stroke-miterlimit:4;stroke-dasharray:none;stroke-opacity:1"
       id="flowRoot4273">
      <path
         d="m 477.24927,402.73318 c -4.2619,0 -5.50214,-3.47266 -5.50214,-7.01297 l 0,-8.05025 -1.15004,0 0,8.05025 c 0,4.05896 1.60104,8.07281 6.67473,8.07281 4.91584,0 6.67472,-3.78836 6.67472,-8.07281 l 0,-8.05025 -1.15004,0 0,8.05025 c 0,3.45011 -1.19513,7.01297 -5.54723,7.01297 z"
         style="font-style:normal;font-variant:normal;font-weight:300;font-stretch:normal;font-size:22.54973602px;font-family:Raleway;-inkscape-font-specification:'Raleway Light';fill:#ffffff;fill-opacity:1"
         id="path4309" />
      <path
         d="m 500.70805,389.42884 c -1.30789,-1.24024 -2.90892,-1.87163 -4.98349,-1.87163 -3.35991,0 -5.65999,1.60103 -5.65999,4.4874 0,2.61577 1.84908,3.38246 5.27664,4.10405 3.35991,0.72159 5.00604,1.44318 5.00604,3.56286 0,2.05202 -1.69123,3.08931 -4.46485,3.08931 -2.43537,0 -4.44229,-0.90199 -5.77273,-2.30007 l -0.60884,0.92454 c 1.73633,1.60103 3.83345,2.39027 6.33647,2.39027 3.40501,0 5.72764,-1.42063 5.72764,-4.23935 0,-2.84127 -2.16478,-3.67561 -5.63744,-4.41975 -3.26971,-0.67649 -4.69034,-1.21768 -4.69034,-3.26971 0,-2.00693 1.35298,-3.29226 4.4874,-3.29226 1.91672,0 3.35991,0.58629 4.39719,1.73633 l 0.5863,-0.90199 z"
         style="font-style:normal;font-variant:normal;font-weight:300;font-stretch:normal;font-size:22.54973602px;font-family:Raleway;-inkscape-font-specification:'Raleway Light';fill:#ffffff;fill-opacity:1"
         id="path4311" />
      <path
         d="m 508.52894,402.64298 0,-6.65217 8.14045,0 0,-0.99219 -8.14045,0 0,-6.29137 9.31304,0 0,-1.03729 -10.46308,0 0,16.01031 10.66603,0 0,-1.03729 -9.51599,0 z"
         style="font-style:normal;font-variant:normal;font-weight:300;font-stretch:normal;font-size:22.54973602px;font-family:Raleway;-inkscape-font-specification:'Raleway Light';fill:#ffffff;fill-opacity:1"
         id="path4313" />
      <path
         d="m 525.23231,403.68027 0,-6.04333 5.18644,0 3.87856,6.04333 1.33043,0 -3.9913,-6.22373 c 2.25497,-0.33824 3.7658,-2.45792 3.7658,-4.82564 0,-2.43537 -1.93928,-4.96094 -4.64524,-4.96094 l -6.67473,0 0,16.01031 1.15004,0 z m 0,-14.97302 5.45704,0 c 1.96182,0 3.56286,1.87163 3.56286,3.92365 0,2.00693 -1.33044,3.9462 -3.40501,3.9462 l -5.61489,0 0,-7.86985 z"
         style="font-style:normal;font-variant:normal;font-weight:300;font-stretch:normal;font-size:22.54973602px;font-family:Raleway;-inkscape-font-specification:'Raleway Light';fill:#ffffff;fill-opacity:1"
         id="path4315" />
    </g>
    <g
       transform="matrix(0.98420763,0,0,0.98436389,474.32232,73.03487)"
       style="font-style:normal;font-variant:normal;font-weight:bold;font-stretch:normal;font-size:40px;line-height:125%;font-family:Montserrat;-inkscape-font-specification:'Montserrat, Bold';text-align:center;letter-spacing:2.82999945px;word-spacing:0px;writing-mode:lr-tb;text-anchor:middle;display:inline;fill:#ffffff;fill-opacity:1;stroke:none;stroke-width:17.29999924;stroke-linecap:butt;stroke-linejoin:miter;stroke-miterlimit:4;stroke-dasharray:none;stroke-opacity:1"
       id="flowRoot4281">
      <path
         d="m 468.80263,394.52508 -3.31482,7.80221 -6.15607,-14.65733 -1.24024,0 6.83257,16.01031 1.05984,0 3.54031,-8.23065 3.51776,8.23065 1.05983,0 6.85512,-16.01031 -1.26278,0 -6.13353,14.65733 -3.35991,-7.80221 2.81872,-6.74237 -1.12749,0 -2.39027,5.81783 -2.39028,-5.81783 -1.12748,0 2.81872,6.74237 z"
         style="font-style:normal;font-variant:normal;font-weight:300;font-stretch:normal;font-size:22.54973602px;font-family:Raleway;-inkscape-font-specification:'Raleway Light';fill:#ffffff;fill-opacity:1"
         id="path4318" />
      <path
         d="m 484.49232,403.68027 2.23242,-5.27664 7.64436,0 2.23242,5.27664 1.24024,0 -6.81002,-16.01031 -0.94709,0 -6.81002,16.01031 1.21769,0 z m 9.56108,-6.22373 -7.05806,0 3.56285,-8.3885 3.49521,8.3885 z"
         style="font-style:normal;font-variant:normal;font-weight:300;font-stretch:normal;font-size:22.54973602px;font-family:Raleway;-inkscape-font-specification:'Raleway Light';fill:#ffffff;fill-opacity:1"
         id="path4320" />
      <path
         d="m 512.8694,389.42884 c -1.30788,-1.24024 -2.90891,-1.87163 -4.98349,-1.87163 -3.35991,0 -5.65998,1.60103 -5.65998,4.4874 0,2.61577 1.84908,3.38246 5.27664,4.10405 3.35991,0.72159 5.00604,1.44318 5.00604,3.56286 0,2.05202 -1.69123,3.08931 -4.46485,3.08931 -2.43537,0 -4.4423,-0.90199 -5.77273,-2.30007 l -0.60885,0.92454 c 1.73633,1.60103 3.83346,2.39027 6.33648,2.39027 3.40501,0 5.72763,-1.42063 5.72763,-4.23935 0,-2.84127 -2.16477,-3.67561 -5.63743,-4.41975 -3.26971,-0.67649 -4.69035,-1.21768 -4.69035,-3.26971 0,-2.00693 1.35299,-3.29226 4.4874,-3.29226 1.91673,0 3.35991,0.58629 4.3972,1.73633 l 0.58629,-0.90199 z"
         style="font-style:normal;font-variant:normal;font-weight:300;font-stretch:normal;font-size:22.54973602px;font-family:Raleway;-inkscape-font-specification:'Raleway Light';fill:#ffffff;fill-opacity:1"
         id="path4323" />
      <path
         d="m 530.54982,387.66996 -12.8759,0 0,1.03729 5.86293,0 0,14.97302 1.15003,0 0,-14.97302 5.86294,0 0,-1.03729 z"
         style="font-style:normal;font-variant:normal;font-weight:300;font-stretch:normal;font-size:22.54973602px;font-family:Raleway;-inkscape-font-specification:'Raleway Light';fill:#ffffff;fill-opacity:1"
         id="path4325" />
      <path
         d="m 537.12941,402.64298 0,-6.65217 8.14046,0 0,-0.99219 -8.14046,0 0,-6.29137 9.31304,0 0,-1.03729 -10.46308,0 0,16.01031 10.66603,0 0,-1.03729 -9.51599,0 z"
         style="font-style:normal;font-variant:normal;font-weight:300;font-stretch:normal;font-size:22.54973602px;font-family:Raleway;-inkscape-font-specification:'Raleway Light';fill:#ffffff;fill-opacity:1"
         id="path4327" />
    </g>
  </g>
</svg>
