<?xml version="1.0" encoding="UTF-8" standalone="no"?>
<!-- Created with Inkscape (http://www.inkscape.org/) -->

<svg
   xmlns:dc="http://purl.org/dc/elements/1.1/"
   xmlns:cc="http://creativecommons.org/ns#"
   xmlns:rdf="http://www.w3.org/1999/02/22-rdf-syntax-ns#"
   xmlns:svg="http://www.w3.org/2000/svg"
   xmlns="http://www.w3.org/2000/svg"
   xmlns:sodipodi="http://sodipodi.sourceforge.net/DTD/sodipodi-0.dtd"
   xmlns:inkscape="http://www.inkscape.org/namespaces/inkscape"
   width="1078"
   height="768"
   id="svg2"
   version="1.1"
   inkscape:version="0.91 r"
   sodipodi:docname="Circular-Economy_CC-BY-SA_SamMuirhead_www-cameralibre-cc.svg"
   viewBox="0 0 1078 768"
   inkscape:export-filename="/home/sam/Desktop/Circular-Economy_CC-BY-SA_SamMuirhead_www-cameralibre-cc_1078x768.png"
   inkscape:export-xdpi="90"
   inkscape:export-ydpi="90">
  <defs
     id="defs4" />
  <sodipodi:namedview
     id="base"
     pagecolor="#ffffff"
     bordercolor="#666666"
     borderopacity="1.0"
     inkscape:pageopacity="0.0"
     inkscape:pageshadow="2"
     inkscape:zoom="0.70710676"
     inkscape:cx="99.208788"
     inkscape:cy="323.82294"
     inkscape:document-units="px"
     inkscape:current-layer="layer9"
     showgrid="false"
     width="1920px"
     inkscape:showpageshadow="false"
     inkscape:window-width="1549"
     inkscape:window-height="876"
     inkscape:window-x="51"
     inkscape:window-y="24"
     inkscape:window-maximized="1"
     showguides="false" />
  <metadata
     id="metadata7">
    <rdf:RDF>
      <cc:Work
         rdf:about="">
        <dc:format>image/svg+xml</dc:format>
        <dc:type
           rdf:resource="http://purl.org/dc/dcmitype/StillImage" />
        <dc:title />
      </cc:Work>
    </rdf:RDF>
  </metadata>
  <g
     inkscape:groupmode="layer"
     id="layer2"
     inkscape:label="background"
     style="display:inline"
     transform="translate(0,-312)"
     sodipodi:insensitive="true">
    <rect
       style="display:inline;opacity:1;fill:#ffffff;fill-opacity:1;stroke:none;stroke-width:7;stroke-linecap:butt;stroke-linejoin:round;stroke-miterlimit:4;stroke-dasharray:none;stroke-dashoffset:0;stroke-opacity:1"
       id="rect4432"
       width="1078"
       height="768"
       x="0"
       y="312" />
  </g>
  <g
     inkscape:groupmode="layer"
     id="layer9"
     inkscape:label="circular economy"
     style="display:inline">
    <g
       id="g4442"
       transform="translate(-4.9951208,-125.34989)">
      <g
         transform="matrix(-0.88781539,0,0,0.88781539,1021.8188,99.239843)"
         id="g4292">
        <path
           style="fill:#2eaa4a;fill-opacity:1"
           id="path4209"
           d="m 540.39553,626.8401 c -10.12813,0 -15.8967,-8.48643 -15.97407,-8.60332 l 3.66411,-2.42411 c 0.33167,0.49388 8.38167,12.13125 22.44467,3.28099 l 2.34069,3.71971 c -4.67313,2.94021 -8.85492,4.02673 -12.4754,4.02673 l 0,0 z"
           inkscape:connector-curvature="0" />
        <path
           style="fill:#2eaa4a;fill-opacity:1"
           id="path4211"
           d="m 577.8818,626.55613 4.41058,0 c -0.24691,-4.32472 -2.59911,-7.97199 -6.62287,-10.26934 -5.84841,-3.33942 -14.31485,-3.24147 -21.06283,0.242 l 2.01476,3.90574 c 5.48134,-2.82908 12.25977,-2.96243 16.86952,-0.33172 1.85593,1.05937 4.09537,3.03652 4.39084,6.45332 z"
           inkscape:connector-curvature="0" />
        <path
           style="fill:#2eaa4a;fill-opacity:1"
           id="path4213"
           d="m 582.2397,631.4348 -4.36696,0 -1.53741,46.31984 -24.75326,-16.49794 0,16.50205 -24.76232,-16.50205 0,16.50205 -24.76066,-16.50205 0,34.10957 82.30237,0 -2.12176,-63.93147 z m -59.2791,59.6652 -16.63496,0 0,-8.10616 16.63496,0 0,8.10616 z m 24.76066,0 -16.63495,0 0,-8.10616 16.63578,0 0,8.10616 z m 24.7615,0 -16.63578,0 0,-8.10616 16.63578,0 0,8.10616 z"
           inkscape:connector-curvature="0" />
      </g>
      <flowRoot
         xml:space="preserve"
         id="flowRoot4199"
         style="font-style:normal;font-variant:normal;font-weight:bold;font-stretch:normal;font-size:40px;line-height:125%;font-family:Montserrat;-inkscape-font-specification:'Montserrat, Bold';text-align:center;letter-spacing:2.82999945px;word-spacing:0px;writing-mode:lr-tb;text-anchor:middle;display:inline;fill:#2eaa4a;fill-opacity:1;stroke:none;stroke-width:17.29999924;stroke-linecap:butt;stroke-linejoin:miter;stroke-miterlimit:4;stroke-dasharray:none;stroke-opacity:1"
         transform="matrix(1.1085724,0,0,1.1087484,-18.977091,-163.95667)"><flowRegion
           id="flowRegion4201"><rect
             id="rect4203"
             width="910.53198"
             height="148.61011"
             x="47.477169"
             y="381.11157"
             style="font-style:normal;font-variant:normal;font-weight:bold;font-stretch:normal;font-size:40px;line-height:125%;font-family:Montserrat;-inkscape-font-specification:'Montserrat, Bold';text-align:center;letter-spacing:2.82999945px;writing-mode:lr-tb;text-anchor:middle;fill:#2eaa4a;fill-opacity:1;stroke-width:17.29999924;stroke-miterlimit:4;stroke-dasharray:none" /></flowRegion><flowPara
           id="flowPara4205">CIRCULAR ECONOMY</flowPara></flowRoot>      <g
         transform="matrix(0.75661291,0,0,0.75661291,97.438177,83.261936)"
         id="g4358">
        <path
           style="fill:#2eaa4a;fill-opacity:1;fill-rule:evenodd;stroke:none;stroke-width:9.32580471;stroke-linecap:butt;stroke-linejoin:miter;stroke-miterlimit:4;stroke-dasharray:none;stroke-opacity:1"
           d="m 342.19819,589.51863 53.11295,4.01983 0.1156,2.32079 -61.48864,-1.48568 -12.31857,-53.49792 -14.28383,-0.84769 -0.47608,-5.45182 19.10179,0.23909 z"
           id="path4229"
           inkscape:connector-curvature="0"
           sodipodi:nodetypes="ccccccccc" />
        <g
           id="g4327"
           transform="matrix(-0.75060539,0,0,0.75060539,847.48301,468.72102)"
           style="fill:#2eaa4a;fill-opacity:1">
          <ellipse
             style="opacity:1;fill:#2eaa4a;fill-opacity:1;stroke:none;stroke-width:9.32580471;stroke-linecap:round;stroke-linejoin:round;stroke-miterlimit:4;stroke-dasharray:none;stroke-dashoffset:0;stroke-opacity:1"
             id="ellipse4233"
             cx="615.52161"
             cy="181.05"
             rx="7.5588365"
             ry="7.5216146" />
          <ellipse
             cy="180.09027"
             cx="682.39124"
             id="ellipse4235"
             style="opacity:1;fill:#2eaa4a;fill-opacity:1;stroke:none;stroke-width:9.32580471;stroke-linecap:round;stroke-linejoin:round;stroke-miterlimit:4;stroke-dasharray:none;stroke-dashoffset:0;stroke-opacity:1"
             rx="9.2333355"
             ry="9.1878681" />
        </g>
        <path
           sodipodi:nodetypes="cc"
           style="fill:none;fill-rule:evenodd;stroke:#2eaa4a;stroke-width:9.25175762;stroke-linecap:butt;stroke-linejoin:miter;stroke-miterlimit:4;stroke-dasharray:none;stroke-opacity:1"
           d="m 395.2749,571.79781 -62.2375,-3.13109"
           id="path4237"
           inkscape:connector-curvature="0" />
        <path
           sodipodi:nodetypes="cc"
           inkscape:connector-curvature="0"
           id="path4239"
           d="m 375.50697,544.77925 -1.29759,38.45056"
           style="fill:none;fill-rule:evenodd;stroke:#2eaa4a;stroke-width:9.25175762;stroke-linecap:butt;stroke-linejoin:miter;stroke-miterlimit:4;stroke-dasharray:none;stroke-opacity:1" />
        <path
           sodipodi:nodetypes="cc"
           style="fill:none;fill-rule:evenodd;stroke:#2eaa4a;stroke-width:9.25175762;stroke-linecap:butt;stroke-linejoin:miter;stroke-miterlimit:4;stroke-dasharray:none;stroke-opacity:1"
           d="m 350.21344,543.56975 5.41957,39.45295"
           id="path4241"
           inkscape:connector-curvature="0" />
        <path
           inkscape:connector-curvature="0"
           id="path4245"
           d="m 396.28032,558.52072 -35.97467,-1.8377 -17.98734,-0.91886 -8.99366,-0.45942 -4.49684,-0.22971"
           style="fill:none;fill-rule:evenodd;stroke:#2eaa4a;stroke-width:9.25175762;stroke-linecap:butt;stroke-linejoin:miter;stroke-miterlimit:4;stroke-dasharray:none;stroke-opacity:1"
           sodipodi:nodetypes="ccccc" />
        <path
           sodipodi:nodetypes="cccccc"
           inkscape:connector-curvature="0"
           id="path4231"
           d="m 397.93357,545.54865 -3.86906,39.31654 -59.11296,-2.77193 c -2.84659,-7.39163 -4.12454,-17.40007 -10.92143,-41.04083 l 3.80037,0.73927 z"
           style="fill:none;fill-rule:evenodd;stroke:#2eaa4a;stroke-width:6.60839939;stroke-linecap:butt;stroke-linejoin:miter;stroke-miterlimit:4;stroke-dasharray:none;stroke-opacity:1" />
      </g>
      <path
         sodipodi:nodetypes="ccccccccccccccccccccccccc"
         style="fill:#2eaa4a;fill-opacity:1"
         id="path4267"
         d="m 741.79378,521.50698 -29.07885,-20.50828 0,15.04265 -21.98436,-15.04265 0,15.04265 -21.9829,-15.04265 0,38.38552 73.06931,0 z m -54.48943,13.98827 -14.76877,0 0,-14.68179 14.76877,0 z m 21.9829,0 -14.76877,0 0,-14.68179 14.76951,0 0,14.68179 z m 21.98364,0 -14.7695,0 0,-14.68179 14.7695,0 z"
         inkscape:connector-curvature="0" />
      <g
         transform="translate(8.9128967,0)"
         id="g4541">
        <g
           transform="matrix(0.66639901,0,0,0.66639901,434.50755,147.02242)"
           id="g4221"
           style="fill:#2eaa4a;fill-opacity:1">
          <circle
             style="opacity:1;fill:#2eaa4a;fill-opacity:1;stroke:none;stroke-width:15;stroke-linecap:square;stroke-linejoin:round;stroke-miterlimit:4;stroke-dasharray:30, 15;stroke-dashoffset:0;stroke-opacity:1"
             id="circle4223"
             cx="143.80661"
             cy="315.73386"
             r="29.022509" />
          <path
             inkscape:connector-curvature="0"
             style="opacity:1;fill:#2eaa4a;fill-opacity:1;stroke:none;stroke-width:15;stroke-linecap:square;stroke-linejoin:round;stroke-miterlimit:4;stroke-dasharray:30, 15;stroke-dashoffset:0;stroke-opacity:1"
             d="m 89.654945,373.04537 c 0.35419,-22.65173 17.469795,-27.78371 27.297075,-28.725 9.256,-0.88655 15.16855,8.33247 27.29707,8.04558 12.12851,-0.28663 18.04106,-8.93213 27.29707,-8.04558 9.82727,0.94129 27.47409,6.6042 27.29714,28.725 l 0,16.40145 -109.188355,0 z"
             id="path4225" />
        </g>
        <flowRoot
           transform="matrix(0.98420763,0,0,0.98436389,35.45167,39.33509)"
           style="font-style:normal;font-variant:normal;font-weight:bold;font-stretch:normal;font-size:40px;line-height:125%;font-family:Montserrat;-inkscape-font-specification:'Montserrat, Bold';text-align:center;letter-spacing:2.82999945px;word-spacing:0px;writing-mode:lr-tb;text-anchor:middle;display:inline;fill:#026699;fill-opacity:1;stroke:none;stroke-width:17.29999924;stroke-linecap:butt;stroke-linejoin:miter;stroke-miterlimit:4;stroke-dasharray:none;stroke-opacity:1"
           id="flowRoot4445"
           xml:space="preserve"><flowRegion
             id="flowRegion4447"><rect
               style="font-style:normal;font-variant:normal;font-weight:bold;font-stretch:normal;font-size:40px;line-height:125%;font-family:Montserrat;-inkscape-font-specification:'Montserrat, Bold';text-align:center;letter-spacing:2.82999945px;writing-mode:lr-tb;text-anchor:middle;fill:#026699;fill-opacity:1;stroke-width:17.29999924;stroke-miterlimit:4;stroke-dasharray:none"
               y="381.11157"
               x="47.477169"
               height="148.61011"
               width="910.53198"
               id="rect4449" /></flowRegion><flowPara
             id="flowPara4451"
             style="font-style:normal;font-variant:normal;font-weight:300;font-stretch:normal;font-size:22.54973602px;font-family:Raleway;-inkscape-font-specification:'Raleway Light';fill:#2eaa4a">USER</flowPara></flowRoot>      </g>
      <flowRoot
         transform="matrix(0.98420763,0,0,0.98436389,210.62969,168.83509)"
         style="font-style:normal;font-variant:normal;font-weight:bold;font-stretch:normal;font-size:40px;line-height:125%;font-family:Montserrat;-inkscape-font-specification:'Montserrat, Bold';text-align:center;letter-spacing:2.82999945px;word-spacing:0px;writing-mode:lr-tb;text-anchor:middle;display:inline;fill:#026699;fill-opacity:1;stroke:none;stroke-width:17.29999924;stroke-linecap:butt;stroke-linejoin:miter;stroke-miterlimit:4;stroke-dasharray:none;stroke-opacity:1"
         id="flowRoot4453"
         xml:space="preserve"><flowRegion
           id="flowRegion4455"><rect
             style="font-style:normal;font-variant:normal;font-weight:bold;font-stretch:normal;font-size:40px;line-height:125%;font-family:Montserrat;-inkscape-font-specification:'Montserrat, Bold';text-align:center;letter-spacing:2.82999945px;writing-mode:lr-tb;text-anchor:middle;fill:#026699;fill-opacity:1;stroke-width:17.29999924;stroke-miterlimit:4;stroke-dasharray:none"
             y="381.11157"
             x="47.477169"
             height="148.61011"
             width="910.53198"
             id="rect4457" /></flowRegion><flowPara
           id="flowPara4459"
           style="font-style:normal;font-variant:normal;font-weight:300;font-stretch:normal;font-size:22.54973602px;font-family:Raleway;-inkscape-font-specification:'Raleway Light';fill:#2eaa4a">(RE)PROCESSING</flowPara></flowRoot>      <flowRoot
         xml:space="preserve"
         id="flowRoot4461"
         style="font-style:normal;font-variant:normal;font-weight:bold;font-stretch:normal;font-size:40px;line-height:125%;font-family:Montserrat;-inkscape-font-specification:'Montserrat, Bold';text-align:center;letter-spacing:2.82999945px;word-spacing:0px;writing-mode:lr-tb;text-anchor:middle;display:inline;fill:#026699;fill-opacity:1;stroke:none;stroke-width:17.29999924;stroke-linecap:butt;stroke-linejoin:miter;stroke-miterlimit:4;stroke-dasharray:none;stroke-opacity:1"
         transform="matrix(0.98420763,0,0,0.98436389,44.895714,346.8351)"><flowRegion
           id="flowRegion4463"><rect
             id="rect4465"
             width="910.53198"
             height="148.61011"
             x="47.477169"
             y="381.11157"
             style="font-style:normal;font-variant:normal;font-weight:bold;font-stretch:normal;font-size:40px;line-height:125%;font-family:Montserrat;-inkscape-font-specification:'Montserrat, Bold';text-align:center;letter-spacing:2.82999945px;writing-mode:lr-tb;text-anchor:middle;fill:#026699;fill-opacity:1;stroke-width:17.29999924;stroke-miterlimit:4;stroke-dasharray:none" /></flowRegion><flowPara
           style="font-style:normal;font-variant:normal;font-weight:300;font-stretch:normal;font-size:22.54973602px;font-family:Raleway;-inkscape-font-specification:'Raleway Light';fill:#2eaa4a"
           id="flowPara4467">(RE)MANUFACTURING</flowPara></flowRoot>      <flowRoot
         transform="matrix(0.98420763,0,0,0.98436389,-130.15581,168.93498)"
         style="font-style:normal;font-variant:normal;font-weight:bold;font-stretch:normal;font-size:40px;line-height:125%;font-family:Montserrat;-inkscape-font-specification:'Montserrat, Bold';text-align:center;letter-spacing:2.82999945px;word-spacing:0px;writing-mode:lr-tb;text-anchor:middle;display:inline;fill:#2eaa4a;fill-opacity:1;stroke:none;stroke-width:17.29999924;stroke-linecap:butt;stroke-linejoin:miter;stroke-miterlimit:4;stroke-dasharray:none;stroke-opacity:1"
         id="flowRoot4469"
         xml:space="preserve"><flowRegion
           id="flowRegion4471"><rect
             style="font-style:normal;font-variant:normal;font-weight:bold;font-stretch:normal;font-size:40px;line-height:125%;font-family:Montserrat;-inkscape-font-specification:'Montserrat, Bold';text-align:center;letter-spacing:2.82999945px;writing-mode:lr-tb;text-anchor:middle;fill:#2eaa4a;fill-opacity:1;stroke-width:17.29999924;stroke-miterlimit:4;stroke-dasharray:none"
             y="381.11157"
             x="47.477169"
             height="148.61011"
             width="910.53198"
             id="rect4473" /></flowRegion><flowPara
           id="flowPara4475"
           style="font-style:normal;font-variant:normal;font-weight:300;font-stretch:normal;font-size:22.54973602px;font-family:Raleway;-inkscape-font-specification:'Raleway Light';fill:#2eaa4a">RETAIL</flowPara></flowRoot>      <g
         transform="matrix(0.99748164,0.07092514,-0.07092514,0.99748164,39.459949,-36.525646)"
         id="g4499">
        <g
           id="g4501"
           transform="matrix(0.79616937,-0.10488893,-0.12392602,-0.79328764,794.59752,524.35908)"
           style="display:inline;fill:none;fill-opacity:1;stroke-width:5.5290556;stroke-miterlimit:4;stroke-dasharray:none">
          <g
             transform="translate(-204,0)"
             id="g4503"
             style="fill:none;fill-opacity:1;stroke-width:5.5290556;stroke-miterlimit:4;stroke-dasharray:none">
            <g
               id="g4505"
               style="fill:none;stroke:#0a4aa0;stroke-width:6.22770882;stroke-miterlimit:4;stroke-dasharray:none;stroke-opacity:1">
              <path
                 inkscape:connector-curvature="0"
                 id="path4507"
                 d="M 89.748703,98.138405 C 84.445892,89.107455 81.015511,80.249008 81.015511,80.249008"
                 style="fill:none;fill-opacity:1;fill-rule:evenodd;stroke:#2eaa4a;stroke-width:6.22770882;stroke-linecap:round;stroke-linejoin:round;stroke-miterlimit:4;stroke-dasharray:none;stroke-opacity:1"
                 sodipodi:nodetypes="cc" />
              <path
                 inkscape:connector-curvature="0"
                 id="path4509"
                 d="M 63.044893,92.095443 C 71.271495,84.222395 80.939851,80.043942 80.939851,80.043942 64.160255,141.10574 24.082307,183.40821 -19.323921,206.74996"
                 style="fill:none;fill-opacity:1;fill-rule:evenodd;stroke:#2eaa4a;stroke-width:6.22770882;stroke-linecap:round;stroke-linejoin:round;stroke-miterlimit:4;stroke-dasharray:none;stroke-opacity:1"
                 sodipodi:nodetypes="ccc" />
            </g>
          </g>
        </g>
        <g
           style="display:inline;fill:none;fill-opacity:1;stroke-width:5.5290556;stroke-miterlimit:4;stroke-dasharray:none"
           transform="matrix(0.16552108,0.78580541,0.781475,-0.18428174,569.27533,797.99762)"
           id="g4511">
          <g
             style="fill:none;fill-opacity:1;stroke-width:5.5290556;stroke-miterlimit:4;stroke-dasharray:none"
             id="g4513"
             transform="translate(-204,0)">
            <g
               style="fill:none;stroke:#0a4aa0;stroke-width:6.22770882;stroke-miterlimit:4;stroke-dasharray:none;stroke-opacity:1"
               id="g4515">
              <path
                 sodipodi:nodetypes="cc"
                 style="fill:none;fill-opacity:1;fill-rule:evenodd;stroke:#2eaa4a;stroke-width:6.22770882;stroke-linecap:round;stroke-linejoin:round;stroke-miterlimit:4;stroke-dasharray:none;stroke-opacity:1"
                 d="M 89.748703,98.138405 C 84.445892,89.107455 81.015511,80.249008 81.015511,80.249008"
                 id="path4517"
                 inkscape:connector-curvature="0" />
              <path
                 sodipodi:nodetypes="ccc"
                 style="fill:none;fill-opacity:1;fill-rule:evenodd;stroke:#2eaa4a;stroke-width:6.22770882;stroke-linecap:round;stroke-linejoin:round;stroke-miterlimit:4;stroke-dasharray:none;stroke-opacity:1"
                 d="M 63.044893,92.095443 C 71.271495,84.222395 80.939851,80.043942 80.939851,80.043942 64.160255,141.10574 24.082307,183.40821 -19.323921,206.74996"
                 id="path4519"
                 inkscape:connector-curvature="0" />
            </g>
          </g>
        </g>
        <g
           id="g4521"
           transform="matrix(-0.80034673,0.06582153,0.08497679,0.79839957,274.50344,540.64924)"
           style="display:inline;fill:none;fill-opacity:1;stroke-width:5.5290556;stroke-miterlimit:4;stroke-dasharray:none">
          <g
             transform="translate(-204,0)"
             id="g4523"
             style="fill:none;fill-opacity:1;stroke-width:5.5290556;stroke-miterlimit:4;stroke-dasharray:none">
            <g
               id="g4525"
               style="fill:none;stroke:#0a4aa0;stroke-width:6.22770882;stroke-miterlimit:4;stroke-dasharray:none;stroke-opacity:1">
              <path
                 inkscape:connector-curvature="0"
                 id="path4527"
                 d="M 89.748703,98.138405 C 84.445892,89.107455 81.015511,80.249008 81.015511,80.249008"
                 style="fill:none;fill-opacity:1;fill-rule:evenodd;stroke:#2eaa4a;stroke-width:6.22770882;stroke-linecap:round;stroke-linejoin:round;stroke-miterlimit:4;stroke-dasharray:none;stroke-opacity:1"
                 sodipodi:nodetypes="cc" />
              <path
                 inkscape:connector-curvature="0"
                 id="path4529"
                 d="M 63.044893,92.095443 C 71.271495,84.222395 80.939851,80.043942 80.939851,80.043942 64.160255,141.10574 24.082307,183.40821 -19.323921,206.74996"
                 style="fill:none;fill-opacity:1;fill-rule:evenodd;stroke:#2eaa4a;stroke-width:6.22770882;stroke-linecap:round;stroke-linejoin:round;stroke-miterlimit:4;stroke-dasharray:none;stroke-opacity:1"
                 sodipodi:nodetypes="ccc" />
            </g>
          </g>
        </g>
        <g
           id="g4531"
           transform="matrix(-0.07930033,-0.79912379,-0.79685408,0.09842004,522.9037,284.71282)"
           style="display:inline;fill:none;fill-opacity:1;stroke-width:5.5290556;stroke-miterlimit:4;stroke-dasharray:none">
          <g
             transform="translate(-204,0)"
             id="g4533"
             style="fill:none;fill-opacity:1;stroke-width:5.5290556;stroke-miterlimit:4;stroke-dasharray:none">
            <g
               id="g4535"
               style="fill:none;stroke:#0a4aa0;stroke-width:6.22770882;stroke-miterlimit:4;stroke-dasharray:none;stroke-opacity:1">
              <path
                 inkscape:connector-curvature="0"
                 id="path4537"
                 d="M 89.748703,98.138405 C 84.445892,89.107455 81.015511,80.249008 81.015511,80.249008"
                 style="fill:none;fill-opacity:1;fill-rule:evenodd;stroke:#2eaa4a;stroke-width:6.22770882;stroke-linecap:round;stroke-linejoin:round;stroke-miterlimit:4;stroke-dasharray:none;stroke-opacity:1"
                 sodipodi:nodetypes="cc" />
              <path
                 inkscape:connector-curvature="0"
                 id="path4539"
                 d="M 63.044893,92.095443 C 71.271495,84.222395 80.939851,80.043942 80.939851,80.043942 64.160255,141.10574 24.082307,183.40821 -19.323921,206.74996"
                 style="fill:none;fill-opacity:1;fill-rule:evenodd;stroke:#2eaa4a;stroke-width:6.22770882;stroke-linecap:round;stroke-linejoin:round;stroke-miterlimit:4;stroke-dasharray:none;stroke-opacity:1"
                 sodipodi:nodetypes="ccc" />
            </g>
          </g>
        </g>
      </g>
    </g>
  </g>
</svg>
