<?xml version="1.0" encoding="utf-8"?>
<!-- Generator: Adobe Illustrator 15.0.0, SVG Export Plug-In . SVG Version: 6.00 Build 0)  -->
<!DOCTYPE svg PUBLIC "-//W3C//DTD SVG 1.1//EN" "http://www.w3.org/Graphics/SVG/1.1/DTD/svg11.dtd">
<svg version="1.1" id="Fleshed" xmlns="http://www.w3.org/2000/svg" xmlns:xlink="http://www.w3.org/1999/xlink" x="0px" y="0px"
	 width="990.234px" height="269.946px" viewBox="0 0 990.234 269.946" enable-background="new 0 0 990.234 269.946"
	 xml:space="preserve">
<g>
	<path fill="#2EAA4A" d="M652.543,153.605c1.678-42.814-22.605-82.426-61.524-100.357c-38.912-17.932-84.808-10.65-116.267,18.441
		c-31.458,29.088-42.297,74.27-27.457,114.473c14.832,40.191,52.421,67.49,95.232,69.176l0,0c20.14,0.792,40.037-4.252,57.411-14.37
		c-20.945-18.787-34.221-44.246-37.667-72.126c-4.645,3.739-10.502,5.771-16.563,5.539c-22.188-0.871-32.256-28.13-15.955-43.217
		c16.313-15.072,42.709-2.91,41.835,19.279c-1.476,37.818,17.334,73.562,49.35,93.744c14.407-22.836,28.815-45.684,43.217-68.521
		C656.622,170.918,652.195,162.511,652.543,153.605z"/>
	<path fill="#2EAA4A" d="M603.484,238.905c0-0.007,0.005-0.007,0.005-0.007l0,0L603.484,238.905z"/>
	<polygon fill="#2EAA4A" points="565.802,165.426 565.802,165.426 565.802,165.426 	"/>
	<path fill="#2EAA4A" d="M658.497,137.809c0.003,0.029,0.006,0.057,0.01,0.08c0.026-0.029,0.06-0.059,0.086-0.089L658.497,137.809z"
		/>
	<path fill="#2EAA4A" d="M807.425,173.934l-26.165-16.324c0.312-8.18-0.325-16.482-2.016-24.768l-0.042-1.246
		c-0.074-0.756,0.379-1.713,1.008-2.146l26.064-17.644c0.623-0.429,0.886-1.348,0.59-2.045l-12.577-28.83
		c-0.301-0.694-1.151-1.127-1.887-0.951l-31.21,7.215c-0.739,0.173-1.765-0.148-2.274-0.713l-16.555-15.814
		c-0.584-0.486-0.936-1.49-0.799-2.236l6.075-31.576c0.146-0.744-0.316-1.579-1.017-1.856l-29.295-11.505
		c-0.697-0.268-1.607,0.029-2.001,0.67l-17.039,27.271c-0.046,0.082-0.099,0.153-0.165,0.225c-5.448-1.121-11.06-1.807-16.766-2.027
		c-3.878-0.154-7.733-0.083-11.566,0.194l-16.603-24.52c-0.426-0.627-1.337-0.889-2.041-0.585l-28.837,12.568
		c-0.688,0.307-1.115,1.162-0.948,1.898l5.417,23.399c1.699,1.562,3.393,3.166,5.026,4.856l2.462,2.537l-0.035,0.042
		c16.012,17.575,26.168,40.007,28.935,63.61c4.353-3.076,9.639-4.717,15.078-4.501v0.003c25.03,0.98,32.614,34.459,10.443,46.121
		c12.36,23.477,24.71,46.947,37.061,70.408c19.354-10.184,34.403-25.816,43.937-44.23l25.044,4.822
		c0.751,0.146,1.593-0.312,1.861-1.021l11.498-29.285C808.364,175.249,808.07,174.348,807.425,173.934z"/>
</g>
<g>
	<path fill="#2EAA4A" d="M147.785,101.383c0,25.094-19.545,43.555-46.45,43.555c-26.9,0-46.445-18.341-46.445-43.555
		c0-25.092,19.545-43.068,46.445-43.068C128.24,58.314,147.785,76.409,147.785,101.383z M83.604,101.504
		c0,11.583,8.441,20.146,18.096,20.146c9.649,0,17.37-8.563,17.37-20.146c0-11.58-7.721-19.904-17.37-19.904
		C91.928,81.6,83.604,89.924,83.604,101.504z"/>
	<path fill="#2EAA4A" d="M233.924,67.967l-10.133,21.231c-8.567-4.704-21.718-9.892-29.075-9.892c-3.139,0-5.189,0.964-5.189,3.497
		c0,10.62,43.795,3.983,43.795,34.626c0,18.819-16.53,27.144-35.592,27.144c-14.718,0-31.125-4.945-42.344-13.511l10.374-20.992
		c8.688,7.237,23.647,13.148,32.212,13.148c4.102,0,6.755-1.326,6.755-4.344c0-10.977-43.793-3.738-43.793-33.414
		c0-16.893,14.238-27.508,36.194-27.508C210.52,57.953,224.394,61.934,233.924,67.967z"/>
	<path fill="#2EAA4A" d="M325.129,73.756L308.961,92.94c-5.067-6.878-12.666-11.341-19.179-11.341
		c-10.137,0-17.494,8.082-17.494,19.303c0,11.34,7.357,19.544,17.494,19.544c6.029,0,13.632-3.741,19.179-9.653l16.168,17.252
		c-9.412,10.256-23.766,16.893-36.797,16.893c-25.938,0-44.758-18.461-44.758-43.674c0-24.854,19.303-42.949,45.843-42.949
		C302.327,58.314,316.442,64.348,325.129,73.756z"/>
	<path fill="#2EAA4A" d="M363.616,80.393v10.374h39.572v21.235h-39.572v10.496h44.639v21.23h-72.629v-84.57h71.541v21.234H363.616z"
		/>
	<path fill="#2EAA4A" d="M88.34,173.266c18.492,0,32.632,13.688,32.632,31.727c0,18.038-14.229,31.725-32.902,31.725H62.688v-63.451
		H88.34z M69.942,229.827H88.43c14.143,0,25.2-10.604,25.2-24.746c0-14.232-11.239-24.835-25.472-24.835H69.942V229.827z"/>
	<path fill="#2EAA4A" d="M176.293,220.672l-7.071,16.045h-7.703l28.461-63.451h7.523l28.372,63.451h-7.886l-7.071-16.045H176.293z
		 M193.515,181.516l-14.14,32.178h28.461L193.515,181.516z"/>
	<path fill="#2EAA4A" d="M292.247,236.717h-7.16v-21.482l-24.564-41.969h7.521l20.578,33.086l20.305-33.086h7.433l-24.112,41.695
		V236.717z"/>
	<path fill="#2EAA4A" d="M403.491,178.887l-3.082,6.797c-5.712-3.809-12.42-5.349-17.493-5.349c-8.16,0-13.508,3.083-13.508,8.431
		c0,16.315,35.714,7.796,35.624,30.818c0,10.607-9.336,17.404-22.934,17.404c-9.247,0-18.311-3.988-24.293-9.698l3.264-6.528
		c5.892,5.711,13.959,8.977,21.119,8.977c9.155,0,14.867-3.719,14.867-9.79c0.089-16.68-35.625-7.796-35.625-30.548
		c0-9.972,8.794-16.408,21.938-16.408C390.708,172.992,398.232,175.351,403.491,178.887z"/>
</g>
<g>
	<polygon fill="#2EAA4A" points="834.899,64.175 852.936,64.175 852.936,145.815 861.446,145.815 861.446,55.664 834.899,55.664 	
		"/>
	<path fill="#2EAA4A" d="M914.006,89.57c-4.414,0-10.098,0.867-15.34,2.29V64.175h42.447v-8.511h-50.956v48.234l4.206-1.715
		c6.111-2.492,13.823-4.102,19.643-4.102c13.322,0,21.602,6.8,21.602,17.75c0,13.099-8.368,21.237-21.84,21.237
		c-7.116,0-16.354-2.897-22.984-7.208l-2.611-1.699l-4.415,7.098l2.478,1.637c7.978,5.271,18.784,8.678,27.533,8.678
		c18.155,0,30.351-11.951,30.351-29.742C944.119,100.124,932.018,89.57,914.006,89.57z"/>
</g>
</svg>
