<?xml version="1.0" encoding="UTF-8" standalone="no"?>
<svg
   xmlns:dc="http://purl.org/dc/elements/1.1/"
   xmlns:cc="http://creativecommons.org/ns#"
   xmlns:rdf="http://www.w3.org/1999/02/22-rdf-syntax-ns#"
   xmlns:svg="http://www.w3.org/2000/svg"
   xmlns="http://www.w3.org/2000/svg"
   xmlns:sodipodi="http://sodipodi.sourceforge.net/DTD/sodipodi-0.dtd"
   xmlns:inkscape="http://www.inkscape.org/namespaces/inkscape"
   version="1.1"
   id="Layer_2"
   x="0px"
   y="0px"
   viewBox="4.5 -9 62.999999 85.100001"
   enable-background="new 0 0 90 90"
   xml:space="preserve"
   height="70.041153"
   width="70"
   inkscape:version="0.91 r"
   sodipodi:docname="noun_51586_cc.svg"
   inkscape:export-filename="/home/sam/Downloads/inspiration_a91e23.png"
   inkscape:export-xdpi="96.371918"
   inkscape:export-ydpi="96.371918"><metadata
     id="metadata39"><rdf:RDF><cc:Work
         rdf:about=""><dc:format>image/svg+xml</dc:format><dc:type
           rdf:resource="http://purl.org/dc/dcmitype/StillImage" /><dc:title /></cc:Work></rdf:RDF></metadata><defs
     id="defs37" /><sodipodi:namedview
     pagecolor="#ffffff"
     bordercolor="#666666"
     borderopacity="1"
     objecttolerance="10"
     gridtolerance="10"
     guidetolerance="10"
     inkscape:pageopacity="0"
     inkscape:pageshadow="2"
     inkscape:window-width="1549"
     inkscape:window-height="876"
     id="namedview35"
     showgrid="false"
     fit-margin-top="0"
     fit-margin-left="0"
     fit-margin-right="0"
     fit-margin-bottom="0"
     inkscape:zoom="6.675088"
     inkscape:cx="13.104744"
     inkscape:cy="28.497367"
     inkscape:window-x="51"
     inkscape:window-y="24"
     inkscape:window-maximized="1"
     inkscape:current-layer="layer1" /><g
     inkscape:groupmode="layer"
     id="layer1"
     inkscape:label="outline"
     style="display:inline"
     transform="translate(-0.13034609,0.999995)"><g
       id="g4148"
       transform="translate(14.283483,0)"><path
         style="fill:#a91e23;fill-opacity:1;stroke:#a91e23;stroke-width:1;stroke-opacity:1"
         inkscape:connector-curvature="0"
         id="path3"
         d="m 25.395996,72.500004 c -0.700001,0.6 -2,1.100001 -3.7,1.100001 -1.699999,0 -2.999999,-0.500001 -3.699999,-1.100001 l 7.399999,0 m 1.6,-0.999999 -10.5,0 c 0,1.7 2.3,3.099999 5.299999,3.099999 3.000001,0 5.200001,-1.399999 5.200001,-3.099999 l 0,0 z" /><g
         style="fill:#ffc74e;fill-opacity:1;stroke:#ffc74e;stroke-opacity:1"
         transform="translate(-20.304003,-11.799995)"
         id="g7"><rect
           style="fill:#a91e23;fill-opacity:1;stroke:#a91e23;stroke-opacity:1"
           id="rect9"
           height="1"
           width="38.200001"
           transform="matrix(0.131,0.9914,-0.9914,0.131,77.6503,0.8731)"
           y="44.200001"
           x="19.200001" /></g><g
         style="fill:#ffc74e;fill-opacity:1;stroke:#ffc74e;stroke-opacity:1"
         transform="translate(-20.304003,-11.799995)"
         id="g11"><rect
           style="fill:#a91e23;fill-opacity:1;stroke:#a91e23;stroke-opacity:1"
           id="rect13"
           height="38.200001"
           width="1"
           transform="matrix(0.9914,0.1309,-0.1309,0.9914,6.2549,-5.7109)"
           y="25.6"
           x="46.099998" /></g><circle
         style="fill:#a91e23;fill-opacity:1;stroke:#a91e23;stroke-width:1;stroke-opacity:1"
         id="circle15"
         r="1.5"
         cy="14.200004"
         cx="15.495995" /><circle
         style="fill:#a91e23;fill-opacity:1;stroke:#a91e23;stroke-width:1;stroke-opacity:1"
         id="circle17"
         r="1.5"
         cy="14.200004"
         cx="28.895996" /><g
         style="fill:#ffc74e;fill-opacity:1;stroke:#ffc74e;stroke-opacity:1"
         transform="translate(-20.304003,-11.799995)"
         id="g19"><path
           style="fill:#a91e23;fill-opacity:1;stroke:#a91e23;stroke-opacity:1"
           inkscape:connector-curvature="0"
           id="path21"
           d="m 49.1,27.2 c -0.4,0 -0.5,-0.5 -0.6,-1.2 0,-0.2 -0.1,-0.4 -0.1,-0.6 0,0.2 -0.1,0.4 -0.1,0.6 -0.1,0.7 -0.2,1.2 -0.6,1.2 -0.4,0 -0.6,-0.6 -0.7,-1.2 0,-0.2 -0.1,-0.4 -0.1,-0.6 0,0.2 -0.1,0.4 -0.1,0.6 -0.1,0.7 -0.2,1.2 -0.6,1.2 -0.4,0 -0.5,-0.5 -0.6,-1.2 0,-0.2 -0.1,-0.4 -0.1,-0.6 0,0.2 -0.1,0.4 -0.1,0.6 -0.1,0.7 -0.2,1.2 -0.6,1.2 -0.4,0 -0.5,-0.5 -0.6,-1.2 0,-0.2 -0.1,-0.4 -0.1,-0.6 0,0.2 -0.1,0.4 -0.1,0.6 -0.1,0.7 -0.2,1.2 -0.6,1.2 -0.4,0 -0.5,-0.5 -0.6,-1.2 0,-0.2 -0.1,-0.4 -0.1,-0.6 0,0.2 -0.1,0.4 -0.1,0.6 -0.1,0.7 -0.2,1.2 -0.6,1.2 -0.4,0 -0.5,-0.5 -0.6,-1.2 0,-0.2 -0.1,-0.4 -0.1,-0.6 0,0.2 -0.1,0.4 -0.1,0.6 -0.1,0.7 -0.2,1.2 -0.6,1.2 -0.4,0 -0.5,-0.5 -0.6,-1.2 0,-0.2 -0.1,-0.4 -0.1,-0.6 0,0.2 -0.1,0.4 -0.1,0.6 -0.1,0.7 -0.2,1.2 -0.6,1.2 -0.4,0 -0.5,-0.5 -0.6,-1.2 0,-0.2 -0.1,-0.4 -0.1,-0.6 0,0.2 -0.1,0.4 -0.1,0.6 -0.1,0.7 -0.2,1.2 -0.6,1.2 -0.4,0 -0.5,-0.5 -0.6,-1.2 0,-0.2 -0.1,-0.4 -0.1,-0.6 0,0.2 -0.1,0.4 -0.1,0.6 -0.1,0.7 -0.2,1.2 -0.6,1.2 l 0,-0.5 c 0,0 -0.1,0 -0.1,0 0.1,-0.1 0.2,-0.6 0.2,-0.8 0.1,-0.7 0.2,-1.2 0.6,-1.2 0.4,0 0.5,0.5 0.6,1.2 0,0.2 0.1,0.4 0.1,0.6 0,-0.2 0.1,-0.4 0.1,-0.6 0.1,-0.7 0.2,-1.2 0.6,-1.2 0.4,0 0.5,0.5 0.6,1.2 0,0.2 0.1,0.4 0.1,0.6 0,-0.2 0.1,-0.4 0.1,-0.6 0.1,-0.7 0.2,-1.2 0.6,-1.2 0.4,0 0.5,0.5 0.6,1.2 0,0.2 0.1,0.4 0.1,0.6 0,-0.2 0.1,-0.4 0.1,-0.6 0.1,-0.7 0.2,-1.2 0.6,-1.2 0.4,0 0.5,0.5 0.6,1.2 0,0.2 0.1,0.4 0.1,0.6 0,-0.2 0.1,-0.4 0.1,-0.6 0.1,-0.7 0.2,-1.2 0.6,-1.2 0.4,0 0.5,0.5 0.6,1.2 0,0.2 0.1,0.4 0.1,0.6 0,-0.2 0.1,-0.4 0.1,-0.6 0.1,-0.7 0.2,-1.2 0.6,-1.2 0.4,0 0.5,0.5 0.6,1.2 0,0.2 0.1,0.4 0.1,0.6 0,-0.2 0.1,-0.4 0.1,-0.6 0.1,-0.7 0.2,-1.2 0.6,-1.2 0.4,0 0.5,0.5 0.6,1.2 0,0.2 0.1,0.4 0.1,0.6 0,-0.2 0.1,-0.4 0.1,-0.6 0.1,-0.7 0.2,-1.2 0.6,-1.2 0.4,0 0.5,0.5 0.6,1.2 0,0.2 0.1,0.4 0.1,0.6 0,-0.2 0.1,-0.4 0.1,-0.6 0.1,-0.7 0.2,-1.2 0.6,-1.2 0.4,0 0.5,0.5 0.6,1.2 0.1,0.3 0.1,0.7 0.2,0.8 0,0 0,0 -0.1,0 l 0,0.5 z" /></g><path
         style="fill:#a91e23;fill-opacity:1;stroke:#a91e23;stroke-width:1;stroke-opacity:1"
         inkscape:connector-curvature="0"
         id="path23"
         d="m 30.195995,54.400005 c 0.2,0 0.300001,0.09999 0.300001,0.3 l 0,0.2 c 0,0.2 -0.2,0.4 -0.4,0.4 l -16.899999,0.699999 c -0.2,0 -0.300001,-0.09999 -0.300001,-0.299999 l 0,-0.2 c 0,-0.2 0.2,-0.4 0.4,-0.4 l 16.899999,-0.7 0,0 m 0,-1 c -0.09999,0 -0.09999,0 0,0 l -16.899999,0.7 c -0.699999,0 -1.399999,0.699999 -1.399999,1.4 l 0,0.2 c 0,0.7 0.599999,1.3 1.3,1.3 0,0 0,0 0.09999,0 l 16.900004,-0.7 c 0.700001,0 1.400001,-0.700001 1.400001,-1.4 l 0,-0.2 c -0.2,-0.7 -0.7,-1.3 -1.400001,-1.3 l 0,0 z" /><path
         style="fill:#a91e23;fill-opacity:1;stroke:#a91e23;stroke-width:1;stroke-opacity:1"
         inkscape:connector-curvature="0"
         id="path25"
         d="m 30.195995,58.800004 c 0.2,0 0.300001,0.100007 0.300001,0.300001 l 0,0.2 c 0,0.2 -0.2,0.4 -0.4,0.4 l -16.899999,0.7 c -0.2,0 -0.300001,-0.09999 -0.300001,-0.3 l 0,-0.2 c 0,-0.2 0.2,-0.4 0.4,-0.4 l 16.899999,-0.700001 0,0 m 0,-0.999999 c -0.09999,0 -0.09999,0 0,0 l -16.899999,0.7 c -0.699999,0 -1.399999,0.699999 -1.399999,1.4 l 0,0.2 c 0,0.7 0.599999,1.3 1.3,1.3 0,0 0,0 0.09999,0 L 30.19599,60.700004 c 0.700001,0 1.400001,-0.7 1.400001,-1.399999 l 0,-0.2 c -0.2,-0.8 -0.7,-1.3 -1.400001,-1.3 l 0,0 z" /><path
         style="fill:#a91e23;fill-opacity:1;stroke:#a91e23;stroke-width:1;stroke-opacity:1"
         inkscape:connector-curvature="0"
         id="path27"
         d="m 30.195995,63.100005 c 0.2,0 0.300001,0.09999 0.300001,0.299999 l 0,0.2 c 0,0.2 -0.2,0.4 -0.4,0.4 l -16.899999,0.7 c -0.2,0 -0.300001,-0.09999 -0.300001,-0.299999 l 0,-0.2 c 0,-0.200001 0.2,-0.400001 0.4,-0.400001 l 16.899999,-0.699999 0,0 m 0,-1 c -0.09999,0 -0.09999,0 0,0 l -16.899999,0.699999 c -0.699999,0 -1.399999,0.700001 -1.399999,1.400001 l 0,0.2 c 0,0.699999 0.599999,1.299999 1.3,1.299999 0,0 0,0 0.09999,0 L 30.19599,65.000005 c 0.700001,0 1.400001,-0.7 1.400001,-1.400001 l 0,-0.2 c -0.199995,-0.699999 -0.699995,-1.299999 -1.399996,-1.299999 l 0,0 z" /><path
         style="fill:#a91e23;fill-opacity:1;stroke:#a91e23;stroke-width:1;stroke-opacity:1"
         inkscape:connector-curvature="0"
         id="path29"
         d="m 30.195995,67.400004 c 0.2,0 0.300001,0.1 0.300001,0.300001 l 0,0.2 c 0,0.2 -0.2,0.4 -0.4,0.4 l -16.899999,0.7 c -0.2,0 -0.300001,-0.1 -0.300001,-0.300001 l 0,-0.2 c 0,-0.199999 0.2,-0.399999 0.4,-0.399999 l 16.899999,-0.700001 0,0 m 0,-0.999999 c -0.09999,0 -0.09999,0 0,0 l -16.899999,0.7 c -0.699999,0 -1.399999,0.699999 -1.399999,1.399999 l 0,0.2 c 0,0.700001 0.599999,1.300001 1.3,1.300001 0,0 0,0 0.09999,0 L 30.19599,69.300004 c 0.700001,0 1.400001,-0.699999 1.400001,-1.399999 l 0,-0.2 c -0.2,-0.700001 -0.7,-1.3 -1.400001,-1.3 l 0,0 z" /><path
         style="display:inline;fill:#a91e23;fill-opacity:1;stroke:#a91e23;stroke-width:1;stroke-opacity:1"
         inkscape:connector-curvature="0"
         id="path5"
         d="m 21.695996,-8.4999955 c 18.3,0 21.5,16.9999998 21.599999,17.7 0,0.09999 1,6.3000005 -1.9,11.8000005 -0.5,0.899999 -1.199999,2.3 -2.099999,3.9 -3.3,6 -6,11.099999 -6.600001,12.7 -0.6,1.5 -0.899999,5.5 -0.8,12.099999 l 0,0.300001 c 0,0.100006 0,0.2 -0.09999,0.3 -0.4,0.699999 -1.1,1 -1.9,1 l -16.099999,0 c -0.8,0 -1.500001,-0.4 -1.9,-1.1 -0.2,0.09999 -0.2,0 -0.2,-0.09999 0,-3.700001 -0.09999,-10.300001 -0.8,-12.400001 -0.70001,-1.70001 -4.1000097,-8.100009 -6.7000098,-12.800009 -0.7999999,-1.6 -1.5999999,-2.9 -1.9999999,-3.8 -2.90000021,-5.6 -1.90000021,-11.8000005 -1.90000021,-11.8000005 0.1000003,-0.8000002 3.20000011,-17.8 21.39999991,-17.8 m 0,-0.9999995 c -19.2999997,0 -22.39999991,18.5999995 -22.39999991,18.5999995 0,0 -1.09999999,6.4999995 2.00000021,12.5000005 1.7999999,3.4 7.7999999,14.3 8.5999999,16.5 0.8000008,2.1 0.8000008,10.7 0.8000008,12 0,0.3 0.1,0.6 0.299999,0.899999 0.6,1 1.600001,1.500001 2.800001,1.500001 l 16.099999,0 c 1.1,0 2.199999,-0.6 2.799999,-1.500001 0.2,-0.299999 0.300001,-0.599999 0.300001,-0.899999 0,-1.1 -0.09999,-9.9 0.799999,-12.1 0.8,-2.200001 6.800001,-13 8.6,-16.500001 3.100001,-5.799999 2.000001,-12.4999995 2.000001,-12.4999995 0,0 -3.3,-18.4999995 -22.7,-18.4999995 l 0,0 z" /></g></g><g
     inkscape:groupmode="layer"
     id="layer2"
     inkscape:label="B"
     transform="translate(-0.13034609,0.999995)"
     style="display:none" /></svg>