<?xml version="1.0" encoding="UTF-8" standalone="no"?>
<!-- Created with Inkscape (http://www.inkscape.org/) -->

<svg
   xmlns:dc="http://purl.org/dc/elements/1.1/"
   xmlns:cc="http://creativecommons.org/ns#"
   xmlns:rdf="http://www.w3.org/1999/02/22-rdf-syntax-ns#"
   xmlns:svg="http://www.w3.org/2000/svg"
   xmlns="http://www.w3.org/2000/svg"
   xmlns:xlink="http://www.w3.org/1999/xlink"
   xmlns:sodipodi="http://sodipodi.sourceforge.net/DTD/sodipodi-0.dtd"
   xmlns:inkscape="http://www.inkscape.org/namespaces/inkscape"
   width="639.22455"
   height="746.70477"
   id="svg2"
   version="1.1"
   inkscape:version="0.91 r"
   sodipodi:docname="OSCEdays_ColourScheme.svg"
   viewBox="0 0 639.22455 746.70477"
   inkscape:export-filename="/home/sam/OSCEdays ownCloud/Design Files/OSCEdays_ColourScheme.png"
   inkscape:export-xdpi="72"
   inkscape:export-ydpi="72">
  <defs
     id="defs4">
    <pattern
       inkscape:collect="always"
       xlink:href="#Checkerboard"
       id="pattern6326"
       patternTransform="scale(18.19374,18.19374)" />
    <pattern
       inkscape:stockid="Checkerboard"
       id="Checkerboard"
       patternTransform="translate(0,0) scale(10,10)"
       height="2"
       width="2"
       patternUnits="userSpaceOnUse"
       inkscape:collect="always">
      <rect
         id="rect5683"
         height="1"
         width="1"
         y="0"
         x="0"
         style="fill:black;stroke:none" />
      <rect
         id="rect5685"
         height="1"
         width="1"
         y="1"
         x="1"
         style="fill:black;stroke:none" />
    </pattern>
  </defs>
  <sodipodi:namedview
     id="base"
     pagecolor="#ffffff"
     bordercolor="#666666"
     borderopacity="1.0"
     inkscape:pageopacity="0.0"
     inkscape:pageshadow="2"
     inkscape:zoom="0.70710678"
     inkscape:cx="359.00755"
     inkscape:cy="346.27999"
     inkscape:document-units="px"
     inkscape:current-layer="layer1"
     showgrid="false"
     width="1920px"
     inkscape:showpageshadow="false"
     inkscape:window-width="1549"
     inkscape:window-height="876"
     inkscape:window-x="51"
     inkscape:window-y="24"
     inkscape:window-maximized="1"
     fit-margin-top="0"
     fit-margin-left="0"
     fit-margin-right="0"
     fit-margin-bottom="0" />
  <metadata
     id="metadata7">
    <rdf:RDF>
      <cc:Work
         rdf:about="">
        <dc:format>image/svg+xml</dc:format>
        <dc:type
           rdf:resource="http://purl.org/dc/dcmitype/StillImage" />
        <dc:title />
      </cc:Work>
    </rdf:RDF>
  </metadata>
  <g
     inkscape:groupmode="layer"
     id="layer2"
     inkscape:label="background"
     style="display:none"
     transform="translate(-1.4142135,23.086578)">
    <rect
       style="opacity:0.2;fill:url(#pattern6326);fill-opacity:1"
       id="rect4119"
       width="1920"
       height="1080"
       x="0"
       y="-2.2737368e-13" />
  </g>
  <g
     inkscape:label="Layer 1"
     inkscape:groupmode="layer"
     id="layer1"
     transform="translate(-1.4142135,50.724396)">
    <rect
       style="opacity:1;fill:#ffffff;fill-opacity:1;stroke:none;stroke-width:15;stroke-linecap:square;stroke-linejoin:round;stroke-miterlimit:4;stroke-dasharray:30, 15;stroke-dashoffset:0;stroke-opacity:1"
       id="rect4249"
       width="639.26837"
       height="746.70471"
       x="1.4142135"
       y="-50.724384" />
    <path
       style="opacity:1;fill:#2eaa4a;fill-opacity:1;stroke:none;stroke-width:15;stroke-linecap:square;stroke-linejoin:round;stroke-miterlimit:4;stroke-dasharray:30, 15;stroke-dashoffset:0;stroke-opacity:1"
       d="m 73.31826,248.28076 100,0 0,100 -100,0 z"
       id="rect4141" />
    <path
       style="opacity:1;fill:#00a4aa;fill-opacity:1;stroke:none;stroke-width:15;stroke-linecap:square;stroke-linejoin:round;stroke-miterlimit:4;stroke-dasharray:30, 15;stroke-dashoffset:0;stroke-opacity:1"
       d="m 205.31827,248.28076 100,0 0,100 -100,0 z"
       id="rect4143" />
    <path
       style="opacity:1;fill:#026699;fill-opacity:1;stroke:none;stroke-width:15;stroke-linecap:square;stroke-linejoin:round;stroke-miterlimit:4;stroke-dasharray:30, 15;stroke-dashoffset:0;stroke-opacity:1"
       d="m 337.31827,248.28076 100,0 0,100 -100,0 z"
       id="rect4147" />
    <path
       style="opacity:1;fill:#633393;fill-opacity:1;stroke:none;stroke-width:15;stroke-linecap:square;stroke-linejoin:round;stroke-miterlimit:4;stroke-dasharray:30, 15;stroke-dashoffset:0;stroke-opacity:1"
       d="m 469.31827,248.28076 100,0 0,100 -100,0 z"
       id="rect4151" />
    <path
       inkscape:connector-curvature="0"
       id="path4602"
       style="font-style:normal;font-variant:normal;font-weight:normal;font-stretch:normal;font-size:22.5px;line-height:125%;font-family:Montserrat;-inkscape-font-specification:Montserrat;text-align:center;letter-spacing:0px;word-spacing:0px;text-anchor:middle;fill:#000000;fill-opacity:1;stroke:none;stroke-width:1px;stroke-linecap:butt;stroke-linejoin:miter;stroke-opacity:1"
       d="m 84.054791,219.88237 c -2.025,0 -4.0275,0.855 -5.7375,2.25 l 1.0575,2.0475 c 1.3275,-1.215 2.925,-1.98 4.2975,-1.98 1.6425,0 2.6325,0.765 2.6325,2.025 0,0.9 -0.765,2.1825 -1.9125,3.3525 l -5.805,6.2325 0,1.935 11.205,0 0,-2.385 -7.695,0 4.095,-4.3425 c 1.665,-1.8 2.88,-3.5775 2.88,-5.175 0,-2.4075 -2.0475,-3.96 -5.0175,-3.96 z" />
    <path
       inkscape:connector-curvature="0"
       id="path4604"
       style="font-style:normal;font-variant:normal;font-weight:normal;font-stretch:normal;font-size:22.5px;line-height:125%;font-family:Montserrat;-inkscape-font-specification:Montserrat;text-align:center;letter-spacing:0px;word-spacing:0px;text-anchor:middle;fill:#000000;fill-opacity:1;stroke:none;stroke-width:1px;stroke-linecap:butt;stroke-linejoin:miter;stroke-opacity:1"
       d="m 104.12233,222.37987 0,-2.385 -11.249999,0 0,15.75 11.519999,0 0,-2.385 -8.864999,0 0,-4.3425 7.694999,0 0,-2.385 -7.694999,0 0,-4.2525 8.594999,0 z" />
    <path
       inkscape:connector-curvature="0"
       id="path4606"
       style="font-style:normal;font-variant:normal;font-weight:normal;font-stretch:normal;font-size:22.5px;line-height:125%;font-family:Montserrat;-inkscape-font-specification:Montserrat;text-align:center;letter-spacing:0px;word-spacing:0px;text-anchor:middle;fill:#000000;fill-opacity:1;stroke:none;stroke-width:1px;stroke-linecap:butt;stroke-linejoin:miter;stroke-opacity:1"
       d="m 117.80795,232.18987 1.5075,3.555 2.835,0 -6.885,-15.75 -2.7225,0 -6.9525,15.75 2.7675,0 1.5075,-3.555 7.9425,0 z m -1.0125,-2.3625 -5.94,0 2.97,-6.9975 2.97,6.9975 z" />
    <path
       inkscape:connector-curvature="0"
       id="path4608"
       style="font-style:normal;font-variant:normal;font-weight:normal;font-stretch:normal;font-size:22.5px;line-height:125%;font-family:Montserrat;-inkscape-font-specification:Montserrat;text-align:center;letter-spacing:0px;word-spacing:0px;text-anchor:middle;fill:#000000;fill-opacity:1;stroke:none;stroke-width:1px;stroke-linecap:butt;stroke-linejoin:miter;stroke-opacity:1"
       d="m 134.41928,232.18987 1.5075,3.555 2.835,0 -6.885,-15.75 -2.7225,0 -6.9525,15.75 2.7675,0 1.5075,-3.555 7.9425,0 z m -1.0125,-2.3625 -5.94,0 2.97,-6.9975 2.97,6.9975 z" />
    <path
       inkscape:connector-curvature="0"
       id="path4610"
       style="font-style:normal;font-variant:normal;font-weight:normal;font-stretch:normal;font-size:22.5px;line-height:125%;font-family:Montserrat;-inkscape-font-specification:Montserrat;text-align:center;letter-spacing:0px;word-spacing:0px;text-anchor:middle;fill:#000000;fill-opacity:1;stroke:none;stroke-width:1px;stroke-linecap:butt;stroke-linejoin:miter;stroke-opacity:1"
       d="m 142.30061,229.51237 5.1075,-9.5175 -2.565,0 -5.3775,9.9 0,1.98 7.515,0 0,3.87 2.475,0 0,-3.87 2.295,0 0,-2.3625 -2.295,0 0,-3.735 -2.475,0 0,3.735 -4.68,0 z" />
    <path
       inkscape:connector-curvature="0"
       id="path4612"
       style="font-style:normal;font-variant:normal;font-weight:normal;font-stretch:normal;font-size:22.5px;line-height:125%;font-family:Montserrat;-inkscape-font-specification:Montserrat;text-align:center;letter-spacing:0px;word-spacing:0px;text-anchor:middle;fill:#000000;fill-opacity:1;stroke:none;stroke-width:1px;stroke-linecap:butt;stroke-linejoin:miter;stroke-opacity:1"
       d="m 164.52182,232.18987 1.5075,3.555 2.835,0 -6.885,-15.75 -2.7225,0 -6.9525,15.75 2.7675,0 1.5075,-3.555 7.9425,0 z m -1.0125,-2.3625 -5.94,0 2.97,-6.9975 2.97,6.9975 z" />
    <path
       inkscape:connector-curvature="0"
       id="path4614"
       style="font-style:normal;font-variant:normal;font-weight:normal;font-stretch:normal;font-size:22.5px;line-height:125%;font-family:Montserrat;-inkscape-font-specification:Montserrat;text-align:center;letter-spacing:0px;word-spacing:0px;text-anchor:middle;fill:#000000;fill-opacity:1;stroke:none;stroke-width:1px;stroke-linecap:butt;stroke-linejoin:miter;stroke-opacity:1"
       d="m 75.569651,370.13737 5.1075,-9.5175 -2.565,0 -5.3775,9.9 0,1.98 7.515,0 0,3.87 2.475,0 0,-3.87 2.295,0 0,-2.3625 -2.295,0 0,-3.735 -2.475,0 0,3.735 -4.68,0 z" />
    <path
       inkscape:connector-curvature="0"
       id="path4616"
       style="font-style:normal;font-variant:normal;font-weight:normal;font-stretch:normal;font-size:22.5px;line-height:125%;font-family:Montserrat;-inkscape-font-specification:Montserrat;text-align:center;letter-spacing:0px;word-spacing:0px;text-anchor:middle;fill:#000000;fill-opacity:1;stroke:none;stroke-width:1px;stroke-linecap:butt;stroke-linejoin:miter;stroke-opacity:1"
       d="m 93.425861,360.50737 c -4.1625,0 -6.795,3.285 -6.795,8.3025 0,4.8375 2.43,7.6725 6.4125,7.6725 3.3525,0 5.535,-2.025 5.535,-5.2875 0,-3.06 -1.9125,-5.0175 -5.0625,-5.0175 -1.98,0 -3.465,0.765 -4.2975,2.2275 -0.09,-3.3975 1.3275,-5.6925 4.3875,-5.6925 1.1925,0 2.52,0.36 3.4875,0.99 l 1.035,-2.0025 c -1.2825,-0.72 -3.15,-1.1925 -4.7025,-1.1925 z m -0.405,7.7625 c 1.9125,0 3.0825,1.1025 3.0825,2.9025 0,1.9125 -1.2825,3.015 -3.195,3.015 -2.2725,0 -3.285,-1.5525 -3.2625,-2.925 -0.0225,-1.62 1.2375,-2.9925 3.375,-2.9925 z" />
    <path
       inkscape:connector-curvature="0"
       id="path4618"
       style="font-style:normal;font-variant:normal;font-weight:normal;font-stretch:normal;font-size:22.5px;line-height:125%;font-family:Montserrat;-inkscape-font-specification:Montserrat;text-align:center;letter-spacing:0px;word-spacing:0px;text-anchor:middle;fill:#000000;fill-opacity:1;stroke:none;stroke-width:1px;stroke-linecap:butt;stroke-linejoin:miter;stroke-opacity:1"
       d="m 111.22442,376.36987 0,-15.75 -5.7375,0 0,2.3625 3.0825,0 0,13.3875 2.655,0 z" />
    <path
       inkscape:connector-curvature="0"
       id="path4620"
       style="font-style:normal;font-variant:normal;font-weight:normal;font-stretch:normal;font-size:22.5px;line-height:125%;font-family:Montserrat;-inkscape-font-specification:Montserrat;text-align:center;letter-spacing:0px;word-spacing:0px;text-anchor:middle;fill:#000000;fill-opacity:1;stroke:none;stroke-width:1px;stroke-linecap:butt;stroke-linejoin:miter;stroke-opacity:1"
       d="m 126.18059,362.64487 0,-2.025 -11.4525,0 0,4.59 2.34,0 0.0225,-2.205 6.12,0 -6.12,13.365 2.8125,0 6.2775,-13.725 z" />
    <path
       inkscape:connector-curvature="0"
       id="path4622"
       style="font-style:normal;font-variant:normal;font-weight:normal;font-stretch:normal;font-size:22.5px;line-height:125%;font-family:Montserrat;-inkscape-font-specification:Montserrat;text-align:center;letter-spacing:0px;word-spacing:0px;text-anchor:middle;fill:#000000;fill-opacity:1;stroke:none;stroke-width:1px;stroke-linecap:butt;stroke-linejoin:miter;stroke-opacity:1"
       d="m 134.51262,360.55237 c -4.32,0 -6.705,2.835 -6.705,7.9425 0,5.1075 2.385,7.9425 6.705,7.9425 4.2975,0 6.6825,-2.835 6.6825,-7.9425 0,-5.1075 -2.385,-7.9425 -6.6825,-7.9425 z m 0,2.0925 c 2.6325,0 3.96,1.845 3.96,5.85 0,3.9825 -1.3275,5.85 -3.96,5.85 -2.655,0 -3.9825,-1.8675 -3.9825,-5.85 0,-4.005 1.3275,-5.85 3.9825,-5.85 z" />
    <path
       inkscape:connector-curvature="0"
       id="path4624"
       style="font-style:normal;font-variant:normal;font-weight:normal;font-stretch:normal;font-size:22.5px;line-height:125%;font-family:Montserrat;-inkscape-font-specification:Montserrat;text-align:center;letter-spacing:0px;word-spacing:0px;text-anchor:middle;fill:#000000;fill-opacity:1;stroke:none;stroke-width:1px;stroke-linecap:butt;stroke-linejoin:miter;stroke-opacity:1"
       d="m 160.37004,362.64487 0,-2.025 -11.4525,0 0,4.59 2.34,0 0.0225,-2.205 6.12,0 -6.12,13.365 2.8125,0 6.2775,-13.725 z" />
    <path
       inkscape:connector-curvature="0"
       id="path4626"
       style="font-style:normal;font-variant:normal;font-weight:normal;font-stretch:normal;font-size:22.5px;line-height:125%;font-family:Montserrat;-inkscape-font-specification:Montserrat;text-align:center;letter-spacing:0px;word-spacing:0px;text-anchor:middle;fill:#000000;fill-opacity:1;stroke:none;stroke-width:1px;stroke-linecap:butt;stroke-linejoin:miter;stroke-opacity:1"
       d="m 164.42707,370.13737 5.1075,-9.5175 -2.565,0 -5.3775,9.9 0,1.98 7.515,0 0,3.87 2.475,0 0,-3.87 2.295,0 0,-2.3625 -2.295,0 0,-3.735 -2.475,0 0,3.735 -4.68,0 z" />
    <path
       inkscape:connector-curvature="0"
       id="path4575"
       style="font-style:normal;font-variant:normal;font-weight:normal;font-stretch:normal;font-size:22.5px;line-height:125%;font-family:Montserrat;-inkscape-font-specification:Montserrat;text-align:center;letter-spacing:0px;word-spacing:0px;text-anchor:middle;fill:#000000;fill-opacity:1;stroke:none;stroke-width:1px;stroke-linecap:butt;stroke-linejoin:miter;stroke-opacity:1"
       d="m 215.79973,219.92737 c -4.32,0 -6.705,2.835 -6.705,7.9425 0,5.1075 2.385,7.9425 6.705,7.9425 4.2975,0 6.6825,-2.835 6.6825,-7.9425 0,-5.1075 -2.385,-7.9425 -6.6825,-7.9425 z m 0,2.0925 c 2.6325,0 3.96,1.845 3.96,5.85 0,3.9825 -1.3275,5.85 -3.96,5.85 -2.655,0 -3.9825,-1.8675 -3.9825,-5.85 0,-4.005 1.3275,-5.85 3.9825,-5.85 z" />
    <path
       inkscape:connector-curvature="0"
       id="path4577"
       style="font-style:normal;font-variant:normal;font-weight:normal;font-stretch:normal;font-size:22.5px;line-height:125%;font-family:Montserrat;-inkscape-font-specification:Montserrat;text-align:center;letter-spacing:0px;word-spacing:0px;text-anchor:middle;fill:#000000;fill-opacity:1;stroke:none;stroke-width:1px;stroke-linecap:butt;stroke-linejoin:miter;stroke-opacity:1"
       d="m 231.35637,219.92737 c -4.32,0 -6.705,2.835 -6.705,7.9425 0,5.1075 2.385,7.9425 6.705,7.9425 4.2975,0 6.6825,-2.835 6.6825,-7.9425 0,-5.1075 -2.385,-7.9425 -6.6825,-7.9425 z m 0,2.0925 c 2.6325,0 3.96,1.845 3.96,5.85 0,3.9825 -1.3275,5.85 -3.96,5.85 -2.655,0 -3.9825,-1.8675 -3.9825,-5.85 0,-4.005 1.3275,-5.85 3.9825,-5.85 z" />
    <path
       inkscape:connector-curvature="0"
       id="path4579"
       style="font-style:normal;font-variant:normal;font-weight:normal;font-stretch:normal;font-size:22.5px;line-height:125%;font-family:Montserrat;-inkscape-font-specification:Montserrat;text-align:center;letter-spacing:0px;word-spacing:0px;text-anchor:middle;fill:#000000;fill-opacity:1;stroke:none;stroke-width:1px;stroke-linecap:butt;stroke-linejoin:miter;stroke-opacity:1"
       d="m 251.36801,232.18987 1.5075,3.555 2.835,0 -6.885,-15.75 -2.7225,0 -6.9525,15.75 2.7675,0 1.5075,-3.555 7.9425,0 z m -1.0125,-2.3625 -5.94,0 2.97,-6.9975 2.97,6.9975 z" />
    <path
       inkscape:connector-curvature="0"
       id="path4581"
       style="font-style:normal;font-variant:normal;font-weight:normal;font-stretch:normal;font-size:22.5px;line-height:125%;font-family:Montserrat;-inkscape-font-specification:Montserrat;text-align:center;letter-spacing:0px;word-spacing:0px;text-anchor:middle;fill:#000000;fill-opacity:1;stroke:none;stroke-width:1px;stroke-linecap:butt;stroke-linejoin:miter;stroke-opacity:1"
       d="m 259.24934,229.51237 5.1075,-9.5175 -2.565,0 -5.3775,9.9 0,1.98 7.515,0 0,3.87 2.475,0 0,-3.87 2.295,0 0,-2.3625 -2.295,0 0,-3.735 -2.475,0 0,3.735 -4.68,0 z" />
    <path
       inkscape:connector-curvature="0"
       id="path4583"
       style="font-style:normal;font-variant:normal;font-weight:normal;font-stretch:normal;font-size:22.5px;line-height:125%;font-family:Montserrat;-inkscape-font-specification:Montserrat;text-align:center;letter-spacing:0px;word-spacing:0px;text-anchor:middle;fill:#000000;fill-opacity:1;stroke:none;stroke-width:1px;stroke-linecap:butt;stroke-linejoin:miter;stroke-opacity:1"
       d="m 281.47055,232.18987 1.5075,3.555 2.835,0 -6.885,-15.75 -2.7225,0 -6.9525,15.75 2.7675,0 1.5075,-3.555 7.9425,0 z m -1.0125,-2.3625 -5.94,0 2.97,-6.9975 2.97,6.9975 z" />
    <path
       inkscape:connector-curvature="0"
       id="path4585"
       style="font-style:normal;font-variant:normal;font-weight:normal;font-stretch:normal;font-size:22.5px;line-height:125%;font-family:Montserrat;-inkscape-font-specification:Montserrat;text-align:center;letter-spacing:0px;word-spacing:0px;text-anchor:middle;fill:#000000;fill-opacity:1;stroke:none;stroke-width:1px;stroke-linecap:butt;stroke-linejoin:miter;stroke-opacity:1"
       d="m 298.08188,232.18987 1.5075,3.555 2.835,0 -6.885,-15.75 -2.7225,0 -6.9525,15.75 2.7675,0 1.5075,-3.555 7.9425,0 z m -1.0125,-2.3625 -5.94,0 2.97,-6.9975 2.97,6.9975 z" />
    <path
       inkscape:connector-curvature="0"
       id="path4587"
       style="font-style:normal;font-variant:normal;font-weight:normal;font-stretch:normal;font-size:22.5px;line-height:125%;font-family:Montserrat;-inkscape-font-specification:Montserrat;text-align:center;letter-spacing:0px;word-spacing:0px;text-anchor:middle;fill:#000000;fill-opacity:1;stroke:none;stroke-width:1px;stroke-linecap:butt;stroke-linejoin:miter;stroke-opacity:1"
       d="m 212.87737,360.55237 c -4.32,0 -6.705,2.835 -6.705,7.9425 0,5.1075 2.385,7.9425 6.705,7.9425 4.2975,0 6.6825,-2.835 6.6825,-7.9425 0,-5.1075 -2.385,-7.9425 -6.6825,-7.9425 z m 0,2.0925 c 2.6325,0 3.96,1.845 3.96,5.85 0,3.9825 -1.3275,5.85 -3.96,5.85 -2.655,0 -3.9825,-1.8675 -3.9825,-5.85 0,-4.005 1.3275,-5.85 3.9825,-5.85 z" />
    <path
       inkscape:connector-curvature="0"
       id="path4589"
       style="font-style:normal;font-variant:normal;font-weight:normal;font-stretch:normal;font-size:22.5px;line-height:125%;font-family:Montserrat;-inkscape-font-specification:Montserrat;text-align:center;letter-spacing:0px;word-spacing:0px;text-anchor:middle;fill:#000000;fill-opacity:1;stroke:none;stroke-width:1px;stroke-linecap:butt;stroke-linejoin:miter;stroke-opacity:1"
       d="m 232.47979,376.36987 0,-15.75 -5.7375,0 0,2.3625 3.0825,0 0,13.3875 2.655,0 z" />
    <path
       inkscape:connector-curvature="0"
       id="path4591"
       style="font-style:normal;font-variant:normal;font-weight:normal;font-stretch:normal;font-size:22.5px;line-height:125%;font-family:Montserrat;-inkscape-font-specification:Montserrat;text-align:center;letter-spacing:0px;word-spacing:0px;text-anchor:middle;fill:#000000;fill-opacity:1;stroke:none;stroke-width:1px;stroke-linecap:butt;stroke-linejoin:miter;stroke-opacity:1"
       d="m 243.02596,360.50737 c -4.1625,0 -6.795,3.285 -6.795,8.3025 0,4.8375 2.43,7.6725 6.4125,7.6725 3.3525,0 5.535,-2.025 5.535,-5.2875 0,-3.06 -1.9125,-5.0175 -5.0625,-5.0175 -1.98,0 -3.465,0.765 -4.2975,2.2275 -0.09,-3.3975 1.3275,-5.6925 4.3875,-5.6925 1.1925,0 2.52,0.36 3.4875,0.99 l 1.035,-2.0025 c -1.2825,-0.72 -3.15,-1.1925 -4.7025,-1.1925 z m -0.405,7.7625 c 1.9125,0 3.0825,1.1025 3.0825,2.9025 0,1.9125 -1.2825,3.015 -3.195,3.015 -2.2725,0 -3.285,-1.5525 -3.2625,-2.925 -0.0225,-1.62 1.2375,-2.9925 3.375,-2.9925 z" />
    <path
       inkscape:connector-curvature="0"
       id="path4593"
       style="font-style:normal;font-variant:normal;font-weight:normal;font-stretch:normal;font-size:22.5px;line-height:125%;font-family:Montserrat;-inkscape-font-specification:Montserrat;text-align:center;letter-spacing:0px;word-spacing:0px;text-anchor:middle;fill:#000000;fill-opacity:1;stroke:none;stroke-width:1px;stroke-linecap:butt;stroke-linejoin:miter;stroke-opacity:1"
       d="m 252.50373,370.13737 5.1075,-9.5175 -2.565,0 -5.3775,9.9 0,1.98 7.515,0 0,3.87 2.475,0 0,-3.87 2.295,0 0,-2.3625 -2.295,0 0,-3.735 -2.475,0 0,3.735 -4.68,0 z" />
    <path
       inkscape:connector-curvature="0"
       id="path4595"
       style="font-style:normal;font-variant:normal;font-weight:normal;font-stretch:normal;font-size:22.5px;line-height:125%;font-family:Montserrat;-inkscape-font-specification:Montserrat;text-align:center;letter-spacing:0px;word-spacing:0px;text-anchor:middle;fill:#000000;fill-opacity:1;stroke:none;stroke-width:1px;stroke-linecap:butt;stroke-linejoin:miter;stroke-opacity:1"
       d="m 274.31573,376.36987 0,-15.75 -5.7375,0 0,2.3625 3.0825,0 0,13.3875 2.655,0 z" />
    <path
       inkscape:connector-curvature="0"
       id="path4597"
       style="font-style:normal;font-variant:normal;font-weight:normal;font-stretch:normal;font-size:22.5px;line-height:125%;font-family:Montserrat;-inkscape-font-specification:Montserrat;text-align:center;letter-spacing:0px;word-spacing:0px;text-anchor:middle;fill:#000000;fill-opacity:1;stroke:none;stroke-width:1px;stroke-linecap:butt;stroke-linejoin:miter;stroke-opacity:1"
       d="m 289.2719,362.64487 0,-2.025 -11.4525,0 0,4.59 2.34,0 0.0225,-2.205 6.12,0 -6.12,13.365 2.8125,0 6.2775,-13.725 z" />
    <path
       inkscape:connector-curvature="0"
       id="path4599"
       style="font-style:normal;font-variant:normal;font-weight:normal;font-stretch:normal;font-size:22.5px;line-height:125%;font-family:Montserrat;-inkscape-font-specification:Montserrat;text-align:center;letter-spacing:0px;word-spacing:0px;text-anchor:middle;fill:#000000;fill-opacity:1;stroke:none;stroke-width:1px;stroke-linecap:butt;stroke-linejoin:miter;stroke-opacity:1"
       d="m 297.60393,360.55237 c -4.32,0 -6.705,2.835 -6.705,7.9425 0,5.1075 2.385,7.9425 6.705,7.9425 4.2975,0 6.6825,-2.835 6.6825,-7.9425 0,-5.1075 -2.385,-7.9425 -6.6825,-7.9425 z m 0,2.0925 c 2.6325,0 3.96,1.845 3.96,5.85 0,3.9825 -1.3275,5.85 -3.96,5.85 -2.655,0 -3.9825,-1.8675 -3.9825,-5.85 0,-4.005 1.3275,-5.85 3.9825,-5.85 z" />
    <path
       inkscape:connector-curvature="0"
       id="path4548"
       style="font-style:normal;font-variant:normal;font-weight:normal;font-stretch:normal;font-size:22.5px;line-height:125%;font-family:Montserrat;-inkscape-font-specification:Montserrat;text-align:center;letter-spacing:0px;word-spacing:0px;text-anchor:middle;fill:#000000;fill-opacity:1;stroke:none;stroke-width:1px;stroke-linecap:butt;stroke-linejoin:miter;stroke-opacity:1"
       d="m 352.94134,219.92737 c -4.32,0 -6.705,2.835 -6.705,7.9425 0,5.1075 2.385,7.9425 6.705,7.9425 4.2975,0 6.6825,-2.835 6.6825,-7.9425 0,-5.1075 -2.385,-7.9425 -6.6825,-7.9425 z m 0,2.0925 c 2.6325,0 3.96,1.845 3.96,5.85 0,3.9825 -1.3275,5.85 -3.96,5.85 -2.655,0 -3.9825,-1.8675 -3.9825,-5.85 0,-4.005 1.3275,-5.85 3.9825,-5.85 z" />
    <path
       inkscape:connector-curvature="0"
       id="path4550"
       style="font-style:normal;font-variant:normal;font-weight:normal;font-stretch:normal;font-size:22.5px;line-height:125%;font-family:Montserrat;-inkscape-font-specification:Montserrat;text-align:center;letter-spacing:0px;word-spacing:0px;text-anchor:middle;fill:#000000;fill-opacity:1;stroke:none;stroke-width:1px;stroke-linecap:butt;stroke-linejoin:miter;stroke-opacity:1"
       d="m 367.19298,219.88237 c -2.025,0 -4.0275,0.855 -5.7375,2.25 l 1.0575,2.0475 c 1.3275,-1.215 2.925,-1.98 4.2975,-1.98 1.6425,0 2.6325,0.765 2.6325,2.025 0,0.9 -0.765,2.1825 -1.9125,3.3525 l -5.805,6.2325 0,1.935 11.205,0 0,-2.385 -7.695,0 4.095,-4.3425 c 1.665,-1.8 2.88,-3.5775 2.88,-5.175 0,-2.4075 -2.0475,-3.96 -5.0175,-3.96 z" />
    <path
       inkscape:connector-curvature="0"
       id="path4552"
       style="font-style:normal;font-variant:normal;font-weight:normal;font-stretch:normal;font-size:22.5px;line-height:125%;font-family:Montserrat;-inkscape-font-specification:Montserrat;text-align:center;letter-spacing:0px;word-spacing:0px;text-anchor:middle;fill:#000000;fill-opacity:1;stroke:none;stroke-width:1px;stroke-linecap:butt;stroke-linejoin:miter;stroke-opacity:1"
       d="m 381.81552,219.88237 c -4.1625,0 -6.795,3.285 -6.795,8.3025 0,4.8375 2.43,7.6725 6.4125,7.6725 3.3525,0 5.535,-2.025 5.535,-5.2875 0,-3.06 -1.9125,-5.0175 -5.0625,-5.0175 -1.98,0 -3.465,0.765 -4.2975,2.2275 -0.09,-3.3975 1.3275,-5.6925 4.3875,-5.6925 1.1925,0 2.52,0.36 3.4875,0.99 l 1.035,-2.0025 c -1.2825,-0.72 -3.15,-1.1925 -4.7025,-1.1925 z m -0.405,7.7625 c 1.9125,0 3.0825,1.1025 3.0825,2.9025 0,1.9125 -1.2825,3.015 -3.195,3.015 -2.2725,0 -3.285,-1.5525 -3.2625,-2.925 -0.0225,-1.62 1.2375,-2.9925 3.375,-2.9925 z" />
    <path
       inkscape:connector-curvature="0"
       id="path4554"
       style="font-style:normal;font-variant:normal;font-weight:normal;font-stretch:normal;font-size:22.5px;line-height:125%;font-family:Montserrat;-inkscape-font-specification:Montserrat;text-align:center;letter-spacing:0px;word-spacing:0px;text-anchor:middle;fill:#000000;fill-opacity:1;stroke:none;stroke-width:1px;stroke-linecap:butt;stroke-linejoin:miter;stroke-opacity:1"
       d="m 395.65829,219.88237 c -4.1625,0 -6.795,3.285 -6.795,8.3025 0,4.8375 2.43,7.6725 6.4125,7.6725 3.3525,0 5.535,-2.025 5.535,-5.2875 0,-3.06 -1.9125,-5.0175 -5.0625,-5.0175 -1.98,0 -3.465,0.765 -4.2975,2.2275 -0.09,-3.3975 1.3275,-5.6925 4.3875,-5.6925 1.1925,0 2.52,0.36 3.4875,0.99 l 1.035,-2.0025 c -1.2825,-0.72 -3.15,-1.1925 -4.7025,-1.1925 z m -0.405,7.7625 c 1.9125,0 3.0825,1.1025 3.0825,2.9025 0,1.9125 -1.2825,3.015 -3.195,3.015 -2.2725,0 -3.285,-1.5525 -3.2625,-2.925 -0.0225,-1.62 1.2375,-2.9925 3.375,-2.9925 z" />
    <path
       inkscape:connector-curvature="0"
       id="path4556"
       style="font-style:normal;font-variant:normal;font-weight:normal;font-stretch:normal;font-size:22.5px;line-height:125%;font-family:Montserrat;-inkscape-font-specification:Montserrat;text-align:center;letter-spacing:0px;word-spacing:0px;text-anchor:middle;fill:#000000;fill-opacity:1;stroke:none;stroke-width:1px;stroke-linecap:butt;stroke-linejoin:miter;stroke-opacity:1"
       d="m 407.72357,235.85737 c 4.1625,0 6.795,-3.285 6.795,-8.3025 0,-4.8375 -2.43,-7.6725 -6.4125,-7.6725 -3.3525,0 -5.535,2.025 -5.535,5.2875 0,3.06 1.9125,5.0175 5.0625,5.0175 1.98,0 3.465,-0.765 4.2975,-2.2275 0.09,3.3975 -1.3275,5.6925 -4.3875,5.6925 -1.1925,0 -2.52,-0.36 -3.4875,-0.99 l -1.035,2.0025 c 1.2825,0.72 3.15,1.1925 4.7025,1.1925 z m 0.405,-7.7625 c -1.9125,0 -3.0825,-1.1025 -3.0825,-2.9025 0,-1.9125 1.2825,-3.015 3.195,-3.015 2.2725,0 3.285,1.5525 3.2625,2.925 0.0225,1.62 -1.2375,2.9925 -3.375,2.9925 z" />
    <path
       inkscape:connector-curvature="0"
       id="path4558"
       style="font-style:normal;font-variant:normal;font-weight:normal;font-stretch:normal;font-size:22.5px;line-height:125%;font-family:Montserrat;-inkscape-font-specification:Montserrat;text-align:center;letter-spacing:0px;word-spacing:0px;text-anchor:middle;fill:#000000;fill-opacity:1;stroke:none;stroke-width:1px;stroke-linecap:butt;stroke-linejoin:miter;stroke-opacity:1"
       d="m 421.56634,235.85737 c 4.1625,0 6.795,-3.285 6.795,-8.3025 0,-4.8375 -2.43,-7.6725 -6.4125,-7.6725 -3.3525,0 -5.535,2.025 -5.535,5.2875 0,3.06 1.9125,5.0175 5.0625,5.0175 1.98,0 3.465,-0.765 4.2975,-2.2275 0.09,3.3975 -1.3275,5.6925 -4.3875,5.6925 -1.1925,0 -2.52,-0.36 -3.4875,-0.99 l -1.035,2.0025 c 1.2825,0.72 3.15,1.1925 4.7025,1.1925 z m 0.405,-7.7625 c -1.9125,0 -3.0825,-1.1025 -3.0825,-2.9025 0,-1.9125 1.2825,-3.015 3.195,-3.015 2.2725,0 3.285,1.5525 3.2625,2.925 0.0225,1.62 -1.2375,2.9925 -3.375,2.9925 z" />
    <path
       inkscape:connector-curvature="0"
       id="path4560"
       style="font-style:normal;font-variant:normal;font-weight:normal;font-stretch:normal;font-size:22.5px;line-height:125%;font-family:Montserrat;-inkscape-font-specification:Montserrat;text-align:center;letter-spacing:0px;word-spacing:0px;text-anchor:middle;fill:#000000;fill-opacity:1;stroke:none;stroke-width:1px;stroke-linecap:butt;stroke-linejoin:miter;stroke-opacity:1"
       d="m 345.65978,360.50737 c -2.025,0 -4.0275,0.855 -5.7375,2.25 l 1.0575,2.0475 c 1.3275,-1.215 2.925,-1.98 4.2975,-1.98 1.6425,0 2.6325,0.765 2.6325,2.025 0,0.9 -0.765,2.1825 -1.9125,3.3525 l -5.805,6.2325 0,1.935 11.205,0 0,-2.385 -7.695,0 4.095,-4.3425 c 1.665,-1.8 2.88,-3.5775 2.88,-5.175 0,-2.4075 -2.0475,-3.96 -5.0175,-3.96 z" />
    <path
       inkscape:connector-curvature="0"
       id="path4562"
       style="font-style:normal;font-variant:normal;font-weight:normal;font-stretch:normal;font-size:22.5px;line-height:125%;font-family:Montserrat;-inkscape-font-specification:Montserrat;text-align:center;letter-spacing:0px;word-spacing:0px;text-anchor:middle;fill:#000000;fill-opacity:1;stroke:none;stroke-width:1px;stroke-linecap:butt;stroke-linejoin:miter;stroke-opacity:1"
       d="m 364.2381,376.36987 0,-15.75 -5.7375,0 0,2.3625 3.0825,0 0,13.3875 2.655,0 z" />
    <path
       inkscape:connector-curvature="0"
       id="path4564"
       style="font-style:normal;font-variant:normal;font-weight:normal;font-stretch:normal;font-size:22.5px;line-height:125%;font-family:Montserrat;-inkscape-font-specification:Montserrat;text-align:center;letter-spacing:0px;word-spacing:0px;text-anchor:middle;fill:#000000;fill-opacity:1;stroke:none;stroke-width:1px;stroke-linecap:butt;stroke-linejoin:miter;stroke-opacity:1"
       d="m 374.69427,360.55237 c -4.32,0 -6.705,2.835 -6.705,7.9425 0,5.1075 2.385,7.9425 6.705,7.9425 4.2975,0 6.6825,-2.835 6.6825,-7.9425 0,-5.1075 -2.385,-7.9425 -6.6825,-7.9425 z m 0,2.0925 c 2.6325,0 3.96,1.845 3.96,5.85 0,3.9825 -1.3275,5.85 -3.96,5.85 -2.655,0 -3.9825,-1.8675 -3.9825,-5.85 0,-4.005 1.3275,-5.85 3.9825,-5.85 z" />
    <path
       inkscape:connector-curvature="0"
       id="path4566"
       style="font-style:normal;font-variant:normal;font-weight:normal;font-stretch:normal;font-size:22.5px;line-height:125%;font-family:Montserrat;-inkscape-font-specification:Montserrat;text-align:center;letter-spacing:0px;word-spacing:0px;text-anchor:middle;fill:#000000;fill-opacity:1;stroke:none;stroke-width:1px;stroke-linecap:butt;stroke-linejoin:miter;stroke-opacity:1"
       d="m 388.94591,360.50737 c -2.025,0 -4.0275,0.855 -5.7375,2.25 l 1.0575,2.0475 c 1.3275,-1.215 2.925,-1.98 4.2975,-1.98 1.6425,0 2.6325,0.765 2.6325,2.025 0,0.9 -0.765,2.1825 -1.9125,3.3525 l -5.805,6.2325 0,1.935 11.205,0 0,-2.385 -7.695,0 4.095,-4.3425 c 1.665,-1.8 2.88,-3.5775 2.88,-5.175 0,-2.4075 -2.0475,-3.96 -5.0175,-3.96 z" />
    <path
       inkscape:connector-curvature="0"
       id="path4568"
       style="font-style:normal;font-variant:normal;font-weight:normal;font-stretch:normal;font-size:22.5px;line-height:125%;font-family:Montserrat;-inkscape-font-specification:Montserrat;text-align:center;letter-spacing:0px;word-spacing:0px;text-anchor:middle;fill:#000000;fill-opacity:1;stroke:none;stroke-width:1px;stroke-linecap:butt;stroke-linejoin:miter;stroke-opacity:1"
       d="m 407.52423,376.36987 0,-15.75 -5.7375,0 0,2.3625 3.0825,0 0,13.3875 2.655,0 z" />
    <path
       inkscape:connector-curvature="0"
       id="path4570"
       style="font-style:normal;font-variant:normal;font-weight:normal;font-stretch:normal;font-size:22.5px;line-height:125%;font-family:Montserrat;-inkscape-font-specification:Montserrat;text-align:center;letter-spacing:0px;word-spacing:0px;text-anchor:middle;fill:#000000;fill-opacity:1;stroke:none;stroke-width:1px;stroke-linecap:butt;stroke-linejoin:miter;stroke-opacity:1"
       d="m 421.5804,363.00487 -0.0225,-2.385 -9.585,0 0,8.325 c 1.0575,-0.1125 3.195,-0.2025 4.14,-0.2025 2.025,0 3.2625,0.99 3.2625,2.5875 0,1.7775 -1.2375,2.835 -3.285,2.835 -1.4175,0 -2.9925,-0.6075 -4.2525,-1.665 l -1.0575,2.16 c 1.5525,1.08 3.735,1.8 5.6025,1.8 3.5325,0 5.8275,-2.0925 5.8275,-5.2875 0,-2.7675 -2.205,-4.7925 -5.625,-4.7925 l -2.16,0.0225 0,-3.3975 7.155,0 z" />
    <path
       inkscape:connector-curvature="0"
       id="path4572"
       style="font-style:normal;font-variant:normal;font-weight:normal;font-stretch:normal;font-size:22.5px;line-height:125%;font-family:Montserrat;-inkscape-font-specification:Montserrat;text-align:center;letter-spacing:0px;word-spacing:0px;text-anchor:middle;fill:#000000;fill-opacity:1;stroke:none;stroke-width:1px;stroke-linecap:butt;stroke-linejoin:miter;stroke-opacity:1"
       d="m 429.05427,367.16737 4.5,-4.86 0,-1.665 -9.585,0 0,2.3625 6.3,0 -4.095,4.41 0,1.5525 2.1825,0 c 2.0925,0 3.33,0.8775 3.33,2.5875 0,1.62 -1.215,2.7 -3.3075,2.7 -1.44,0 -2.9025,-0.585 -4.0275,-1.6425 l -1.1025,2.16 c 1.35,1.035 3.375,1.71 5.31,1.71 3.51,0 5.7375,-2.0475 5.7375,-4.995 0,-2.475 -1.8,-4.005 -4.4325,-4.23 l -0.81,-0.09 z" />
    <path
       inkscape:connector-curvature="0"
       id="path4521"
       style="font-style:normal;font-variant:normal;font-weight:normal;font-stretch:normal;font-size:22.5px;line-height:125%;font-family:Montserrat;-inkscape-font-specification:Montserrat;text-align:center;letter-spacing:0px;word-spacing:0px;text-anchor:middle;fill:#000000;fill-opacity:1;stroke:none;stroke-width:1px;stroke-linecap:butt;stroke-linejoin:miter;stroke-opacity:1"
       d="m 489.00839,219.88237 c -4.1625,0 -6.795,3.285 -6.795,8.3025 0,4.8375 2.43,7.6725 6.4125,7.6725 3.3525,0 5.535,-2.025 5.535,-5.2875 0,-3.06 -1.9125,-5.0175 -5.0625,-5.0175 -1.98,0 -3.465,0.765 -4.2975,2.2275 -0.09,-3.3975 1.3275,-5.6925 4.3875,-5.6925 1.1925,0 2.52,0.36 3.4875,0.99 l 1.035,-2.0025 c -1.2825,-0.72 -3.15,-1.1925 -4.7025,-1.1925 z m -0.405,7.7625 c 1.9125,0 3.0825,1.1025 3.0825,2.9025 0,1.9125 -1.2825,3.015 -3.195,3.015 -2.2725,0 -3.285,-1.5525 -3.2625,-2.925 -0.0225,-1.62 1.2375,-2.9925 3.375,-2.9925 z" />
    <path
       inkscape:connector-curvature="0"
       id="path4523"
       style="font-style:normal;font-variant:normal;font-weight:normal;font-stretch:normal;font-size:22.5px;line-height:125%;font-family:Montserrat;-inkscape-font-specification:Montserrat;text-align:center;letter-spacing:0px;word-spacing:0px;text-anchor:middle;fill:#000000;fill-opacity:1;stroke:none;stroke-width:1px;stroke-linecap:butt;stroke-linejoin:miter;stroke-opacity:1"
       d="m 500.87117,226.54237 4.5,-4.86 0,-1.665 -9.585,0 0,2.3625 6.3,0 -4.095,4.41 0,1.5525 2.1825,0 c 2.0925,0 3.33,0.8775 3.33,2.5875 0,1.62 -1.215,2.7 -3.3075,2.7 -1.44,0 -2.9025,-0.585 -4.0275,-1.6425 l -1.1025,2.16 c 1.35,1.035 3.375,1.71 5.31,1.71 3.51,0 5.7375,-2.0475 5.7375,-4.995 0,-2.475 -1.8,-4.005 -4.4325,-4.23 l -0.81,-0.09 z" />
    <path
       inkscape:connector-curvature="0"
       id="path4525"
       style="font-style:normal;font-variant:normal;font-weight:normal;font-stretch:normal;font-size:22.5px;line-height:125%;font-family:Montserrat;-inkscape-font-specification:Montserrat;text-align:center;letter-spacing:0px;word-spacing:0px;text-anchor:middle;fill:#000000;fill-opacity:1;stroke:none;stroke-width:1px;stroke-linecap:butt;stroke-linejoin:miter;stroke-opacity:1"
       d="m 513.00007,226.54237 4.5,-4.86 0,-1.665 -9.585,0 0,2.3625 6.3,0 -4.095,4.41 0,1.5525 2.1825,0 c 2.0925,0 3.33,0.8775 3.33,2.5875 0,1.62 -1.215,2.7 -3.3075,2.7 -1.44,0 -2.9025,-0.585 -4.0275,-1.6425 l -1.1025,2.16 c 1.35,1.035 3.375,1.71 5.31,1.71 3.51,0 5.7375,-2.0475 5.7375,-4.995 0,-2.475 -1.8,-4.005 -4.4325,-4.23 l -0.81,-0.09 z" />
    <path
       inkscape:connector-curvature="0"
       id="path4527"
       style="font-style:normal;font-variant:normal;font-weight:normal;font-stretch:normal;font-size:22.5px;line-height:125%;font-family:Montserrat;-inkscape-font-specification:Montserrat;text-align:center;letter-spacing:0px;word-spacing:0px;text-anchor:middle;fill:#000000;fill-opacity:1;stroke:none;stroke-width:1px;stroke-linecap:butt;stroke-linejoin:miter;stroke-opacity:1"
       d="m 525.12898,226.54237 4.5,-4.86 0,-1.665 -9.585,0 0,2.3625 6.3,0 -4.095,4.41 0,1.5525 2.1825,0 c 2.0925,0 3.33,0.8775 3.33,2.5875 0,1.62 -1.215,2.7 -3.3075,2.7 -1.44,0 -2.9025,-0.585 -4.0275,-1.6425 l -1.1025,2.16 c 1.35,1.035 3.375,1.71 5.31,1.71 3.51,0 5.7375,-2.0475 5.7375,-4.995 0,-2.475 -1.8,-4.005 -4.4325,-4.23 l -0.81,-0.09 z" />
    <path
       inkscape:connector-curvature="0"
       id="path4529"
       style="font-style:normal;font-variant:normal;font-weight:normal;font-stretch:normal;font-size:22.5px;line-height:125%;font-family:Montserrat;-inkscape-font-specification:Montserrat;text-align:center;letter-spacing:0px;word-spacing:0px;text-anchor:middle;fill:#000000;fill-opacity:1;stroke:none;stroke-width:1px;stroke-linecap:butt;stroke-linejoin:miter;stroke-opacity:1"
       d="m 537.46038,235.85737 c 4.1625,0 6.795,-3.285 6.795,-8.3025 0,-4.8375 -2.43,-7.6725 -6.4125,-7.6725 -3.3525,0 -5.535,2.025 -5.535,5.2875 0,3.06 1.9125,5.0175 5.0625,5.0175 1.98,0 3.465,-0.765 4.2975,-2.2275 0.09,3.3975 -1.3275,5.6925 -4.3875,5.6925 -1.1925,0 -2.52,-0.36 -3.4875,-0.99 l -1.035,2.0025 c 1.2825,0.72 3.15,1.1925 4.7025,1.1925 z m 0.405,-7.7625 c -1.9125,0 -3.0825,-1.1025 -3.0825,-2.9025 0,-1.9125 1.2825,-3.015 3.195,-3.015 2.2725,0 3.285,1.5525 3.2625,2.925 0.0225,1.62 -1.2375,2.9925 -3.375,2.9925 z" />
    <path
       inkscape:connector-curvature="0"
       id="path4531"
       style="font-style:normal;font-variant:normal;font-weight:normal;font-stretch:normal;font-size:22.5px;line-height:125%;font-family:Montserrat;-inkscape-font-specification:Montserrat;text-align:center;letter-spacing:0px;word-spacing:0px;text-anchor:middle;fill:#000000;fill-opacity:1;stroke:none;stroke-width:1px;stroke-linecap:butt;stroke-linejoin:miter;stroke-opacity:1"
       d="m 551.10066,226.54237 4.5,-4.86 0,-1.665 -9.585,0 0,2.3625 6.3,0 -4.095,4.41 0,1.5525 2.1825,0 c 2.0925,0 3.33,0.8775 3.33,2.5875 0,1.62 -1.215,2.7 -3.3075,2.7 -1.44,0 -2.9025,-0.585 -4.0275,-1.6425 l -1.1025,2.16 c 1.35,1.035 3.375,1.71 5.31,1.71 3.51,0 5.7375,-2.0475 5.7375,-4.995 0,-2.475 -1.8,-4.005 -4.4325,-4.23 l -0.81,-0.09 z" />
    <path
       inkscape:connector-curvature="0"
       id="path4533"
       style="font-style:normal;font-variant:normal;font-weight:normal;font-stretch:normal;font-size:22.5px;line-height:125%;font-family:Montserrat;-inkscape-font-specification:Montserrat;text-align:center;letter-spacing:0px;word-spacing:0px;text-anchor:middle;fill:#000000;fill-opacity:1;stroke:none;stroke-width:1px;stroke-linecap:butt;stroke-linejoin:miter;stroke-opacity:1"
       d="m 477.3432,376.48237 c 4.1625,0 6.795,-3.285 6.795,-8.3025 0,-4.8375 -2.43,-7.6725 -6.4125,-7.6725 -3.3525,0 -5.535,2.025 -5.535,5.2875 0,3.06 1.9125,5.0175 5.0625,5.0175 1.98,0 3.465,-0.765 4.2975,-2.2275 0.09,3.3975 -1.3275,5.6925 -4.3875,5.6925 -1.1925,0 -2.52,-0.36 -3.4875,-0.99 l -1.035,2.0025 c 1.2825,0.72 3.15,1.1925 4.7025,1.1925 z m 0.405,-7.7625 c -1.9125,0 -3.0825,-1.1025 -3.0825,-2.9025 0,-1.9125 1.2825,-3.015 3.195,-3.015 2.2725,0 3.285,1.5525 3.2625,2.925 0.0225,1.62 -1.2375,2.9925 -3.375,2.9925 z" />
    <path
       inkscape:connector-curvature="0"
       id="path4535"
       style="font-style:normal;font-variant:normal;font-weight:normal;font-stretch:normal;font-size:22.5px;line-height:125%;font-family:Montserrat;-inkscape-font-specification:Montserrat;text-align:center;letter-spacing:0px;word-spacing:0px;text-anchor:middle;fill:#000000;fill-opacity:1;stroke:none;stroke-width:1px;stroke-linecap:butt;stroke-linejoin:miter;stroke-opacity:1"
       d="m 491.18597,376.48237 c 4.1625,0 6.795,-3.285 6.795,-8.3025 0,-4.8375 -2.43,-7.6725 -6.4125,-7.6725 -3.3525,0 -5.535,2.025 -5.535,5.2875 0,3.06 1.9125,5.0175 5.0625,5.0175 1.98,0 3.465,-0.765 4.2975,-2.2275 0.09,3.3975 -1.3275,5.6925 -4.3875,5.6925 -1.1925,0 -2.52,-0.36 -3.4875,-0.99 l -1.035,2.0025 c 1.2825,0.72 3.15,1.1925 4.7025,1.1925 z m 0.405,-7.7625 c -1.9125,0 -3.0825,-1.1025 -3.0825,-2.9025 0,-1.9125 1.2825,-3.015 3.195,-3.015 2.2725,0 3.285,1.5525 3.2625,2.925 0.0225,1.62 -1.2375,2.9925 -3.375,2.9925 z" />
    <path
       inkscape:connector-curvature="0"
       id="path4537"
       style="font-style:normal;font-variant:normal;font-weight:normal;font-stretch:normal;font-size:22.5px;line-height:125%;font-family:Montserrat;-inkscape-font-specification:Montserrat;text-align:center;letter-spacing:0px;word-spacing:0px;text-anchor:middle;fill:#000000;fill-opacity:1;stroke:none;stroke-width:1px;stroke-linecap:butt;stroke-linejoin:miter;stroke-opacity:1"
       d="m 516.11702,363.00487 -0.0225,-2.385 -9.585,0 0,8.325 c 1.0575,-0.1125 3.195,-0.2025 4.14,-0.2025 2.025,0 3.2625,0.99 3.2625,2.5875 0,1.7775 -1.2375,2.835 -3.285,2.835 -1.4175,0 -2.9925,-0.6075 -4.2525,-1.665 l -1.0575,2.16 c 1.5525,1.08 3.735,1.8 5.6025,1.8 3.5325,0 5.8275,-2.0925 5.8275,-5.2875 0,-2.7675 -2.205,-4.7925 -5.625,-4.7925 l -2.16,0.0225 0,-3.3975 7.155,0 z" />
    <path
       inkscape:connector-curvature="0"
       id="path4539"
       style="font-style:normal;font-variant:normal;font-weight:normal;font-stretch:normal;font-size:22.5px;line-height:125%;font-family:Montserrat;-inkscape-font-specification:Montserrat;text-align:center;letter-spacing:0px;word-spacing:0px;text-anchor:middle;fill:#000000;fill-opacity:1;stroke:none;stroke-width:1px;stroke-linecap:butt;stroke-linejoin:miter;stroke-opacity:1"
       d="m 523.72589,376.36987 0,-15.75 -5.7375,0 0,2.3625 3.0825,0 0,13.3875 2.655,0 z" />
    <path
       inkscape:connector-curvature="0"
       id="path4541"
       style="font-style:normal;font-variant:normal;font-weight:normal;font-stretch:normal;font-size:22.5px;line-height:125%;font-family:Montserrat;-inkscape-font-specification:Montserrat;text-align:center;letter-spacing:0px;word-spacing:0px;text-anchor:middle;fill:#000000;fill-opacity:1;stroke:none;stroke-width:1px;stroke-linecap:butt;stroke-linejoin:miter;stroke-opacity:1"
       d="m 538.22785,376.36987 0,-15.75 -5.7375,0 0,2.3625 3.0825,0 0,13.3875 2.655,0 z" />
    <path
       inkscape:connector-curvature="0"
       id="path4543"
       style="font-style:normal;font-variant:normal;font-weight:normal;font-stretch:normal;font-size:22.5px;line-height:125%;font-family:Montserrat;-inkscape-font-specification:Montserrat;text-align:center;letter-spacing:0px;word-spacing:0px;text-anchor:middle;fill:#000000;fill-opacity:1;stroke:none;stroke-width:1px;stroke-linecap:butt;stroke-linejoin:miter;stroke-opacity:1"
       d="m 544.40902,370.13737 5.1075,-9.5175 -2.565,0 -5.3775,9.9 0,1.98 7.515,0 0,3.87 2.475,0 0,-3.87 2.295,0 0,-2.3625 -2.295,0 0,-3.735 -2.475,0 0,3.735 -4.68,0 z" />
    <path
       inkscape:connector-curvature="0"
       id="path4545"
       style="font-style:normal;font-variant:normal;font-weight:normal;font-stretch:normal;font-size:22.5px;line-height:125%;font-family:Montserrat;-inkscape-font-specification:Montserrat;text-align:center;letter-spacing:0px;word-spacing:0px;text-anchor:middle;fill:#000000;fill-opacity:1;stroke:none;stroke-width:1px;stroke-linecap:butt;stroke-linejoin:miter;stroke-opacity:1"
       d="m 566.67523,362.64487 0,-2.025 -11.4525,0 0,4.59 2.34,0 0.0225,-2.205 6.12,0 -6.12,13.365 2.8125,0 6.2775,-13.725 z" />
    <path
       inkscape:connector-curvature="0"
       id="rect4153"
       d="m 73.31827,492.28076 100,0 0,100 -100,0 z"
       style="opacity:1;fill:#a91e23;fill-opacity:1;stroke:none;stroke-width:15;stroke-linecap:square;stroke-linejoin:round;stroke-miterlimit:4;stroke-dasharray:30, 15;stroke-dashoffset:0;stroke-opacity:1" />
    <path
       inkscape:connector-curvature="0"
       id="rect4159"
       d="m 205.31827,492.28076 100,0 0,100 -100,0 z"
       style="opacity:1;fill:#ffc74e;fill-opacity:1;stroke:none;stroke-width:15;stroke-linecap:square;stroke-linejoin:round;stroke-miterlimit:4;stroke-dasharray:30, 15;stroke-dashoffset:0;stroke-opacity:1" />
    <path
       inkscape:connector-curvature="0"
       id="rect4161"
       d="m 337.31827,492.28076 100,0 0,100 -100,0 z"
       style="opacity:1;fill:#abc178;fill-opacity:1;stroke:none;stroke-width:15;stroke-linecap:square;stroke-linejoin:round;stroke-miterlimit:4;stroke-dasharray:30, 15;stroke-dashoffset:0;stroke-opacity:1" />
    <path
       inkscape:connector-curvature="0"
       id="rect4163"
       d="m 469.31833,492.28076 99.99998,0 0,100 -99.99998,0 z"
       style="opacity:1;fill:#00b2d2;fill-opacity:1;stroke:none;stroke-width:15;stroke-linecap:square;stroke-linejoin:round;stroke-miterlimit:4;stroke-dasharray:30, 15;stroke-dashoffset:0;stroke-opacity:1" />
    <g
       id="flowRoot4264"
       style="font-style:normal;font-weight:normal;font-size:40px;line-height:125%;font-family:Sans;letter-spacing:0px;word-spacing:0px;fill:#000000;fill-opacity:1;stroke:none;stroke-width:1px;stroke-linecap:butt;stroke-linejoin:miter;stroke-opacity:1"
       transform="translate(-54.9711,4.64135)">
      <path
         inkscape:connector-curvature="0"
         id="path4407"
         style="font-style:normal;font-variant:normal;font-weight:normal;font-stretch:normal;font-size:22.5px;font-family:Montserrat;-inkscape-font-specification:Montserrat;text-align:center;text-anchor:middle"
         d="m 150.80641,471.54852 1.5075,3.555 2.835,0 -6.885,-15.75 -2.7225,0 -6.9525,15.75 2.7675,0 1.5075,-3.555 7.9425,0 z m -1.0125,-2.3625 -5.94,0 2.97,-6.9975 2.97,6.9975 z" />
      <path
         inkscape:connector-curvature="0"
         id="path4409"
         style="font-style:normal;font-variant:normal;font-weight:normal;font-stretch:normal;font-size:22.5px;font-family:Montserrat;-inkscape-font-specification:Montserrat;text-align:center;text-anchor:middle"
         d="m 161.27523,475.21602 c 4.1625,0 6.795,-3.285 6.795,-8.3025 0,-4.8375 -2.43,-7.6725 -6.4125,-7.6725 -3.3525,0 -5.535,2.025 -5.535,5.2875 0,3.06 1.9125,5.0175 5.0625,5.0175 1.98,0 3.465,-0.765 4.2975,-2.2275 0.09,3.3975 -1.3275,5.6925 -4.3875,5.6925 -1.1925,0 -2.52,-0.36 -3.4875,-0.99 l -1.035,2.0025 c 1.2825,0.72 3.15,1.1925 4.7025,1.1925 z m 0.405,-7.7625 c -1.9125,0 -3.0825,-1.1025 -3.0825,-2.9025 0,-1.9125 1.2825,-3.015 3.195,-3.015 2.2725,0 3.285,1.5525 3.2625,2.925 0.0225,1.62 -1.2375,2.9925 -3.375,2.9925 z" />
      <path
         inkscape:connector-curvature="0"
         id="path4411"
         style="font-style:normal;font-variant:normal;font-weight:normal;font-stretch:normal;font-size:22.5px;font-family:Montserrat;-inkscape-font-specification:Montserrat;text-align:center;text-anchor:middle"
         d="m 175.05051,475.10352 0,-15.75 -5.7375,0 0,2.3625 3.0825,0 0,13.3875 2.655,0 z" />
      <path
         inkscape:connector-curvature="0"
         id="path4413"
         style="font-style:normal;font-variant:normal;font-weight:normal;font-stretch:normal;font-size:22.5px;font-family:Montserrat;-inkscape-font-specification:Montserrat;text-align:center;text-anchor:middle"
         d="m 191.04168,461.73852 0,-2.385 -11.25,0 0,15.75 11.52,0 0,-2.385 -8.865,0 0,-4.3425 7.695,0 0,-2.385 -7.695,0 0,-4.2525 8.595,0 z" />
      <path
         inkscape:connector-curvature="0"
         id="path4415"
         style="font-style:normal;font-variant:normal;font-weight:normal;font-stretch:normal;font-size:22.5px;font-family:Montserrat;-inkscape-font-specification:Montserrat;text-align:center;text-anchor:middle"
         d="m 198.9673,459.24102 c -2.025,0 -4.0275,0.855 -5.7375,2.25 l 1.0575,2.0475 c 1.3275,-1.215 2.925,-1.98 4.2975,-1.98 1.6425,0 2.6325,0.765 2.6325,2.025 0,0.9 -0.765,2.1825 -1.9125,3.3525 l -5.805,6.2325 0,1.935 11.205,0 0,-2.385 -7.695,0 4.095,-4.3425 c 1.665,-1.8 2.88,-3.5775 2.88,-5.175 0,-2.4075 -2.0475,-3.96 -5.0175,-3.96 z" />
      <path
         inkscape:connector-curvature="0"
         id="path4417"
         style="font-style:normal;font-variant:normal;font-weight:normal;font-stretch:normal;font-size:22.5px;font-family:Montserrat;-inkscape-font-specification:Montserrat;text-align:center;text-anchor:middle"
         d="m 211.60984,465.90102 4.5,-4.86 0,-1.665 -9.585,0 0,2.3625 6.3,0 -4.095,4.41 0,1.5525 2.1825,0 c 2.0925,0 3.33,0.8775 3.33,2.5875 0,1.62 -1.215,2.7 -3.3075,2.7 -1.44,0 -2.9025,-0.585 -4.0275,-1.6425 l -1.1025,2.16 c 1.35,1.035 3.375,1.71 5.31,1.71 3.51,0 5.7375,-2.0475 5.7375,-4.995 0,-2.475 -1.8,-4.005 -4.4325,-4.23 l -0.81,-0.09 z" />
      <path
         inkscape:connector-curvature="0"
         id="path4419"
         style="font-style:normal;font-variant:normal;font-weight:normal;font-stretch:normal;font-size:22.5px;font-family:Montserrat;-inkscape-font-specification:Montserrat;text-align:center;text-anchor:middle"
         d="m 133.85178,615.72852 0,-15.75 -5.7375,0 0,2.3625 3.0825,0 0,13.3875 2.655,0 z" />
      <path
         inkscape:connector-curvature="0"
         id="path4421"
         style="font-style:normal;font-variant:normal;font-weight:normal;font-stretch:normal;font-size:22.5px;font-family:Montserrat;-inkscape-font-specification:Montserrat;text-align:center;text-anchor:middle"
         d="m 144.39795,599.86602 c -4.1625,0 -6.795,3.285 -6.795,8.3025 0,4.8375 2.43,7.6725 6.4125,7.6725 3.3525,0 5.535,-2.025 5.535,-5.2875 0,-3.06 -1.9125,-5.0175 -5.0625,-5.0175 -1.98,0 -3.465,0.765 -4.2975,2.2275 -0.09,-3.3975 1.3275,-5.6925 4.3875,-5.6925 1.1925,0 2.52,0.36 3.4875,0.99 l 1.035,-2.0025 c -1.2825,-0.72 -3.15,-1.1925 -4.7025,-1.1925 z m -0.405,7.7625 c 1.9125,0 3.0825,1.1025 3.0825,2.9025 0,1.9125 -1.2825,3.015 -3.195,3.015 -2.2725,0 -3.285,-1.5525 -3.2625,-2.925 -0.0225,-1.62 1.2375,-2.9925 3.375,-2.9925 z" />
      <path
         inkscape:connector-curvature="0"
         id="path4423"
         style="font-style:normal;font-variant:normal;font-weight:normal;font-stretch:normal;font-size:22.5px;font-family:Montserrat;-inkscape-font-specification:Montserrat;text-align:center;text-anchor:middle"
         d="m 156.46322,615.84102 c 4.1625,0 6.795,-3.285 6.795,-8.3025 0,-4.8375 -2.43,-7.6725 -6.4125,-7.6725 -3.3525,0 -5.535,2.025 -5.535,5.2875 0,3.06 1.9125,5.0175 5.0625,5.0175 1.98,0 3.465,-0.765 4.2975,-2.2275 0.09,3.3975 -1.3275,5.6925 -4.3875,5.6925 -1.1925,0 -2.52,-0.36 -3.4875,-0.99 l -1.035,2.0025 c 1.2825,0.72 3.15,1.1925 4.7025,1.1925 z m 0.405,-7.7625 c -1.9125,0 -3.0825,-1.1025 -3.0825,-2.9025 0,-1.9125 1.2825,-3.015 3.195,-3.015 2.2725,0 3.285,1.5525 3.2625,2.925 0.0225,1.62 -1.2375,2.9925 -3.375,2.9925 z" />
      <path
         inkscape:connector-curvature="0"
         id="path4425"
         style="font-style:normal;font-variant:normal;font-weight:normal;font-stretch:normal;font-size:22.5px;font-family:Montserrat;-inkscape-font-specification:Montserrat;text-align:center;text-anchor:middle"
         d="m 175.90428,606.52602 4.5,-4.86 0,-1.665 -9.585,0 0,2.3625 6.3,0 -4.095,4.41 0,1.5525 2.1825,0 c 2.0925,0 3.33,0.8775 3.33,2.5875 0,1.62 -1.215,2.7 -3.3075,2.7 -1.44,0 -2.9025,-0.585 -4.0275,-1.6425 l -1.1025,2.16 c 1.35,1.035 3.375,1.71 5.31,1.71 3.51,0 5.7375,-2.0475 5.7375,-4.995 0,-2.475 -1.8,-4.005 -4.4325,-4.23 l -0.81,-0.09 z" />
      <path
         inkscape:connector-curvature="0"
         id="path4427"
         style="font-style:normal;font-variant:normal;font-weight:normal;font-stretch:normal;font-size:22.5px;font-family:Montserrat;-inkscape-font-specification:Montserrat;text-align:center;text-anchor:middle"
         d="m 189.92318,599.91102 c -4.32,0 -6.705,2.835 -6.705,7.9425 0,5.1075 2.385,7.9425 6.705,7.9425 4.2975,0 6.6825,-2.835 6.6825,-7.9425 0,-5.1075 -2.385,-7.9425 -6.6825,-7.9425 z m 0,2.0925 c 2.6325,0 3.96,1.845 3.96,5.85 0,3.9825 -1.3275,5.85 -3.96,5.85 -2.655,0 -3.9825,-1.8675 -3.9825,-5.85 0,-4.005 1.3275,-5.85 3.9825,-5.85 z" />
      <path
         inkscape:connector-curvature="0"
         id="path4429"
         style="font-style:normal;font-variant:normal;font-weight:normal;font-stretch:normal;font-size:22.5px;font-family:Montserrat;-inkscape-font-specification:Montserrat;text-align:center;text-anchor:middle"
         d="m 209.39061,606.52602 4.5,-4.86 0,-1.665 -9.585,0 0,2.3625 6.3,0 -4.095,4.41 0,1.5525 2.1825,0 c 2.0925,0 3.33,0.8775 3.33,2.5875 0,1.62 -1.215,2.7 -3.3075,2.7 -1.44,0 -2.9025,-0.585 -4.0275,-1.6425 l -1.1025,2.16 c 1.35,1.035 3.375,1.71 5.31,1.71 3.51,0 5.7375,-2.0475 5.7375,-4.995 0,-2.475 -1.8,-4.005 -4.4325,-4.23 l -0.81,-0.09 z" />
      <path
         inkscape:connector-curvature="0"
         id="path4431"
         style="font-style:normal;font-variant:normal;font-weight:normal;font-stretch:normal;font-size:22.5px;font-family:Montserrat;-inkscape-font-specification:Montserrat;text-align:center;text-anchor:middle"
         d="m 227.00951,602.36352 -0.0225,-2.385 -9.585,0 0,8.325 c 1.0575,-0.1125 3.195,-0.2025 4.14,-0.2025 2.025,0 3.2625,0.99 3.2625,2.5875 0,1.7775 -1.2375,2.835 -3.285,2.835 -1.4175,0 -2.9925,-0.6075 -4.2525,-1.665 l -1.0575,2.16 c 1.5525,1.08 3.735,1.8 5.6025,1.8 3.5325,0 5.8275,-2.0925 5.8275,-5.2875 0,-2.7675 -2.205,-4.7925 -5.625,-4.7925 l -2.16,0.0225 0,-3.3975 7.155,0 z" />
    </g>
    <g
       id="flowRoot4284"
       style="font-style:normal;font-weight:normal;font-size:40px;line-height:125%;font-family:Sans;letter-spacing:0px;word-spacing:0px;fill:#000000;fill-opacity:1;stroke:none;stroke-width:1px;stroke-linecap:butt;stroke-linejoin:miter;stroke-opacity:1"
       transform="translate(77.0289,4.64135)">
      <path
         inkscape:connector-curvature="0"
         id="path4434"
         style="font-style:normal;font-variant:normal;font-weight:normal;font-stretch:normal;font-size:22.5px;font-family:Montserrat;-inkscape-font-specification:Montserrat;text-align:center;text-anchor:middle"
         d="m 149.51898,461.73852 0.0225,-2.385 -10.575,0 0,15.75 2.655,0 0,-6.4575 7.155,0 0,-2.3625 -7.155,0 0,-4.545 7.8975,0 z" />
      <path
         inkscape:connector-curvature="0"
         id="path4436"
         style="font-style:normal;font-variant:normal;font-weight:normal;font-stretch:normal;font-size:22.5px;font-family:Montserrat;-inkscape-font-specification:Montserrat;text-align:center;text-anchor:middle"
         d="m 162.43891,461.73852 0.0225,-2.385 -10.575,0 0,15.75 2.655,0 0,-6.4575 7.155,0 0,-2.3625 -7.155,0 0,-4.545 7.8975,0 z" />
      <path
         inkscape:connector-curvature="0"
         id="path4438"
         style="font-style:normal;font-variant:normal;font-weight:normal;font-stretch:normal;font-size:22.5px;font-family:Montserrat;-inkscape-font-specification:Montserrat;text-align:center;text-anchor:middle"
         d="m 171.78133,459.28602 c -4.6575,0 -8.28,3.4425 -8.28,7.92 0,4.5225 3.5775,8.01 8.19,8.01 2.2275,0 4.5,-1.0125 6.0975,-2.5875 l -1.575,-1.755 c -1.1925,1.1475 -2.8125,1.8675 -4.3875,1.8675 -3.15,0 -5.625,-2.4525 -5.625,-5.5575 0,-3.105 2.475,-5.535 5.625,-5.535 1.5975,0 3.24,0.765 4.3875,2.0025 l 1.5525,-1.935 c -1.53,-1.5075 -3.7575,-2.43 -5.985,-2.43 z" />
      <path
         inkscape:connector-curvature="0"
         id="path4440"
         style="font-style:normal;font-variant:normal;font-weight:normal;font-stretch:normal;font-size:22.5px;font-family:Montserrat;-inkscape-font-specification:Montserrat;text-align:center;text-anchor:middle"
         d="m 190.7098,461.37852 0,-2.025 -11.4525,0 0,4.59 2.34,0 0.0225,-2.205 6.12,0 -6.12,13.365 2.8125,0 6.2775,-13.725 z" />
      <path
         inkscape:connector-curvature="0"
         id="path4442"
         style="font-style:normal;font-variant:normal;font-weight:normal;font-stretch:normal;font-size:22.5px;font-family:Montserrat;-inkscape-font-specification:Montserrat;text-align:center;text-anchor:middle"
         d="m 194.76684,468.87102 5.1075,-9.5175 -2.565,0 -5.3775,9.9 0,1.98 7.515,0 0,3.87 2.475,0 0,-3.87 2.295,0 0,-2.3625 -2.295,0 0,-3.735 -2.475,0 0,3.735 -4.68,0 z" />
      <path
         inkscape:connector-curvature="0"
         id="path4444"
         style="font-style:normal;font-variant:normal;font-weight:normal;font-stretch:normal;font-size:22.5px;font-family:Montserrat;-inkscape-font-specification:Montserrat;text-align:center;text-anchor:middle"
         d="m 218.06805,461.73852 0,-2.385 -11.25,0 0,15.75 11.52,0 0,-2.385 -8.865,0 0,-4.3425 7.695,0 0,-2.385 -7.695,0 0,-4.2525 8.595,0 z" />
      <path
         inkscape:connector-curvature="0"
         id="path4446"
         style="font-style:normal;font-variant:normal;font-weight:normal;font-stretch:normal;font-size:22.5px;font-family:Montserrat;-inkscape-font-specification:Montserrat;text-align:center;text-anchor:middle"
         d="m 127.64406,599.86602 c -2.025,0 -4.0275,0.855 -5.7375,2.25 l 1.0575,2.0475 c 1.3275,-1.215 2.925,-1.98 4.2975,-1.98 1.6425,0 2.6325,0.765 2.6325,2.025 0,0.9 -0.765,2.1825 -1.9125,3.3525 l -5.805,6.2325 0,1.935 11.205,0 0,-2.385 -7.695,0 4.095,-4.3425 c 1.665,-1.8 2.88,-3.5775 2.88,-5.175 0,-2.4075 -2.0475,-3.96 -5.0175,-3.96 z" />
      <path
         inkscape:connector-curvature="0"
         id="path4448"
         style="font-style:normal;font-variant:normal;font-weight:normal;font-stretch:normal;font-size:22.5px;font-family:Montserrat;-inkscape-font-specification:Montserrat;text-align:center;text-anchor:middle"
         d="m 145.7766,602.36352 -0.0225,-2.385 -9.585,0 0,8.325 c 1.0575,-0.1125 3.195,-0.2025 4.14,-0.2025 2.025,0 3.2625,0.99 3.2625,2.5875 0,1.7775 -1.2375,2.835 -3.285,2.835 -1.4175,0 -2.9925,-0.6075 -4.2525,-1.665 l -1.0575,2.16 c 1.5525,1.08 3.735,1.8 5.6025,1.8 3.5325,0 5.8275,-2.0925 5.8275,-5.2875 0,-2.7675 -2.205,-4.7925 -5.625,-4.7925 l -2.16,0.0225 0,-3.3975 7.155,0 z" />
      <path
         inkscape:connector-curvature="0"
         id="path4450"
         style="font-style:normal;font-variant:normal;font-weight:normal;font-stretch:normal;font-size:22.5px;font-family:Montserrat;-inkscape-font-specification:Montserrat;text-align:center;text-anchor:middle"
         d="m 158.74047,602.36352 -0.0225,-2.385 -9.585,0 0,8.325 c 1.0575,-0.1125 3.195,-0.2025 4.14,-0.2025 2.025,0 3.2625,0.99 3.2625,2.5875 0,1.7775 -1.2375,2.835 -3.285,2.835 -1.4175,0 -2.9925,-0.6075 -4.2525,-1.665 l -1.0575,2.16 c 1.5525,1.08 3.735,1.8 5.6025,1.8 3.5325,0 5.8275,-2.0925 5.8275,-5.2875 0,-2.7675 -2.205,-4.7925 -5.625,-4.7925 l -2.16,0.0225 0,-3.3975 7.155,0 z" />
      <path
         inkscape:connector-curvature="0"
         id="path4452"
         style="font-style:normal;font-variant:normal;font-weight:normal;font-stretch:normal;font-size:22.5px;font-family:Montserrat;-inkscape-font-specification:Montserrat;text-align:center;text-anchor:middle"
         d="m 172.15012,615.72852 0,-15.75 -5.7375,0 0,2.3625 3.0825,0 0,13.3875 2.655,0 z" />
      <path
         inkscape:connector-curvature="0"
         id="path4454"
         style="font-style:normal;font-variant:normal;font-weight:normal;font-stretch:normal;font-size:22.5px;font-family:Montserrat;-inkscape-font-specification:Montserrat;text-align:center;text-anchor:middle"
         d="m 180.91879,615.84102 c 4.1625,0 6.795,-3.285 6.795,-8.3025 0,-4.8375 -2.43,-7.6725 -6.4125,-7.6725 -3.3525,0 -5.535,2.025 -5.535,5.2875 0,3.06 1.9125,5.0175 5.0625,5.0175 1.98,0 3.465,-0.765 4.2975,-2.2275 0.09,3.3975 -1.3275,5.6925 -4.3875,5.6925 -1.1925,0 -2.52,-0.36 -3.4875,-0.99 l -1.035,2.0025 c 1.2825,0.72 3.15,1.1925 4.7025,1.1925 z m 0.405,-7.7625 c -1.9125,0 -3.0825,-1.1025 -3.0825,-2.9025 0,-1.9125 1.2825,-3.015 3.195,-3.015 2.2725,0 3.285,1.5525 3.2625,2.925 0.0225,1.62 -1.2375,2.9925 -3.375,2.9925 z" />
      <path
         inkscape:connector-curvature="0"
         id="path4456"
         style="font-style:normal;font-variant:normal;font-weight:normal;font-stretch:normal;font-size:22.5px;font-family:Montserrat;-inkscape-font-specification:Montserrat;text-align:center;text-anchor:middle"
         d="m 194.76156,615.84102 c 4.1625,0 6.795,-3.285 6.795,-8.3025 0,-4.8375 -2.43,-7.6725 -6.4125,-7.6725 -3.3525,0 -5.535,2.025 -5.535,5.2875 0,3.06 1.9125,5.0175 5.0625,5.0175 1.98,0 3.465,-0.765 4.2975,-2.2275 0.09,3.3975 -1.3275,5.6925 -4.3875,5.6925 -1.1925,0 -2.52,-0.36 -3.4875,-0.99 l -1.035,2.0025 c 1.2825,0.72 3.15,1.1925 4.7025,1.1925 z m 0.405,-7.7625 c -1.9125,0 -3.0825,-1.1025 -3.0825,-2.9025 0,-1.9125 1.2825,-3.015 3.195,-3.015 2.2725,0 3.285,1.5525 3.2625,2.925 0.0225,1.62 -1.2375,2.9925 -3.375,2.9925 z" />
      <path
         inkscape:connector-curvature="0"
         id="path4458"
         style="font-style:normal;font-variant:normal;font-weight:normal;font-stretch:normal;font-size:22.5px;font-family:Montserrat;-inkscape-font-specification:Montserrat;text-align:center;text-anchor:middle"
         d="m 220.59262,602.00352 0,-2.025 -11.4525,0 0,4.59 2.34,0 0.0225,-2.205 6.12,0 -6.12,13.365 2.8125,0 6.2775,-13.725 z" />
      <path
         inkscape:connector-curvature="0"
         id="path4460"
         style="font-style:normal;font-variant:normal;font-weight:normal;font-stretch:normal;font-size:22.5px;font-family:Montserrat;-inkscape-font-specification:Montserrat;text-align:center;text-anchor:middle"
         d="m 228.18215,599.86602 c -3.2175,0 -5.265,1.5075 -5.265,3.9825 0,1.53 0.9225,2.7675 2.4525,3.465 -2.0025,0.63 -3.24,2.115 -3.24,4.05 0,2.7675 2.34,4.4775 6.0525,4.4775 3.735,0 6.075,-1.71 6.075,-4.5225 0,-1.9125 -1.215,-3.375 -3.1275,-4.005 1.4625,-0.6525 2.34,-1.845 2.34,-3.375 0,-2.52 -2.0475,-4.0725 -5.2875,-4.0725 z m 0,1.9125 c 1.9125,0 3.015,0.855 3.015,2.3175 0,1.4625 -1.1025,2.295 -3.015,2.295 -1.89,0 -3.015,-0.8325 -3.015,-2.295 0,-1.4625 1.125,-2.3175 3.015,-2.3175 z m 0,6.6825 c 2.25,0 3.555,0.9675 3.555,2.61 0,1.71 -1.305,2.6775 -3.555,2.6775 -2.25,0 -3.5325,-0.9675 -3.5325,-2.6775 0,-1.6425 1.305,-2.61 3.5325,-2.61 z" />
    </g>
    <g
       id="flowRoot4312"
       style="font-style:normal;font-weight:normal;font-size:40px;line-height:125%;font-family:Sans;letter-spacing:0px;word-spacing:0px;fill:#000000;fill-opacity:1;stroke:none;stroke-width:1px;stroke-linecap:butt;stroke-linejoin:miter;stroke-opacity:1"
       transform="translate(207.0289,4.64135)">
      <path
         inkscape:connector-curvature="0"
         id="path4463"
         style="font-style:normal;font-variant:normal;font-weight:normal;font-stretch:normal;font-size:22.5px;font-family:Montserrat;-inkscape-font-specification:Montserrat;text-align:center;text-anchor:middle"
         d="m 148.54322,471.54852 1.5075,3.555 2.835,0 -6.885,-15.75 -2.7225,0 -6.9525,15.75 2.7675,0 1.5075,-3.555 7.9425,0 z m -1.0125,-2.3625 -5.94,0 2.97,-6.9975 2.97,6.9975 z" />
      <path
         inkscape:connector-curvature="0"
         id="path4465"
         style="font-style:normal;font-variant:normal;font-weight:normal;font-stretch:normal;font-size:22.5px;font-family:Montserrat;-inkscape-font-specification:Montserrat;text-align:center;text-anchor:middle"
         d="m 154.98455,459.35352 0,15.75 6.9975,0 c 3.555,0 5.7375,-1.62 5.7375,-4.32 0,-2.115 -1.26,-3.6225 -3.375,-3.9825 1.71,-0.405 2.7675,-1.7325 2.7675,-3.51 0,-2.4525 -2.025,-3.9375 -5.2875,-3.9375 l -6.84,0 z m 2.655,2.3625 4.05,0 c 1.6875,0 2.7,0.72 2.7,2.0475 0,1.3275 -1.0125,2.115 -2.7,2.115 l -4.05,0 0,-4.1625 z m 0,6.5025 4.05,0 c 2.07,0 3.3075,0.8325 3.3075,2.2275 0,1.485 -1.2375,2.295 -3.3075,2.295 l -4.05,0 0,-4.5225 z" />
      <path
         inkscape:connector-curvature="0"
         id="path4467"
         style="font-style:normal;font-variant:normal;font-weight:normal;font-stretch:normal;font-size:22.5px;font-family:Montserrat;-inkscape-font-specification:Montserrat;text-align:center;text-anchor:middle"
         d="m 177.82381,459.28602 c -4.6575,0 -8.28,3.4425 -8.28,7.92 0,4.5225 3.5775,8.01 8.19,8.01 2.2275,0 4.5,-1.0125 6.0975,-2.5875 l -1.575,-1.755 c -1.1925,1.1475 -2.8125,1.8675 -4.3875,1.8675 -3.15,0 -5.625,-2.4525 -5.625,-5.5575 0,-3.105 2.475,-5.535 5.625,-5.535 1.5975,0 3.24,0.765 4.3875,2.0025 l 1.5525,-1.935 c -1.53,-1.5075 -3.7575,-2.43 -5.985,-2.43 z" />
      <path
         inkscape:connector-curvature="0"
         id="path4469"
         style="font-style:normal;font-variant:normal;font-weight:normal;font-stretch:normal;font-size:22.5px;font-family:Montserrat;-inkscape-font-specification:Montserrat;text-align:center;text-anchor:middle"
         d="m 190.49729,475.10352 0,-15.75 -5.7375,0 0,2.3625 3.0825,0 0,13.3875 2.655,0 z" />
      <path
         inkscape:connector-curvature="0"
         id="path4471"
         style="font-style:normal;font-variant:normal;font-weight:normal;font-stretch:normal;font-size:22.5px;font-family:Montserrat;-inkscape-font-specification:Montserrat;text-align:center;text-anchor:middle"
         d="m 205.45346,461.37852 0,-2.025 -11.4525,0 0,4.59 2.34,0 0.0225,-2.205 6.12,0 -6.12,13.365 2.8125,0 6.2775,-13.725 z" />
      <path
         inkscape:connector-curvature="0"
         id="path4473"
         style="font-style:normal;font-variant:normal;font-weight:normal;font-stretch:normal;font-size:22.5px;font-family:Montserrat;-inkscape-font-specification:Montserrat;text-align:center;text-anchor:middle"
         d="m 213.04299,459.24102 c -3.2175,0 -5.265,1.5075 -5.265,3.9825 0,1.53 0.9225,2.7675 2.4525,3.465 -2.0025,0.63 -3.24,2.115 -3.24,4.05 0,2.7675 2.34,4.4775 6.0525,4.4775 3.735,0 6.075,-1.71 6.075,-4.5225 0,-1.9125 -1.215,-3.375 -3.1275,-4.005 1.4625,-0.6525 2.34,-1.845 2.34,-3.375 0,-2.52 -2.0475,-4.0725 -5.2875,-4.0725 z m 0,1.9125 c 1.9125,0 3.015,0.855 3.015,2.3175 0,1.4625 -1.1025,2.295 -3.015,2.295 -1.89,0 -3.015,-0.8325 -3.015,-2.295 0,-1.4625 1.125,-2.3175 3.015,-2.3175 z m 0,6.6825 c 2.25,0 3.555,0.9675 3.555,2.61 0,1.71 -1.305,2.6775 -3.555,2.6775 -2.25,0 -3.5325,-0.9675 -3.5325,-2.6775 0,-1.6425 1.305,-2.61 3.5325,-2.61 z" />
      <path
         inkscape:connector-curvature="0"
         id="path4475"
         style="font-style:normal;font-variant:normal;font-weight:normal;font-stretch:normal;font-size:22.5px;font-family:Montserrat;-inkscape-font-specification:Montserrat;text-align:center;text-anchor:middle"
         d="m 127.23801,615.72852 0,-15.75 -5.7375,0 0,2.3625 3.0825,0 0,13.3875 2.655,0 z" />
      <path
         inkscape:connector-curvature="0"
         id="path4477"
         style="font-style:normal;font-variant:normal;font-weight:normal;font-stretch:normal;font-size:22.5px;font-family:Montserrat;-inkscape-font-specification:Montserrat;text-align:center;text-anchor:middle"
         d="m 142.19418,602.00352 0,-2.025 -11.4525,0 0,4.59 2.34,0 0.0225,-2.205 6.12,0 -6.12,13.365 2.8125,0 6.2775,-13.725 z" />
      <path
         inkscape:connector-curvature="0"
         id="path4479"
         style="font-style:normal;font-variant:normal;font-weight:normal;font-stretch:normal;font-size:22.5px;font-family:Montserrat;-inkscape-font-specification:Montserrat;text-align:center;text-anchor:middle"
         d="m 148.77121,615.72852 0,-15.75 -5.7375,0 0,2.3625 3.0825,0 0,13.3875 2.655,0 z" />
      <path
         inkscape:connector-curvature="0"
         id="path4481"
         style="font-style:normal;font-variant:normal;font-weight:normal;font-stretch:normal;font-size:22.5px;font-family:Montserrat;-inkscape-font-specification:Montserrat;text-align:center;text-anchor:middle"
         d="m 163.27316,615.72852 0,-15.75 -5.7375,0 0,2.3625 3.0825,0 0,13.3875 2.655,0 z" />
      <path
         inkscape:connector-curvature="0"
         id="path4483"
         style="font-style:normal;font-variant:normal;font-weight:normal;font-stretch:normal;font-size:22.5px;font-family:Montserrat;-inkscape-font-specification:Montserrat;text-align:center;text-anchor:middle"
         d="m 172.04184,615.84102 c 4.1625,0 6.795,-3.285 6.795,-8.3025 0,-4.8375 -2.43,-7.6725 -6.4125,-7.6725 -3.3525,0 -5.535,2.025 -5.535,5.2875 0,3.06 1.9125,5.0175 5.0625,5.0175 1.98,0 3.465,-0.765 4.2975,-2.2275 0.09,3.3975 -1.3275,5.6925 -4.3875,5.6925 -1.1925,0 -2.52,-0.36 -3.4875,-0.99 l -1.035,2.0025 c 1.2825,0.72 3.15,1.1925 4.7025,1.1925 z m 0.405,-7.7625 c -1.9125,0 -3.0825,-1.1025 -3.0825,-2.9025 0,-1.9125 1.2825,-3.015 3.195,-3.015 2.2725,0 3.285,1.5525 3.2625,2.925 0.0225,1.62 -1.2375,2.9925 -3.375,2.9925 z" />
      <path
         inkscape:connector-curvature="0"
         id="path4485"
         style="font-style:normal;font-variant:normal;font-weight:normal;font-stretch:normal;font-size:22.5px;font-family:Montserrat;-inkscape-font-specification:Montserrat;text-align:center;text-anchor:middle"
         d="m 185.68211,606.52602 4.5,-4.86 0,-1.665 -9.585,0 0,2.3625 6.3,0 -4.095,4.41 0,1.5525 2.1825,0 c 2.0925,0 3.33,0.8775 3.33,2.5875 0,1.62 -1.215,2.7 -3.3075,2.7 -1.44,0 -2.9025,-0.585 -4.0275,-1.6425 l -1.1025,2.16 c 1.35,1.035 3.375,1.71 5.31,1.71 3.51,0 5.7375,-2.0475 5.7375,-4.995 0,-2.475 -1.8,-4.005 -4.4325,-4.23 l -0.81,-0.09 z" />
      <path
         inkscape:connector-curvature="0"
         id="path4487"
         style="font-style:normal;font-variant:normal;font-weight:normal;font-stretch:normal;font-size:22.5px;font-family:Montserrat;-inkscape-font-specification:Montserrat;text-align:center;text-anchor:middle"
         d="m 203.7468,615.72852 0,-15.75 -5.7375,0 0,2.3625 3.0825,0 0,13.3875 2.655,0 z" />
      <path
         inkscape:connector-curvature="0"
         id="path4489"
         style="font-style:normal;font-variant:normal;font-weight:normal;font-stretch:normal;font-size:22.5px;font-family:Montserrat;-inkscape-font-specification:Montserrat;text-align:center;text-anchor:middle"
         d="m 212.89797,599.86602 c -2.025,0 -4.0275,0.855 -5.7375,2.25 l 1.0575,2.0475 c 1.3275,-1.215 2.925,-1.98 4.2975,-1.98 1.6425,0 2.6325,0.765 2.6325,2.025 0,0.9 -0.765,2.1825 -1.9125,3.3525 l -5.805,6.2325 0,1.935 11.205,0 0,-2.385 -7.695,0 4.095,-4.3425 c 1.665,-1.8 2.88,-3.5775 2.88,-5.175 0,-2.4075 -2.0475,-3.96 -5.0175,-3.96 z" />
      <path
         inkscape:connector-curvature="0"
         id="path4491"
         style="font-style:normal;font-variant:normal;font-weight:normal;font-stretch:normal;font-size:22.5px;font-family:Montserrat;-inkscape-font-specification:Montserrat;text-align:center;text-anchor:middle"
         d="m 227.43051,599.91102 c -4.32,0 -6.705,2.835 -6.705,7.9425 0,5.1075 2.385,7.9425 6.705,7.9425 4.2975,0 6.6825,-2.835 6.6825,-7.9425 0,-5.1075 -2.385,-7.9425 -6.6825,-7.9425 z m 0,2.0925 c 2.6325,0 3.96,1.845 3.96,5.85 0,3.9825 -1.3275,5.85 -3.96,5.85 -2.655,0 -3.9825,-1.8675 -3.9825,-5.85 0,-4.005 1.3275,-5.85 3.9825,-5.85 z" />
    </g>
    <g
       id="flowRoot4332"
       style="font-style:normal;font-weight:normal;font-size:40px;line-height:125%;font-family:Sans;letter-spacing:0px;word-spacing:0px;fill:#000000;fill-opacity:1;stroke:none;stroke-width:1px;stroke-linecap:butt;stroke-linejoin:miter;stroke-opacity:1"
       transform="translate(341.0289,4.64135)">
      <path
         inkscape:connector-curvature="0"
         id="path4494"
         style="font-style:normal;font-variant:normal;font-weight:normal;font-stretch:normal;font-size:22.5px;font-family:Montserrat;-inkscape-font-specification:Montserrat;text-align:center;text-anchor:middle"
         d="m 140.55062,459.28602 c -4.32,0 -6.705,2.835 -6.705,7.9425 0,5.1075 2.385,7.9425 6.705,7.9425 4.2975,0 6.6825,-2.835 6.6825,-7.9425 0,-5.1075 -2.385,-7.9425 -6.6825,-7.9425 z m 0,2.0925 c 2.6325,0 3.96,1.845 3.96,5.85 0,3.9825 -1.3275,5.85 -3.96,5.85 -2.655,0 -3.9825,-1.8675 -3.9825,-5.85 0,-4.005 1.3275,-5.85 3.9825,-5.85 z" />
      <path
         inkscape:connector-curvature="0"
         id="path4496"
         style="font-style:normal;font-variant:normal;font-weight:normal;font-stretch:normal;font-size:22.5px;font-family:Montserrat;-inkscape-font-specification:Montserrat;text-align:center;text-anchor:middle"
         d="m 156.10727,459.28602 c -4.32,0 -6.705,2.835 -6.705,7.9425 0,5.1075 2.385,7.9425 6.705,7.9425 4.2975,0 6.6825,-2.835 6.6825,-7.9425 0,-5.1075 -2.385,-7.9425 -6.6825,-7.9425 z m 0,2.0925 c 2.6325,0 3.96,1.845 3.96,5.85 0,3.9825 -1.3275,5.85 -3.96,5.85 -2.655,0 -3.9825,-1.8675 -3.9825,-5.85 0,-4.005 1.3275,-5.85 3.9825,-5.85 z" />
      <path
         inkscape:connector-curvature="0"
         id="path4498"
         style="font-style:normal;font-variant:normal;font-weight:normal;font-stretch:normal;font-size:22.5px;font-family:Montserrat;-inkscape-font-specification:Montserrat;text-align:center;text-anchor:middle"
         d="m 165.94891,459.35352 0,15.75 6.9975,0 c 3.555,0 5.7375,-1.62 5.7375,-4.32 0,-2.115 -1.26,-3.6225 -3.375,-3.9825 1.71,-0.405 2.7675,-1.7325 2.7675,-3.51 0,-2.4525 -2.025,-3.9375 -5.2875,-3.9375 l -6.84,0 z m 2.655,2.3625 4.05,0 c 1.6875,0 2.7,0.72 2.7,2.0475 0,1.3275 -1.0125,2.115 -2.7,2.115 l -4.05,0 0,-4.1625 z m 0,6.5025 4.05,0 c 2.07,0 3.3075,0.8325 3.3075,2.2275 0,1.485 -1.2375,2.295 -3.3075,2.295 l -4.05,0 0,-4.5225 z" />
      <path
         inkscape:connector-curvature="0"
         id="path4500"
         style="font-style:normal;font-variant:normal;font-weight:normal;font-stretch:normal;font-size:22.5px;font-family:Montserrat;-inkscape-font-specification:Montserrat;text-align:center;text-anchor:middle"
         d="m 186.22316,459.24102 c -2.025,0 -4.0275,0.855 -5.7375,2.25 l 1.0575,2.0475 c 1.3275,-1.215 2.925,-1.98 4.2975,-1.98 1.6425,0 2.6325,0.765 2.6325,2.025 0,0.9 -0.765,2.1825 -1.9125,3.3525 l -5.805,6.2325 0,1.935 11.205,0 0,-2.385 -7.695,0 4.095,-4.3425 c 1.665,-1.8 2.88,-3.5775 2.88,-5.175 0,-2.4075 -2.0475,-3.96 -5.0175,-3.96 z" />
      <path
         inkscape:connector-curvature="0"
         id="path4502"
         style="font-style:normal;font-variant:normal;font-weight:normal;font-stretch:normal;font-size:22.5px;font-family:Montserrat;-inkscape-font-specification:Montserrat;text-align:center;text-anchor:middle"
         d="m 195.0407,459.35352 0,15.75 6.39,0 c 4.77,0 8.2125,-3.33 8.2125,-7.875 0,-4.5675 -3.42,-7.875 -8.145,-7.875 l -6.4575,0 z m 2.655,2.385 3.7575,0 c 3.105,0 5.5125,2.295 5.5125,5.5125 0,3.195 -2.34,5.4675 -5.4,5.4675 l -3.87,0 0,-10.98 z" />
      <path
         inkscape:connector-curvature="0"
         id="path4504"
         style="font-style:normal;font-variant:normal;font-weight:normal;font-stretch:normal;font-size:22.5px;font-family:Montserrat;-inkscape-font-specification:Montserrat;text-align:center;text-anchor:middle"
         d="m 216.89699,459.24102 c -2.025,0 -4.0275,0.855 -5.7375,2.25 l 1.0575,2.0475 c 1.3275,-1.215 2.925,-1.98 4.2975,-1.98 1.6425,0 2.6325,0.765 2.6325,2.025 0,0.9 -0.765,2.1825 -1.9125,3.3525 l -5.805,6.2325 0,1.935 11.205,0 0,-2.385 -7.695,0 4.095,-4.3425 c 1.665,-1.8 2.88,-3.5775 2.88,-5.175 0,-2.4075 -2.0475,-3.96 -5.0175,-3.96 z" />
      <path
         inkscape:connector-curvature="0"
         id="path4506"
         style="font-style:normal;font-variant:normal;font-weight:normal;font-stretch:normal;font-size:22.5px;font-family:Montserrat;-inkscape-font-specification:Montserrat;text-align:center;text-anchor:middle"
         d="m 135.84848,599.91102 c -4.32,0 -6.705,2.835 -6.705,7.9425 0,5.1075 2.385,7.9425 6.705,7.9425 4.2975,0 6.6825,-2.835 6.6825,-7.9425 0,-5.1075 -2.385,-7.9425 -6.6825,-7.9425 z m 0,2.0925 c 2.6325,0 3.96,1.845 3.96,5.85 0,3.9825 -1.3275,5.85 -3.96,5.85 -2.655,0 -3.9825,-1.8675 -3.9825,-5.85 0,-4.005 1.3275,-5.85 3.9825,-5.85 z" />
      <path
         inkscape:connector-curvature="0"
         id="path4508"
         style="font-style:normal;font-variant:normal;font-weight:normal;font-stretch:normal;font-size:22.5px;font-family:Montserrat;-inkscape-font-specification:Montserrat;text-align:center;text-anchor:middle"
         d="m 155.4509,615.72852 0,-15.75 -5.7375,0 0,2.3625 3.0825,0 0,13.3875 2.655,0 z" />
      <path
         inkscape:connector-curvature="0"
         id="path4510"
         style="font-style:normal;font-variant:normal;font-weight:normal;font-stretch:normal;font-size:22.5px;font-family:Montserrat;-inkscape-font-specification:Montserrat;text-align:center;text-anchor:middle"
         d="m 170.40707,602.00352 0,-2.025 -11.4525,0 0,4.59 2.34,0 0.0225,-2.205 6.12,0 -6.12,13.365 2.8125,0 6.2775,-13.725 z" />
      <path
         inkscape:connector-curvature="0"
         id="path4512"
         style="font-style:normal;font-variant:normal;font-weight:normal;font-stretch:normal;font-size:22.5px;font-family:Montserrat;-inkscape-font-specification:Montserrat;text-align:center;text-anchor:middle"
         d="m 177.9966,599.86602 c -3.2175,0 -5.265,1.5075 -5.265,3.9825 0,1.53 0.9225,2.7675 2.4525,3.465 -2.0025,0.63 -3.24,2.115 -3.24,4.05 0,2.7675 2.34,4.4775 6.0525,4.4775 3.735,0 6.075,-1.71 6.075,-4.5225 0,-1.9125 -1.215,-3.375 -3.1275,-4.005 1.4625,-0.6525 2.34,-1.845 2.34,-3.375 0,-2.52 -2.0475,-4.0725 -5.2875,-4.0725 z m 0,1.9125 c 1.9125,0 3.015,0.855 3.015,2.3175 0,1.4625 -1.1025,2.295 -3.015,2.295 -1.89,0 -3.015,-0.8325 -3.015,-2.295 0,-1.4625 1.125,-2.3175 3.015,-2.3175 z m 0,6.6825 c 2.25,0 3.555,0.9675 3.555,2.61 0,1.71 -1.305,2.6775 -3.555,2.6775 -2.25,0 -3.5325,-0.9675 -3.5325,-2.6775 0,-1.6425 1.305,-2.61 3.5325,-2.61 z" />
      <path
         inkscape:connector-curvature="0"
         id="path4514"
         style="font-style:normal;font-variant:normal;font-weight:normal;font-stretch:normal;font-size:22.5px;font-family:Montserrat;-inkscape-font-specification:Montserrat;text-align:center;text-anchor:middle"
         d="m 197.34133,599.86602 c -2.025,0 -4.0275,0.855 -5.7375,2.25 l 1.0575,2.0475 c 1.3275,-1.215 2.925,-1.98 4.2975,-1.98 1.6425,0 2.6325,0.765 2.6325,2.025 0,0.9 -0.765,2.1825 -1.9125,3.3525 l -5.805,6.2325 0,1.935 11.205,0 0,-2.385 -7.695,0 4.095,-4.3425 c 1.665,-1.8 2.88,-3.5775 2.88,-5.175 0,-2.4075 -2.0475,-3.96 -5.0175,-3.96 z" />
      <path
         inkscape:connector-curvature="0"
         id="path4516"
         style="font-style:normal;font-variant:normal;font-weight:normal;font-stretch:normal;font-size:22.5px;font-family:Montserrat;-inkscape-font-specification:Montserrat;text-align:center;text-anchor:middle"
         d="m 210.11887,615.72852 0,-15.75 -5.7375,0 0,2.3625 3.0825,0 0,13.3875 2.655,0 z" />
      <path
         inkscape:connector-curvature="0"
         id="path4518"
         style="font-style:normal;font-variant:normal;font-weight:normal;font-stretch:normal;font-size:22.5px;font-family:Montserrat;-inkscape-font-specification:Montserrat;text-align:center;text-anchor:middle"
         d="m 220.57504,599.91102 c -4.32,0 -6.705,2.835 -6.705,7.9425 0,5.1075 2.385,7.9425 6.705,7.9425 4.2975,0 6.6825,-2.835 6.6825,-7.9425 0,-5.1075 -2.385,-7.9425 -6.6825,-7.9425 z m 0,2.0925 c 2.6325,0 3.96,1.845 3.96,5.85 0,3.9825 -1.3275,5.85 -3.96,5.85 -2.655,0 -3.9825,-1.8675 -3.9825,-5.85 0,-4.005 1.3275,-5.85 3.9825,-5.85 z" />
    </g>
    <path
       inkscape:connector-curvature="0"
       id="path4252"
       style="font-style:normal;font-variant:normal;font-weight:normal;font-stretch:normal;font-size:31.25px;line-height:125%;font-family:Raleway;-inkscape-font-specification:Raleway;letter-spacing:0px;word-spacing:0px;fill:#000000;fill-opacity:1;stroke:none;stroke-width:1px;stroke-linecap:butt;stroke-linejoin:miter;stroke-opacity:1"
       d="m 75.45864,128.49297 c 0,10.44425 7.949239,21.23665 19.26385,21.23665 6.32458,0 13.63556,-3.42339 16.30464,-9.5739 l -3.36537,-1.74071 c -2.61106,5.33817 -8.065284,7.65912 -12.707175,7.65912 -8.761571,0 -15.43429,-8.23936 -15.43429,-17.34907 0,-8.29738 5.396199,-17.11697 15.260219,-17.11697 4.46782,0 9.573896,1.85675 12.184966,7.31098 l 3.24932,-1.97281 c -2.55304,-5.28015 -7.89121,-8.99366 -15.202192,-8.99366 -12.41706,0 -19.553968,10.61832 -19.553968,20.54037 z" />
    <path
       inkscape:connector-curvature="0"
       id="path4254"
       style="font-style:normal;font-variant:normal;font-weight:normal;font-stretch:normal;font-size:31.25px;line-height:125%;font-family:Raleway;-inkscape-font-specification:Raleway;letter-spacing:0px;word-spacing:0px;fill:#000000;fill-opacity:1;stroke:none;stroke-width:1px;stroke-linecap:butt;stroke-linejoin:miter;stroke-opacity:1"
       d="m 134.38982,149.6716 c 11.02449,0 19.32187,-9.86402 19.32187,-20.83049 0,-10.32821 -7.77517,-20.94654 -19.26385,-20.94654 -11.0245,0 -19.3799,9.92205 -19.3799,20.88851 0,10.56031 7.83319,20.88852 19.32188,20.88852 z m -15.26023,-20.88852 c 0,-8.52947 5.91841,-17.17499 15.26023,-17.17499 8.93564,0 15.26021,8.23935 15.26021,17.17499 0,8.47146 -5.91841,17.23303 -15.26021,17.23303 -9.0517,0 -15.26023,-8.29738 -15.26023,-17.23303 z" />
    <path
       inkscape:connector-curvature="0"
       id="path4256"
       style="font-style:normal;font-variant:normal;font-weight:normal;font-stretch:normal;font-size:31.25px;line-height:125%;font-family:Raleway;-inkscape-font-specification:Raleway;letter-spacing:0px;word-spacing:0px;fill:#000000;fill-opacity:1;stroke:none;stroke-width:1px;stroke-linecap:butt;stroke-linejoin:miter;stroke-opacity:1"
       d="m 189.38806,149.38148 0,-3.59747 -23.84772,0 0,-37.59932 -4.00363,0 0,41.19679 27.85135,0 z" />
    <path
       inkscape:connector-curvature="0"
       id="path4258"
       style="font-style:normal;font-variant:normal;font-weight:normal;font-stretch:normal;font-size:31.25px;line-height:125%;font-family:Raleway;-inkscape-font-specification:Raleway;letter-spacing:0px;word-spacing:0px;fill:#000000;fill-opacity:1;stroke:none;stroke-width:1px;stroke-linecap:butt;stroke-linejoin:miter;stroke-opacity:1"
       d="m 209.86588,149.6716 c 11.02449,0 19.32187,-9.86402 19.32187,-20.83049 0,-10.32821 -7.77517,-20.94654 -19.26385,-20.94654 -11.02449,0 -19.3799,9.92205 -19.3799,20.88851 0,10.56031 7.8332,20.88852 19.32188,20.88852 z m -15.26022,-20.88852 c 0,-8.52947 5.91841,-17.17499 15.26022,-17.17499 8.93564,0 15.26022,8.23935 15.26022,17.17499 0,8.47146 -5.91842,17.23303 -15.26022,17.23303 -9.05169,0 -15.26022,-8.29738 -15.26022,-17.23303 z" />
    <path
       inkscape:connector-curvature="0"
       id="path4260"
       style="font-style:normal;font-variant:normal;font-weight:normal;font-stretch:normal;font-size:31.25px;line-height:125%;font-family:Raleway;-inkscape-font-specification:Raleway;letter-spacing:0px;word-spacing:0px;fill:#000000;fill-opacity:1;stroke:none;stroke-width:1px;stroke-linecap:butt;stroke-linejoin:miter;stroke-opacity:1"
       d="m 253.66558,146.01611 c -10.21216,0 -13.28742,-8.41343 -13.28742,-17.05895 l 0,-20.77247 -4.00363,0 0,20.77247 c 0,10.50228 4.23573,20.71444 17.34907,20.71444 12.64915,0 17.34907,-9.63193 17.34907,-20.71444 l 0,-20.77247 -4.06166,0 0,20.77247 c 0,8.41342 -2.90118,17.05895 -13.34543,17.05895 z" />
    <path
       inkscape:connector-curvature="0"
       id="path4262"
       style="font-style:normal;font-variant:normal;font-weight:normal;font-stretch:normal;font-size:31.25px;line-height:125%;font-family:Raleway;-inkscape-font-specification:Raleway;letter-spacing:0px;word-spacing:0px;fill:#000000;fill-opacity:1;stroke:none;stroke-width:1px;stroke-linecap:butt;stroke-linejoin:miter;stroke-opacity:1"
       d="m 284.87413,149.38148 0,-15.2022 12.18496,0 9.74797,15.2022 4.58387,0 -10.15414,-15.89848 c 5.51225,-1.10245 9.22576,-6.3826 9.22576,-12.35904 0,-6.3826 -5.10608,-12.93927 -12.24298,-12.93927 l -17.34907,0 0,41.19679 4.00363,0 z m 0,-37.59932 13.17136,0 c 4.52585,0 8.35541,4.35177 8.35541,9.3418 0,4.87399 -3.13328,9.45786 -8.00726,9.45786 l -13.51951,0 0,-18.79966 z" />
    <path
       inkscape:connector-curvature="0"
       id="path4264"
       style="font-style:normal;font-variant:normal;font-weight:normal;font-stretch:normal;font-size:31.25px;line-height:125%;font-family:Raleway;-inkscape-font-specification:Raleway;letter-spacing:0px;word-spacing:0px;fill:#000000;fill-opacity:1;stroke:none;stroke-width:1px;stroke-linecap:butt;stroke-linejoin:miter;stroke-opacity:1"
       d="m 360.1317,112.65251 c -3.42339,-3.01723 -7.71714,-4.75794 -13.11334,-4.75794 -8.64552,0 -14.67998,4.17771 -14.67998,11.83683 0,6.67272 4.52584,8.76157 13.11334,10.73437 8.23936,1.85676 12.47508,3.48142 12.47508,8.52948 0,4.75793 -3.9456,7.1369 -10.50227,7.1369 -6.26656,0 -11.60473,-2.55304 -14.62196,-5.68631 l -1.97281,3.30734 c 4.52585,3.94561 10.09612,5.97644 16.53674,5.97644 8.5875,0 14.79603,-3.53944 14.79603,-11.14054 0,-7.369 -5.45422,-9.68995 -14.21579,-11.5467 -7.94924,-1.74071 -11.48868,-3.01723 -11.48868,-7.89122 0,-4.69992 3.1913,-7.65912 10.50228,-7.65912 4.87398,0 8.93564,1.79873 11.25658,4.4098 l 1.91478,-3.24933 z" />
    <path
       inkscape:connector-curvature="0"
       id="path4266"
       style="font-style:normal;font-variant:normal;font-weight:normal;font-stretch:normal;font-size:31.25px;line-height:125%;font-family:Raleway;-inkscape-font-specification:Raleway;letter-spacing:0px;word-spacing:0px;fill:#000000;fill-opacity:1;stroke:none;stroke-width:1px;stroke-linecap:butt;stroke-linejoin:miter;stroke-opacity:1"
       d="m 366.82345,128.49297 c 0,10.44425 7.94924,21.23665 19.26385,21.23665 6.32458,0 13.63556,-3.42339 16.30465,-9.5739 l -3.36537,-1.74071 c -2.61107,5.33817 -8.06529,7.65912 -12.70718,7.65912 -8.76157,0 -15.43429,-8.23936 -15.43429,-17.34907 0,-8.29738 5.3962,-17.11697 15.26022,-17.11697 4.46782,0 9.5739,1.85675 12.18496,7.31098 l 3.24933,-1.97281 c -2.55304,-5.28015 -7.89122,-8.99366 -15.2022,-8.99366 -12.41706,0 -19.55397,10.61832 -19.55397,20.54037 z" />
    <path
       inkscape:connector-curvature="0"
       id="path4268"
       style="font-style:normal;font-variant:normal;font-weight:normal;font-stretch:normal;font-size:31.25px;line-height:125%;font-family:Raleway;-inkscape-font-specification:Raleway;letter-spacing:0px;word-spacing:0px;fill:#000000;fill-opacity:1;stroke:none;stroke-width:1px;stroke-linecap:butt;stroke-linejoin:miter;stroke-opacity:1"
       d="m 437.92871,108.18469 0,18.33547 -24.42795,0 0,-18.33547 -4.00364,0 0,41.19679 4.00364,0 0,-19.26385 24.42795,0 0,19.26385 4.06165,0 0,-41.19679 -4.06165,0 z" />
    <path
       inkscape:connector-curvature="0"
       id="path4270"
       style="font-style:normal;font-variant:normal;font-weight:normal;font-stretch:normal;font-size:31.25px;line-height:125%;font-family:Raleway;-inkscape-font-specification:Raleway;letter-spacing:0px;word-spacing:0px;fill:#000000;fill-opacity:1;stroke:none;stroke-width:1px;stroke-linecap:butt;stroke-linejoin:miter;stroke-opacity:1"
       d="m 456.33853,145.78401 0,-15.72441 20.19222,0 0,-3.42339 -20.19222,0 0,-14.85405 23.15143,0 0,-3.59747 -27.15507,0 0,41.19679 27.67728,0 0,-3.59747 -23.67364,0 z" />
    <path
       inkscape:connector-curvature="0"
       id="path4272"
       style="font-style:normal;font-variant:normal;font-weight:normal;font-stretch:normal;font-size:31.25px;line-height:125%;font-family:Raleway;-inkscape-font-specification:Raleway;letter-spacing:0px;word-spacing:0px;fill:#000000;fill-opacity:1;stroke:none;stroke-width:1px;stroke-linecap:butt;stroke-linejoin:miter;stroke-opacity:1"
       d="m 528.42021,149.38148 0,-41.19679 -4.11968,0 -16.13057,28.19949 -16.13057,-28.19949 -4.11968,0 0,41.19679 4.00363,0 0,-33.82779 15.08615,26.16867 2.37897,0 15.02812,-26.16867 0,33.82779 4.00363,0 z" />
    <path
       inkscape:connector-curvature="0"
       id="path4274"
       style="font-style:normal;font-variant:normal;font-weight:normal;font-stretch:normal;font-size:31.25px;line-height:125%;font-family:Raleway;-inkscape-font-specification:Raleway;letter-spacing:0px;word-spacing:0px;fill:#000000;fill-opacity:1;stroke:none;stroke-width:1px;stroke-linecap:butt;stroke-linejoin:miter;stroke-opacity:1"
       d="m 542.92068,145.78401 0,-15.72441 20.19223,0 0,-3.42339 -20.19223,0 0,-14.85405 23.15144,0 0,-3.59747 -27.15507,0 0,41.19679 27.67728,0 0,-3.59747 -23.67365,0 z" />
    <path
       inkscape:connector-curvature="0"
       id="path4289"
       style="font-style:normal;font-variant:normal;font-weight:normal;font-stretch:normal;font-size:50px;line-height:125%;font-family:Montserrat;-inkscape-font-specification:Montserrat;letter-spacing:0px;word-spacing:0px;fill:#000000;fill-opacity:1;stroke:none;stroke-width:1px;stroke-linecap:butt;stroke-linejoin:miter;stroke-opacity:1"
       d="m 110.80487,13.29091 c -20.795794,0 -36.915021,15.124215 -36.915021,35.123999 0,19.900287 16.119227,35.323007 36.915021,35.323007 20.7958,0 36.91503,-15.42272 36.91503,-35.323007 0,-19.900283 -16.11923,-35.123999 -36.91503,-35.123999 z m 0.0995,10.54715 c 13.6317,0 24.77586,10.746153 24.77586,24.576849 0,13.830697 -11.14416,24.775857 -24.77586,24.775857 -13.631689,0 -25.074351,-10.94516 -25.074351,-24.775857 0,-13.830696 11.343161,-24.576849 25.074351,-24.576849 z" />
    <path
       inkscape:connector-curvature="0"
       id="path4291"
       style="font-style:normal;font-variant:normal;font-weight:normal;font-stretch:normal;font-size:50px;line-height:125%;font-family:Montserrat;-inkscape-font-specification:Montserrat;letter-spacing:0px;word-spacing:0px;fill:#000000;fill-opacity:1;stroke:none;stroke-width:1px;stroke-linecap:butt;stroke-linejoin:miter;stroke-opacity:1"
       d="m 183.19681,13.091907 c -15.12421,0 -25.37286,7.462606 -25.37286,19.402776 0,24.775852 37.61154,16.119229 37.61154,31.64145 0,5.37308 -4.87557,8.457624 -13.03469,8.457624 -7.4626,0 -16.41773,-3.582051 -23.58183,-10.149148 l -5.07457,10.149148 c 7.1641,6.567094 17.51224,11.044657 28.4574,11.044657 15.32322,0 26.26837,-7.661609 26.26837,-20.09929 0.0995,-25.074356 -37.51203,-16.91524 -37.51203,-32.138957 0,-4.676566 4.47756,-7.263603 11.34316,-7.263603 5.27358,0 12.83568,1.890527 20.39779,6.467592 l 4.87557,-10.348147 c -6.46759,-4.278561 -15.32322,-7.164102 -24.37785,-7.164102 z" />
    <path
       inkscape:connector-curvature="0"
       id="path4293"
       style="font-style:normal;font-variant:normal;font-weight:normal;font-stretch:normal;font-size:50px;line-height:125%;font-family:Montserrat;-inkscape-font-specification:Montserrat;letter-spacing:0px;word-spacing:0px;fill:#000000;fill-opacity:1;stroke:none;stroke-width:1px;stroke-linecap:butt;stroke-linejoin:miter;stroke-opacity:1"
       d="m 252.95664,13.29091 c -20.59679,0 -36.61652,15.223716 -36.61652,35.024498 0,19.999788 15.82072,35.422508 36.21851,35.422508 9.85064,0 19.90029,-4.477564 26.96489,-11.442663 l -6.9651,-7.761114 c -5.27358,5.074576 -12.43768,8.258621 -19.40278,8.258621 -13.9302,0 -24.87535,-10.845658 -24.87535,-24.576853 0,-13.731196 10.94515,-24.477349 24.87535,-24.477349 7.0646,0 14.32821,3.383049 19.40278,8.855626 l 6.8656,-8.557121 C 272.65792,17.370468 262.80728,13.29091 252.95664,13.29091 Z" />
    <path
       inkscape:connector-curvature="0"
       id="path4295"
       style="font-style:normal;font-variant:normal;font-weight:normal;font-stretch:normal;font-size:50px;line-height:125%;font-family:Montserrat;-inkscape-font-specification:Montserrat;letter-spacing:0px;word-spacing:0px;fill:#000000;fill-opacity:1;stroke:none;stroke-width:1px;stroke-linecap:butt;stroke-linejoin:miter;stroke-opacity:1"
       d="m 341.24082,24.136564 0,-10.54715 -49.75071,0 0,69.650995 50.94473,0 0,-10.54715 -39.20356,0 0,-19.203777 34.02949,0 0,-10.54715 -34.02949,0 0,-18.805768 38.00954,0 z" />
    <path
       inkscape:connector-curvature="0"
       id="path4297"
       style="font-style:normal;font-variant:normal;font-weight:normal;font-stretch:normal;font-size:50px;line-height:125%;font-family:Montserrat;-inkscape-font-specification:Montserrat;letter-spacing:0px;word-spacing:0px;fill:#000000;fill-opacity:1;stroke:none;stroke-width:1px;stroke-linecap:butt;stroke-linejoin:miter;stroke-opacity:1"
       d="m 406.53863,9.4103547 -11.44267,0 0,30.0494273 c -3.88055,-6.169088 -10.24864,-9.651637 -18.80576,-9.651637 -14.92522,0 -25.17386,10.845654 -25.17386,26.76588 0,16.119234 10.14914,27.163891 25.37286,27.163891 8.45762,0 14.82571,-3.383048 18.60676,-9.552136 l 0,9.054629 11.44267,0 0,-73.8300543 z M 378.87723,74.18578 c -9.65164,0 -16.21873,-7.164102 -16.31823,-17.213749 0.0995,-10.149144 6.7661,-17.412748 16.31823,-17.412748 9.55214,0 16.21873,7.164102 16.21873,17.412748 0,10.049647 -6.66659,17.213749 -16.21873,17.213749 z" />
    <path
       inkscape:connector-curvature="0"
       id="path4299"
       style="font-style:normal;font-variant:normal;font-weight:normal;font-stretch:normal;font-size:50px;line-height:125%;font-family:Montserrat;-inkscape-font-specification:Montserrat;letter-spacing:0px;word-spacing:0px;fill:#000000;fill-opacity:1;stroke:none;stroke-width:1px;stroke-linecap:butt;stroke-linejoin:miter;stroke-opacity:1"
       d="m 455.65656,83.240409 11.24366,0 -0.0995,-34.725998 c -0.0995,-11.641666 -7.76111,-18.606765 -21.3928,-18.606765 -10.04965,0 -15.42272,2.288533 -22.78583,6.666595 l 4.67657,7.960113 c 5.27358,-3.582051 10.54715,-5.373076 15.62172,-5.373076 8.35812,0 12.63668,3.980056 12.63668,10.646651 l 0,1.592023 -16.01973,0 c -12.73618,0.0995 -19.99978,6.268589 -19.99978,15.92023 0,9.353133 7.1641,16.417734 18.60676,16.417734 7.66161,0 13.7312,-2.288533 17.51225,-6.965099 l 0,6.467592 z m -15.12421,-8.557122 c -6.36809,0 -10.24865,-3.084544 -10.24865,-7.860612 0,-5.074576 3.48255,-7.064604 10.94516,-7.064604 l 14.3282,0 0,4.875569 c -0.59701,5.771086 -6.8656,10.049647 -15.02471,10.049647 z" />
    <path
       inkscape:connector-curvature="0"
       id="path4301"
       style="font-style:normal;font-variant:normal;font-weight:normal;font-stretch:normal;font-size:50px;line-height:125%;font-family:Montserrat;-inkscape-font-specification:Montserrat;letter-spacing:0px;word-spacing:0px;fill:#000000;fill-opacity:1;stroke:none;stroke-width:1px;stroke-linecap:butt;stroke-linejoin:miter;stroke-opacity:1"
       d="m 525.53766,30.305652 -11.44266,0 -14.72621,40.099074 -15.82073,-40.099074 -11.84066,0 21.89031,52.138745 -1.79103,3.980057 c -1.79102,3.980056 -4.57706,5.870583 -8.05961,5.870583 -2.38804,0 -4.37807,-0.796011 -6.8656,-2.587036 l -4.87557,8.855626 c 3.68155,3.084543 7.46261,4.477563 12.23867,4.477563 7.96012,0 13.9302,-4.179059 17.21375,-12.537178 l 24.07934,-60.19836 z" />
    <path
       inkscape:connector-curvature="0"
       id="path4303"
       style="font-style:normal;font-variant:normal;font-weight:normal;font-stretch:normal;font-size:50px;line-height:125%;font-family:Montserrat;-inkscape-font-specification:Montserrat;letter-spacing:0px;word-spacing:0px;fill:#000000;fill-opacity:1;stroke:none;stroke-width:1px;stroke-linecap:butt;stroke-linejoin:miter;stroke-opacity:1"
       d="m 548.76036,29.808145 c -10.14915,0 -19.50228,4.577065 -19.50228,15.323218 -0.0995,19.104271 27.76089,13.034685 27.76089,23.880343 0,3.980057 -3.78105,5.671581 -8.65662,5.671581 -5.77108,0 -13.13419,-2.487535 -17.71125,-6.567093 l -4.07956,8.159116 c 5.27358,4.776067 13.53219,7.363104 21.2933,7.363104 10.64665,0 20.29829,-4.875569 20.29829,-15.721223 0.0995,-19.203777 -28.0594,-13.930202 -28.0594,-23.681341 0,-3.781054 3.28355,-5.273575 7.76111,-5.273575 4.67657,0 10.54715,1.791025 15.22372,4.676566 l 4.17906,-8.45762 c -4.77607,-3.383048 -11.84067,-5.373076 -18.50726,-5.373076 z" />
  </g>
</svg>
