<?xml version="1.0" encoding="UTF-8" standalone="no"?>
<svg
   xmlns:dc="http://purl.org/dc/elements/1.1/"
   xmlns:cc="http://creativecommons.org/ns#"
   xmlns:rdf="http://www.w3.org/1999/02/22-rdf-syntax-ns#"
   xmlns:svg="http://www.w3.org/2000/svg"
   xmlns="http://www.w3.org/2000/svg"
   viewBox="0 0 3610.5332 4291.7202"
   height="4291.7202"
   width="3610.5332"
   xml:space="preserve"
   version="1.1"
   id="svg2"><metadata
     id="metadata8"><rdf:RDF><cc:Work
         rdf:about=""><dc:format>image/svg+xml</dc:format><dc:type
           rdf:resource="http://purl.org/dc/dcmitype/StillImage" /></cc:Work></rdf:RDF></metadata><defs
     id="defs6"><clipPath
       id="clipPath18"
       clipPathUnits="userSpaceOnUse"><path
         id="path20"
         d="m 0,0 12340.8,0 0,14669 L 0,14669 0,0 Z" /></clipPath><clipPath
       id="clipPath546"
       clipPathUnits="userSpaceOnUse"><path
         id="path548"
         d="m 1316.02,2409.73 c -10.6,-90.74 -93.06,-155.95 -183.81,-145.38 -43.96,5.15 -83.3,27.07 -110.76,61.79 -27.45,34.73 -39.751,78.07 -34.602,122.05 5.132,43.93 27.082,83.26 61.802,110.74 34.71,27.44 78.05,39.74 122.01,34.59 3.37,-0.36 6.74,-0.91 10.08,-1.5 l -11.79,-29.03 75.61,10.48 -46.89,60.25 -12.03,-29.67 c -4.48,0.87 -8.98,1.64 -13.5,2.15 -47.35,5.51 -94.02,-7.71 -131.41,-37.29 -37.39,-29.53 -61.031,-71.91 -66.558,-119.26 -5.531,-47.35 7.707,-94.02 37.278,-131.39 29.57,-37.41 71.93,-61.06 119.28,-66.58 97.74,-11.39 186.54,58.84 197.97,156.59 l -12.68,1.46 z" /></clipPath><linearGradient
       id="linearGradient550"
       spreadMethod="pad"
       gradientTransform="matrix(-13.310304,381.27304,381.27304,13.310304,1156.6352,2250.5435)"
       gradientUnits="userSpaceOnUse"
       y2="0"
       x2="1"
       y1="0"
       x1="0"><stop
         id="stop552"
         offset="0"
         style="stop-opacity:1;stop-color:#ffffff" /><stop
         id="stop554"
         offset="1"
         style="stop-opacity:1;stop-color:#44bc5d" /></linearGradient><clipPath
       id="clipPath562"
       clipPathUnits="userSpaceOnUse"><path
         id="path564"
         d="m 4030.55,2409.68 c -10.62,-90.92 -93.23,-156.27 -184.16,-145.65 -44.05,5.15 -83.46,27.16 -110.96,61.93 -27.51,34.77 -39.83,78.21 -34.68,122.27 5.15,44.03 27.14,83.45 61.92,110.93 34.78,27.48 78.2,39.83 122.25,34.68 3.37,-0.41 6.74,-0.91 10.09,-1.5 l -11.82,-29.12 75.76,10.53 -46.98,60.33 -12.06,-29.71 c -4.47,0.87 -8.98,1.64 -13.51,2.19 -47.44,5.51 -94.2,-7.75 -131.65,-37.37 -37.48,-29.62 -61.16,-72.05 -66.69,-119.49 -5.55,-47.45 7.72,-94.2 37.33,-131.66 29.63,-37.47 72.08,-61.16 119.53,-66.68 97.92,-11.44 186.88,58.93 198.33,156.86 l -12.7,1.46 z" /></clipPath><linearGradient
       id="linearGradient566"
       spreadMethod="pad"
       gradientTransform="matrix(-13.33505,381.98262,381.98262,13.33505,3870.8637,2250.1789)"
       gradientUnits="userSpaceOnUse"
       y2="0"
       x2="1"
       y1="0"
       x1="0"><stop
         id="stop568"
         offset="0"
         style="stop-opacity:1;stop-color:#ffffff" /><stop
         id="stop570"
         offset="1"
         style="stop-opacity:1;stop-color:#44bc5d" /></linearGradient><clipPath
       id="clipPath578"
       clipPathUnits="userSpaceOnUse"><path
         id="path580"
         d="m 6289.82,1555.05 c -10.61,-90.92 -93.24,-156.23 -184.16,-145.61 -44.02,5.11 -83.44,27.12 -110.96,61.89 -27.49,34.82 -39.84,78.21 -34.69,122.27 5.15,44.02 27.17,83.45 61.94,110.93 34.77,27.52 78.2,39.83 122.27,34.68 3.37,-0.41 6.74,-0.91 10.07,-1.5 l -11.8,-29.12 75.74,10.52 -46.99,60.34 -12.03,-29.67 c -4.51,0.87 -9.02,1.6 -13.53,2.14 -47.45,5.52 -94.2,-7.74 -131.66,-37.37 -37.47,-29.62 -61.16,-72.05 -66.68,-119.49 -5.55,-47.44 7.7,-94.2 37.33,-131.66 29.62,-37.46 72.1,-61.11 119.54,-66.67 97.89,-11.44 186.89,58.92 198.33,156.86 l -12.72,1.46 z" /></clipPath><linearGradient
       id="linearGradient582"
       spreadMethod="pad"
       gradientTransform="matrix(-13.335004,381.98125,381.98125,13.335004,6130.1481,1395.5894)"
       gradientUnits="userSpaceOnUse"
       y2="0"
       x2="1"
       y1="0"
       x1="0"><stop
         id="stop584"
         offset="0"
         style="stop-opacity:1;stop-color:#ffffff" /><stop
         id="stop586"
         offset="1"
         style="stop-opacity:1;stop-color:#44bc5d" /></linearGradient><clipPath
       id="clipPath594"
       clipPathUnits="userSpaceOnUse"><path
         id="path596"
         d="m 7195.18,1555.05 c -10.62,-90.92 -93.2,-156.23 -184.11,-145.61 -44.07,5.11 -83.5,27.12 -110.98,61.89 -27.52,34.82 -39.82,78.21 -34.68,122.27 5.15,44.02 27.12,83.45 61.89,110.93 34.82,27.52 78.21,39.83 122.27,34.68 3.38,-0.41 6.75,-0.91 10.08,-1.5 l -11.81,-29.12 75.75,10.52 -46.99,60.34 -12.03,-29.67 c -4.47,0.87 -8.98,1.6 -13.53,2.14 -47.45,5.52 -94.2,-7.74 -131.66,-37.37 -37.47,-29.62 -61.12,-72.05 -66.68,-119.49 -5.52,-47.44 7.75,-94.2 37.37,-131.66 29.62,-37.46 72.05,-61.11 119.49,-66.67 97.94,-11.44 186.9,58.92 198.33,156.86 l -12.71,1.46 z" /></clipPath><linearGradient
       id="linearGradient598"
       spreadMethod="pad"
       gradientTransform="matrix(-13.334913,381.97806,381.97806,13.334913,7035.5061,1395.5894)"
       gradientUnits="userSpaceOnUse"
       y2="0"
       x2="1"
       y1="0"
       x1="0"><stop
         id="stop600"
         offset="0"
         style="stop-opacity:1;stop-color:#ffffff" /><stop
         id="stop602"
         offset="1"
         style="stop-opacity:1;stop-color:#44bc5d" /></linearGradient><clipPath
       id="clipPath610"
       clipPathUnits="userSpaceOnUse"><path
         id="path612"
         d="m 1604.89,2629.03 -2.1,-12.67 c 63.03,-10.48 105.81,-70.23 95.36,-133.26 -5.05,-30.53 -21.7,-57.24 -46.87,-75.29 -25.16,-18 -55.84,-25.11 -86.37,-20.05 -58.7,9.71 -99.82,62.26 -96.73,120.36 l 29.3,-10.85 -12.96,75.79 -59.13,-49.13 30.26,-11.16 c -5.58,-66.13 40.62,-126.7 107.16,-137.68 6.9,-1.18 13.79,-1.73 20.64,-1.78 26.87,-0.13 53.03,8.12 75.31,24.07 27.95,20 46.45,49.72 52.06,83.62 11.61,70 -35.91,136.4 -105.93,148.03 z" /></clipPath><linearGradient
       id="linearGradient614"
       spreadMethod="pad"
       gradientTransform="matrix(-256.59559,-88.352391,-88.352391,256.59559,1708.0624,2536.5611)"
       gradientUnits="userSpaceOnUse"
       y2="0"
       x2="1"
       y1="0"
       x1="0"><stop
         id="stop616"
         offset="0"
         style="stop-opacity:1;stop-color:#ffffff" /><stop
         id="stop618"
         offset="1"
         style="stop-opacity:1;stop-color:#44bc5d" /></linearGradient><clipPath
       id="clipPath626"
       clipPathUnits="userSpaceOnUse"><path
         id="path628"
         d="m 3373.37,2467.61 4.11,-11.17 c 55.52,20.46 117.34,-8.02 137.81,-63.53 9.92,-26.89 8.78,-56.05 -3.21,-82.08 -12,-26.02 -33.42,-45.8 -60.31,-55.73 -51.71,-19.05 -108.89,4.37 -133.02,52.54 l 28.54,4.7 -45.15,55.05 -25.09,-66.63 29.44,4.88 c 19.84,-42.89 62.82,-69.09 108.27,-69.09 13.67,0 27.58,2.37 41.13,7.38 29.87,11.03 53.66,33 66.99,61.94 13.33,28.89 14.6,61.29 3.58,91.14 -22.75,61.66 -91.41,93.33 -153.09,70.6 z" /></clipPath><linearGradient
       id="linearGradient630"
       spreadMethod="pad"
       gradientTransform="matrix(-252.6216,-86.984282,-86.984282,252.6216,3527.3371,2394.5549)"
       gradientUnits="userSpaceOnUse"
       y2="0"
       x2="1"
       y1="0"
       x1="0"><stop
         id="stop632"
         offset="0"
         style="stop-opacity:1;stop-color:#ffffff" /><stop
         id="stop634"
         offset="1"
         style="stop-opacity:1;stop-color:#44bc5d" /></linearGradient><clipPath
       id="clipPath642"
       clipPathUnits="userSpaceOnUse"><path
         id="path644"
         d="m 2058.68,1773.12 -2.03,-12.72 c 63.14,-10.11 106.28,-69.73 96.17,-132.85 -4.91,-30.57 -21.42,-57.42 -46.52,-75.6 -25.1,-18.18 -55.78,-25.48 -86.35,-20.56 -58.81,9.4 -100.25,61.8 -97.47,119.95 l 29.39,-10.66 -13.39,75.74 -58.91,-49.44 30.33,-11.03 c -5.22,-66.22 41.35,-126.61 108.01,-137.27 6.91,-1.09 13.81,-1.64 20.67,-1.64 26.9,0 53.04,8.43 75.26,24.47 27.87,20.19 46.23,50.04 51.67,83.99 11.24,70.14 -36.68,136.36 -106.83,147.62 z" /></clipPath><linearGradient
       id="linearGradient646"
       spreadMethod="pad"
       gradientTransform="matrix(-257.22085,-88.568408,-88.568408,257.22085,2162.5871,1680.6501)"
       gradientUnits="userSpaceOnUse"
       y2="0"
       x2="1"
       y1="0"
       x1="0"><stop
         id="stop648"
         offset="0"
         style="stop-opacity:1;stop-color:#ffffff" /><stop
         id="stop650"
         offset="1"
         style="stop-opacity:1;stop-color:#44bc5d" /></linearGradient><clipPath
       id="clipPath658"
       clipPathUnits="userSpaceOnUse"><path
         id="path660"
         d="m 4310.23,1773.12 -2.03,-12.72 c 63.14,-10.11 106.28,-69.73 96.16,-132.85 -4.9,-30.57 -21.42,-57.42 -46.52,-75.6 -25.09,-18.18 -55.77,-25.48 -86.34,-20.56 -58.81,9.4 -100.26,61.8 -97.47,119.95 l 29.38,-10.66 -13.38,75.74 -58.92,-49.44 30.34,-11.03 c -5.22,-66.22 41.34,-126.61 108.01,-137.27 6.91,-1.09 13.81,-1.64 20.66,-1.64 26.9,0 53.05,8.43 75.26,24.47 27.88,20.19 46.23,50.04 51.68,83.99 11.24,70.14 -36.68,136.36 -106.83,147.62 z" /></clipPath><linearGradient
       id="linearGradient662"
       spreadMethod="pad"
       gradientTransform="matrix(-257.22085,-88.568408,-88.568408,257.22085,4414.1377,1680.6045)"
       gradientUnits="userSpaceOnUse"
       y2="0"
       x2="1"
       y1="0"
       x1="0"><stop
         id="stop664"
         offset="0"
         style="stop-opacity:1;stop-color:#ffffff" /><stop
         id="stop666"
         offset="1"
         style="stop-opacity:1;stop-color:#44bc5d" /></linearGradient><clipPath
       id="clipPath674"
       clipPathUnits="userSpaceOnUse"><path
         id="path676"
         d="m 4750.73,2628.3 -2.05,-12.68 c 63.16,-10.11 106.27,-69.72 96.16,-132.84 -4.88,-30.62 -21.42,-57.47 -46.49,-75.6 -25.11,-18.19 -55.78,-25.48 -86.36,-20.61 -58.79,9.44 -100.26,61.8 -97.48,120 l 29.4,-10.71 -13.4,75.79 -58.89,-49.49 30.31,-11.03 c -5.19,-66.18 41.34,-126.56 108.01,-137.22 6.93,-1.1 13.81,-1.64 20.69,-1.64 26.89,0 53.05,8.38 75.24,24.47 27.89,20.19 46.21,49.99 51.68,83.99 11.26,70.14 -36.68,136.36 -106.82,147.57 z" /></clipPath><linearGradient
       id="linearGradient678"
       spreadMethod="pad"
       gradientTransform="matrix(-257.21994,-88.567952,-88.567952,257.21994,4854.6441,2535.832)"
       gradientUnits="userSpaceOnUse"
       y2="0"
       x2="1"
       y1="0"
       x1="0"><stop
         id="stop680"
         offset="0"
         style="stop-opacity:1;stop-color:#ffffff" /><stop
         id="stop682"
         offset="1"
         style="stop-opacity:1;stop-color:#44bc5d" /></linearGradient></defs><g
     transform="matrix(1.3333333,0,0,-1.3333333,0,4291.72)"
     id="g10"><g
       transform="scale(0.219427)"
       id="g12"><g
         id="g14"><g
           clip-path="url(#clipPath18)"
           id="g16"><path
             id="path22"
             style="fill:#f4f4f4;fill-opacity:1;fill-rule:nonzero;stroke:none"
             d="m 413.574,0 8240.77,0 0,3101.85 -8240.77,0 0,-3101.85 z" /><path
             id="path24"
             style="fill:#44bc5e;fill-opacity:1;fill-rule:nonzero;stroke:none"
             d="m 5546.85,14607.7 295.08,-303.4 19.6,19.1 -295.09,303.4" /><path
             id="path26"
             style="fill:#44bc5e;fill-opacity:1;fill-rule:nonzero;stroke:none"
             d="m 5464.81,14607.7 295.09,-303.4 19.6,19.1 -295.09,303.4" /><path
             id="path28"
             style="fill:#44bc5e;fill-opacity:1;fill-rule:nonzero;stroke:none"
             d="m 5382.78,14607.7 295.09,-303.4 19.59,19.1 -295.08,303.4" /><path
             id="path30"
             style="fill:#44bc5e;fill-opacity:1;fill-rule:nonzero;stroke:none"
             d="m 5300.75,14607.7 295.09,-303.4 19.59,19.1 -295.08,303.4" /><path
             id="path32"
             style="fill:#44bc5e;fill-opacity:1;fill-rule:nonzero;stroke:none"
             d="m 5218.72,14607.7 295.08,-303.4 19.6,19.1 -295.08,303.4" /><path
             id="path34"
             style="fill:#44bc5e;fill-opacity:1;fill-rule:nonzero;stroke:none"
             d="m 5136.69,14607.7 295.08,-303.4 19.6,19.1 -295.08,303.4" /><path
             id="path36"
             style="fill:#44bc5e;fill-opacity:1;fill-rule:nonzero;stroke:none"
             d="m 5054.66,14607.7 295.08,-303.4 19.6,19.1 -295.09,303.4" /><path
             id="path38"
             style="fill:#44bc5e;fill-opacity:1;fill-rule:nonzero;stroke:none"
             d="m 4972.62,14607.7 295.09,-303.4 19.6,19.1 -295.09,303.4" /><path
             id="path40"
             style="fill:#44bc5e;fill-opacity:1;fill-rule:nonzero;stroke:none"
             d="m 4890.59,14607.7 295.09,-303.4 19.64,19.1 -295.09,303.4" /><path
             id="path42"
             style="fill:#44bc5e;fill-opacity:1;fill-rule:nonzero;stroke:none"
             d="m 4808.61,14607.7 295.08,-303.4 19.6,19.1 -295.09,303.4" /><path
             id="path44"
             style="fill:#44bc5e;fill-opacity:1;fill-rule:nonzero;stroke:none"
             d="m 4726.57,14607.7 295.09,-303.4 19.6,19.1 -295.09,303.4" /><path
             id="path46"
             style="fill:#44bc5e;fill-opacity:1;fill-rule:nonzero;stroke:none"
             d="m 4644.54,14607.7 295.09,-303.4 19.6,19.1 -295.09,303.4" /><path
             id="path48"
             style="fill:#44bc5e;fill-opacity:1;fill-rule:nonzero;stroke:none"
             d="m 4562.51,14607.7 295.09,-303.4 19.6,19.1 -295.09,303.4" /><path
             id="path50"
             style="fill:#44bc5e;fill-opacity:1;fill-rule:nonzero;stroke:none"
             d="m 4480.48,14607.7 295.09,-303.4 19.59,19.1 -295.08,303.4" /><path
             id="path52"
             style="fill:#44bc5e;fill-opacity:1;fill-rule:nonzero;stroke:none"
             d="m 4398.45,14607.7 295.09,-303.4 19.59,19.1 -295.08,303.4" /><path
             id="path54"
             style="fill:#44bc5e;fill-opacity:1;fill-rule:nonzero;stroke:none"
             d="m 4316.42,14607.7 295.08,-303.4 19.6,19.1 -295.07,303.4" /><path
             id="path56"
             style="fill:#44bc5e;fill-opacity:1;fill-rule:nonzero;stroke:none"
             d="m 4234.39,14607.7 295.09,-303.4 19.6,19.1 -295.08,303.4" /><path
             id="path58"
             style="fill:#44bc5e;fill-opacity:1;fill-rule:nonzero;stroke:none"
             d="m 4152.37,14607.7 295.08,-303.4 19.6,19.1 -295.08,303.4" /><path
             id="path60"
             style="fill:#44bc5e;fill-opacity:1;fill-rule:nonzero;stroke:none"
             d="m 4070.34,14607.7 295.09,-303.4 19.6,19.1 -295.09,303.4" /><path
             id="path62"
             style="fill:#44bc5e;fill-opacity:1;fill-rule:nonzero;stroke:none"
             d="m 3988.31,14607.7 295.09,-303.4 19.6,19.1 -295.09,303.4" /><path
             id="path64"
             style="fill:#44bc5e;fill-opacity:1;fill-rule:nonzero;stroke:none"
             d="m 3906.29,14607.7 295.08,-303.4 19.6,19.1 -295.08,303.4" /><path
             id="path66"
             style="fill:#44bc5e;fill-opacity:1;fill-rule:nonzero;stroke:none"
             d="m 3824.26,14607.7 295.08,-303.4 19.61,19.1 -295.09,303.4" /><path
             id="path68"
             style="fill:#44bc5e;fill-opacity:1;fill-rule:nonzero;stroke:none"
             d="m 3742.23,14607.7 295.09,-303.4 19.6,19.1 -295.09,303.4" /><path
             id="path70"
             style="fill:#44bc5e;fill-opacity:1;fill-rule:nonzero;stroke:none"
             d="m 3660.2,14607.7 295.09,-303.4 19.6,19.1 -295.09,303.4" /><path
             id="path72"
             style="fill:#44bc5e;fill-opacity:1;fill-rule:nonzero;stroke:none"
             d="m 3578.18,14607.7 295.08,-303.4 19.6,19.1 -295.08,303.4" /><path
             id="path74"
             style="fill:#44bc5e;fill-opacity:1;fill-rule:nonzero;stroke:none"
             d="m 3496.15,14607.7 295.08,-303.4 19.61,19.1 -295.09,303.4" /><path
             id="path76"
             style="fill:#44bc5e;fill-opacity:1;fill-rule:nonzero;stroke:none"
             d="m 3414.12,14607.7 295.09,-303.4 19.6,19.1 -295.09,303.4" /><path
             id="path78"
             style="fill:#44bc5e;fill-opacity:1;fill-rule:nonzero;stroke:none"
             d="m 3332.09,14607.7 295.09,-303.4 19.6,19.1 -295.08,303.4" /><path
             id="path80"
             style="fill:#44bc5e;fill-opacity:1;fill-rule:nonzero;stroke:none"
             d="m 3250.07,14607.7 295.08,-303.4 19.6,19.1 -295.08,303.4" /><path
             id="path82"
             style="fill:#44bc5e;fill-opacity:1;fill-rule:nonzero;stroke:none"
             d="m 3168.04,14607.7 295.09,-303.4 19.6,19.1 -295.09,303.4" /><path
             id="path84"
             style="fill:#44bc5e;fill-opacity:1;fill-rule:nonzero;stroke:none"
             d="m 3086.02,14607.7 295.08,-303.4 19.6,19.1 -295.09,303.4" /><path
             id="path86"
             style="fill:#44bc5e;fill-opacity:1;fill-rule:nonzero;stroke:none"
             d="m 3003.99,14607.7 295.08,-303.4 19.61,19.1 -295.09,303.4" /><path
             id="path88"
             style="fill:#44bc5e;fill-opacity:1;fill-rule:nonzero;stroke:none"
             d="m 2921.96,14607.7 295.09,-303.4 19.6,19.1 -295.09,303.4" /><path
             id="path90"
             style="fill:#44bc5e;fill-opacity:1;fill-rule:nonzero;stroke:none"
             d="m 2839.93,14607.7 295.09,-303.4 19.6,19.1 -295.08,303.4" /><path
             id="path92"
             style="fill:#44bc5e;fill-opacity:1;fill-rule:nonzero;stroke:none"
             d="m 2757.91,14607.7 295.08,-303.4 19.6,19.1 -295.08,303.4" /><path
             id="path94"
             style="fill:#44bc5e;fill-opacity:1;fill-rule:nonzero;stroke:none"
             d="m 2675.88,14607.7 295.08,-303.4 19.61,19.1 -295.09,303.4" /><path
             id="path96"
             style="fill:#44bc5e;fill-opacity:1;fill-rule:nonzero;stroke:none"
             d="m 2593.85,14607.7 295.09,-303.4 19.6,19.1 -295.09,303.4" /><path
             id="path98"
             style="fill:#44bc5e;fill-opacity:1;fill-rule:nonzero;stroke:none"
             d="m 2511.82,14607.7 295.09,-303.4 19.6,19.1 -295.08,303.4" /><path
             id="path100"
             style="fill:#44bc5e;fill-opacity:1;fill-rule:nonzero;stroke:none"
             d="m 2429.8,14607.7 295.08,-303.4 19.6,19.1 -295.08,303.4" /><path
             id="path102"
             style="fill:#44bc5e;fill-opacity:1;fill-rule:nonzero;stroke:none"
             d="m 2347.77,14607.7 295.09,-303.4 19.6,19.1 -295.09,303.4" /><path
             id="path104"
             style="fill:#44bc5e;fill-opacity:1;fill-rule:nonzero;stroke:none"
             d="m 2265.74,14607.7 295.09,-303.4 19.6,19.1 -295.09,303.4" /><path
             id="path106"
             style="fill:#44bc5e;fill-opacity:1;fill-rule:nonzero;stroke:none"
             d="m 2183.71,14607.7 295.09,-303.4 19.6,19.1 -295.08,303.4" /><path
             id="path108"
             style="fill:#44bc5e;fill-opacity:1;fill-rule:nonzero;stroke:none"
             d="m 2101.69,14607.7 295.08,-303.4 19.61,19.1 -295.09,303.4" /><path
             id="path110"
             style="fill:#44bc5e;fill-opacity:1;fill-rule:nonzero;stroke:none"
             d="m 2019.66,14607.7 295.09,-303.4 19.6,19.1 -295.09,303.4" /><path
             id="path112"
             style="fill:#44bc5e;fill-opacity:1;fill-rule:nonzero;stroke:none"
             d="m 1937.63,14607.7 295.09,-303.4 19.6,19.1 -295.09,303.4" /><path
             id="path114"
             style="fill:#44bc5e;fill-opacity:1;fill-rule:nonzero;stroke:none"
             d="m 1855.61,14607.7 295.08,-303.4 19.6,19.1 -295.08,303.4" /><path
             id="path116"
             style="fill:#44bc5e;fill-opacity:1;fill-rule:nonzero;stroke:none"
             d="m 1773.58,14607.7 295.09,-303.4 19.6,19.1 -295.09,303.4" /><path
             id="path118"
             style="fill:#44bc5e;fill-opacity:1;fill-rule:nonzero;stroke:none"
             d="m 1691.55,14607.7 295.09,-303.4 19.6,19.1 -295.09,303.4" /><path
             id="path120"
             style="fill:#44bc5e;fill-opacity:1;fill-rule:nonzero;stroke:none"
             d="m 1609.53,14607.7 295.08,-303.4 19.6,19.1 -295.09,303.4" /><path
             id="path122"
             style="fill:#44bc5e;fill-opacity:1;fill-rule:nonzero;stroke:none"
             d="m 1527.5,14607.7 295.09,-303.4 19.6,19.1 -295.09,303.4" /><path
             id="path124"
             style="fill:#44bc5e;fill-opacity:1;fill-rule:nonzero;stroke:none"
             d="m 1445.47,14607.7 295.09,-303.4 19.6,19.1 -295.09,303.4" /><path
             id="path126"
             style="fill:#44bc5e;fill-opacity:1;fill-rule:nonzero;stroke:none"
             d="m 1363.45,14607.7 295.08,-303.4 19.6,19.1 -295.08,303.4" /><path
             id="path128"
             style="fill:#44bc5e;fill-opacity:1;fill-rule:nonzero;stroke:none"
             d="m 1281.42,14607.7 295.08,-303.4 19.61,19.1 -295.09,303.4" /><path
             id="path130"
             style="fill:#44bc5e;fill-opacity:1;fill-rule:nonzero;stroke:none"
             d="m 1199.39,14607.7 295.09,-303.4 19.6,19.1 -295.09,303.4" /><path
             id="path132"
             style="fill:#44bc5e;fill-opacity:1;fill-rule:nonzero;stroke:none"
             d="m 1117.36,14607.7 295.09,-303.4 19.6,19.1 -295.09,303.4" /><path
             id="path134"
             style="fill:#44bc5e;fill-opacity:1;fill-rule:nonzero;stroke:none"
             d="m 1035.34,14607.7 295.08,-303.4 19.6,19.1 -295.08,303.4" /><path
             id="path136"
             style="fill:#44bc5e;fill-opacity:1;fill-rule:nonzero;stroke:none"
             d="m 953.309,14607.7 295.081,-303.4 19.61,19.1 -295.09,303.4" /><path
             id="path138"
             style="fill:#44bc5e;fill-opacity:1;fill-rule:nonzero;stroke:none"
             d="m 871.277,14607.7 295.083,-303.4 19.61,19.1 -295.087,303.4" /><path
             id="path140"
             style="fill:#44bc5e;fill-opacity:1;fill-rule:nonzero;stroke:none"
             d="m 789.25,14607.7 295.09,-303.4 19.6,19.1 -295.088,303.4" /><path
             id="path142"
             style="fill:#44bc5e;fill-opacity:1;fill-rule:nonzero;stroke:none"
             d="m 707.223,14607.7 295.087,-303.4 19.6,19.1 -295.086,303.4" /><path
             id="path144"
             style="fill:#44bc5e;fill-opacity:1;fill-rule:nonzero;stroke:none"
             d="m 625.195,14607.7 295.086,-303.4 19.602,19.1 -295.086,303.4" /><path
             id="path146"
             style="fill:#44bc5e;fill-opacity:1;fill-rule:nonzero;stroke:none"
             d="m 543.168,14607.7 295.086,-303.4 19.601,19.1 -295.085,303.4" /><path
             id="path148"
             style="fill:#44bc5e;fill-opacity:1;fill-rule:nonzero;stroke:none"
             d="m 461.141,14607.7 295.086,-303.4 19.601,19.1 -295.086,303.4" /><path
             id="path150"
             style="fill:#44bc5e;fill-opacity:1;fill-rule:nonzero;stroke:none"
             d="m 379.117,14607.7 295.082,-303.4 19.602,19.1 -295.082,303.4" /><path
             id="path152"
             style="fill:#44bc5e;fill-opacity:1;fill-rule:nonzero;stroke:none"
             d="m 297.09,14607.7 295.082,-303.4 19.601,19.1 -295.082,303.4" /><path
             id="path154"
             style="fill:#44bc5e;fill-opacity:1;fill-rule:nonzero;stroke:none"
             d="m 215.062,14607.7 295.083,-303.4 19.601,19.1 -295.082,303.4" /><path
             id="path156"
             style="fill:#44bc5e;fill-opacity:1;fill-rule:nonzero;stroke:none"
             d="m 133.035,14607.7 295.086,-303.4 19.602,19.1 -295.086,303.4" /><path
             id="path158"
             style="fill:#44bc5e;fill-opacity:1;fill-rule:nonzero;stroke:none"
             d="m 6037.76,14607.7 295.09,-303.4 19.59,19.1 -295.08,303.4" /><path
             id="path160"
             style="fill:#44bc5e;fill-opacity:1;fill-rule:nonzero;stroke:none"
             d="m 5955.73,14607.7 295.09,-303.4 19.59,19.1 -295.09,303.4" /><path
             id="path162"
             style="fill:#44bc5e;fill-opacity:1;fill-rule:nonzero;stroke:none"
             d="m 5873.7,14607.7 295.08,-303.4 19.65,19.1 -295.09,303.4" /><path
             id="path164"
             style="fill:#44bc5e;fill-opacity:1;fill-rule:nonzero;stroke:none"
             d="m 5791.71,14607.7 295.09,-303.4 19.59,19.1 -295.08,303.4" /><path
             id="path166"
             style="fill:#44bc5e;fill-opacity:1;fill-rule:nonzero;stroke:none"
             d="m 5709.68,14607.7 295.09,-303.4 19.59,19.1 -295.08,303.4" /><path
             id="path168"
             style="fill:#44bc5e;fill-opacity:1;fill-rule:nonzero;stroke:none"
             d="m 5627.65,14607.7 295.08,-303.4 19.6,19.1 -295.09,303.4" /><path
             id="path170"
             style="fill:#44bc5e;fill-opacity:1;fill-rule:nonzero;stroke:none"
             d="m 11535.2,14607.7 295,-303.4 19.6,19.1 -295,303.4" /><path
             id="path172"
             style="fill:#44bc5e;fill-opacity:1;fill-rule:nonzero;stroke:none"
             d="m 11453.1,14607.7 295.1,-303.4 19.6,19.1 -295.1,303.4" /><path
             id="path174"
             style="fill:#44bc5e;fill-opacity:1;fill-rule:nonzero;stroke:none"
             d="m 11371.1,14607.7 295.1,-303.4 19.6,19.1 -295.1,303.4" /><path
             id="path176"
             style="fill:#44bc5e;fill-opacity:1;fill-rule:nonzero;stroke:none"
             d="m 11289.1,14607.7 295,-303.4 19.6,19.1 -295,303.4" /><path
             id="path178"
             style="fill:#44bc5e;fill-opacity:1;fill-rule:nonzero;stroke:none"
             d="m 11207,14607.7 295.1,-303.4 19.6,19.1 -295.1,303.4" /><path
             id="path180"
             style="fill:#44bc5e;fill-opacity:1;fill-rule:nonzero;stroke:none"
             d="m 11125,14607.7 295.1,-303.4 19.6,19.1 -295.1,303.4" /><path
             id="path182"
             style="fill:#44bc5e;fill-opacity:1;fill-rule:nonzero;stroke:none"
             d="m 11043,14607.7 295.1,-303.4 19.6,19.1 -295.1,303.4" /><path
             id="path184"
             style="fill:#44bc5e;fill-opacity:1;fill-rule:nonzero;stroke:none"
             d="m 10960.9,14607.7 295.1,-303.4 19.6,19.1 -295.1,303.4" /><path
             id="path186"
             style="fill:#44bc5e;fill-opacity:1;fill-rule:nonzero;stroke:none"
             d="m 10878.9,14607.7 295.1,-303.4 19.6,19.1 -295.1,303.4" /><path
             id="path188"
             style="fill:#44bc5e;fill-opacity:1;fill-rule:nonzero;stroke:none"
             d="m 10796.9,14607.7 295.1,-303.4 19.6,19.1 -295.1,303.4" /><path
             id="path190"
             style="fill:#44bc5e;fill-opacity:1;fill-rule:nonzero;stroke:none"
             d="m 10714.9,14607.7 295.1,-303.4 19.6,19.1 -295.1,303.4" /><path
             id="path192"
             style="fill:#44bc5e;fill-opacity:1;fill-rule:nonzero;stroke:none"
             d="m 10632.9,14607.7 295,-303.4 19.6,19.1 -295,303.4" /><path
             id="path194"
             style="fill:#44bc5e;fill-opacity:1;fill-rule:nonzero;stroke:none"
             d="m 10550.8,14607.7 295.1,-303.4 19.6,19.1 -295.1,303.4" /><path
             id="path196"
             style="fill:#44bc5e;fill-opacity:1;fill-rule:nonzero;stroke:none"
             d="m 10468.8,14607.7 295.1,-303.4 19.6,19.1 -295.1,303.4" /><path
             id="path198"
             style="fill:#44bc5e;fill-opacity:1;fill-rule:nonzero;stroke:none"
             d="m 10386.8,14607.7 295,-303.4 19.6,19.1 -295,303.4" /><path
             id="path200"
             style="fill:#44bc5e;fill-opacity:1;fill-rule:nonzero;stroke:none"
             d="m 10304.7,14607.7 295.1,-303.4 19.6,19.1 -295.1,303.4" /><path
             id="path202"
             style="fill:#44bc5e;fill-opacity:1;fill-rule:nonzero;stroke:none"
             d="m 10222.7,14607.7 295.1,-303.4 19.6,19.1 -295.1,303.4" /><path
             id="path204"
             style="fill:#44bc5e;fill-opacity:1;fill-rule:nonzero;stroke:none"
             d="m 10140.7,14607.7 295.1,-303.4 19.5,19.1 -295,303.4" /><path
             id="path206"
             style="fill:#44bc5e;fill-opacity:1;fill-rule:nonzero;stroke:none"
             d="m 10058.6,14607.7 295.1,-303.4 19.7,19.1 -295.1,303.4" /><path
             id="path208"
             style="fill:#44bc5e;fill-opacity:1;fill-rule:nonzero;stroke:none"
             d="m 9976.65,14607.7 295.05,-303.4 19.6,19.1 -295.05,303.4" /><path
             id="path210"
             style="fill:#44bc5e;fill-opacity:1;fill-rule:nonzero;stroke:none"
             d="m 9894.62,14607.7 295.08,-303.4 19.6,19.1 -295.09,303.4" /><path
             id="path212"
             style="fill:#44bc5e;fill-opacity:1;fill-rule:nonzero;stroke:none"
             d="m 9812.59,14607.7 295.11,-303.4 19.6,19.1 -295.12,303.4" /><path
             id="path214"
             style="fill:#44bc5e;fill-opacity:1;fill-rule:nonzero;stroke:none"
             d="m 9730.55,14607.7 295.05,-303.4 19.6,19.1 -295.05,303.4" /><path
             id="path216"
             style="fill:#44bc5e;fill-opacity:1;fill-rule:nonzero;stroke:none"
             d="m 9648.52,14607.7 295.09,-303.4 19.59,19.1 -295.08,303.4" /><path
             id="path218"
             style="fill:#44bc5e;fill-opacity:1;fill-rule:nonzero;stroke:none"
             d="m 9566.49,14607.7 295.08,-303.4 19.6,19.1 -295.08,303.4" /><path
             id="path220"
             style="fill:#44bc5e;fill-opacity:1;fill-rule:nonzero;stroke:none"
             d="m 9484.46,14607.7 295.08,-303.4 19.6,19.1 -295.09,303.4" /><path
             id="path222"
             style="fill:#44bc5e;fill-opacity:1;fill-rule:nonzero;stroke:none"
             d="m 9402.43,14607.7 295.08,-303.4 19.6,19.1 -295.09,303.4" /><path
             id="path224"
             style="fill:#44bc5e;fill-opacity:1;fill-rule:nonzero;stroke:none"
             d="m 9320.39,14607.7 295.09,-303.4 19.6,19.1 -295.09,303.4" /><path
             id="path226"
             style="fill:#44bc5e;fill-opacity:1;fill-rule:nonzero;stroke:none"
             d="m 9238.36,14607.7 295.09,-303.4 19.64,19.1 -295.09,303.4" /><path
             id="path228"
             style="fill:#44bc5e;fill-opacity:1;fill-rule:nonzero;stroke:none"
             d="m 9156.38,14607.7 295.08,-303.4 19.6,19.1 -295.09,303.4" /><path
             id="path230"
             style="fill:#44bc5e;fill-opacity:1;fill-rule:nonzero;stroke:none"
             d="m 9074.34,14607.7 295.09,-303.4 19.6,19.1 -295.09,303.4" /><path
             id="path232"
             style="fill:#44bc5e;fill-opacity:1;fill-rule:nonzero;stroke:none"
             d="m 8992.31,14607.7 295.09,-303.4 19.6,19.1 -295.09,303.4" /><path
             id="path234"
             style="fill:#44bc5e;fill-opacity:1;fill-rule:nonzero;stroke:none"
             d="m 8910.28,14607.7 295.09,-303.4 19.59,19.1 -295.08,303.4" /><path
             id="path236"
             style="fill:#44bc5e;fill-opacity:1;fill-rule:nonzero;stroke:none"
             d="m 8828.25,14607.7 295.09,-303.4 19.59,19.1 -295.08,303.4" /><path
             id="path238"
             style="fill:#44bc5e;fill-opacity:1;fill-rule:nonzero;stroke:none"
             d="m 8746.22,14607.7 295.08,-303.4 19.6,19.1 -295.08,303.4" /><path
             id="path240"
             style="fill:#44bc5e;fill-opacity:1;fill-rule:nonzero;stroke:none"
             d="m 8664.19,14607.7 295.08,-303.4 19.6,19.1 -295.08,303.4" /><path
             id="path242"
             style="fill:#44bc5e;fill-opacity:1;fill-rule:nonzero;stroke:none"
             d="m 8582.16,14607.7 295.08,-303.4 19.6,19.1 -295.09,303.4" /><path
             id="path244"
             style="fill:#44bc5e;fill-opacity:1;fill-rule:nonzero;stroke:none"
             d="m 8500.12,14607.7 295.09,-303.4 19.59,19.1 -295.08,303.4" /><path
             id="path246"
             style="fill:#44bc5e;fill-opacity:1;fill-rule:nonzero;stroke:none"
             d="m 8418.09,14607.7 295.09,-303.4 19.59,19.1 -295.08,303.4" /><path
             id="path248"
             style="fill:#44bc5e;fill-opacity:1;fill-rule:nonzero;stroke:none"
             d="m 8336.06,14607.7 295.09,-303.4 19.64,19.1 -295.09,303.4" /><path
             id="path250"
             style="fill:#44bc5e;fill-opacity:1;fill-rule:nonzero;stroke:none"
             d="m 8254.07,14607.7 295.09,-303.4 19.6,19.1 -295.09,303.4" /><path
             id="path252"
             style="fill:#44bc5e;fill-opacity:1;fill-rule:nonzero;stroke:none"
             d="m 8172.04,14607.7 295.09,-303.4 19.6,19.1 -295.09,303.4" /><path
             id="path254"
             style="fill:#44bc5e;fill-opacity:1;fill-rule:nonzero;stroke:none"
             d="m 8090.01,14607.7 295.09,-303.4 19.59,19.1 -295.08,303.4" /><path
             id="path256"
             style="fill:#44bc5e;fill-opacity:1;fill-rule:nonzero;stroke:none"
             d="m 8007.98,14607.7 295.09,-303.4 19.59,19.1 -295.09,303.4" /><path
             id="path258"
             style="fill:#44bc5e;fill-opacity:1;fill-rule:nonzero;stroke:none"
             d="m 7925.95,14607.7 295.09,-303.4 19.59,19.1 -295.09,303.4" /><path
             id="path260"
             style="fill:#44bc5e;fill-opacity:1;fill-rule:nonzero;stroke:none"
             d="m 7843.91,14607.7 295.09,-303.4 19.6,19.1 -295.09,303.4" /><path
             id="path262"
             style="fill:#44bc5e;fill-opacity:1;fill-rule:nonzero;stroke:none"
             d="m 7761.88,14607.7 295.09,-303.4 19.6,19.1 -295.09,303.4" /><path
             id="path264"
             style="fill:#44bc5e;fill-opacity:1;fill-rule:nonzero;stroke:none"
             d="m 7679.85,14607.7 295.09,-303.4 19.6,19.1 -295.09,303.4" /><path
             id="path266"
             style="fill:#44bc5e;fill-opacity:1;fill-rule:nonzero;stroke:none"
             d="m 7597.82,14607.7 295.09,-303.4 19.59,19.1 -295.08,303.4" /><path
             id="path268"
             style="fill:#44bc5e;fill-opacity:1;fill-rule:nonzero;stroke:none"
             d="m 7515.79,14607.7 295.09,-303.4 19.64,19.1 -295.09,303.4" /><path
             id="path270"
             style="fill:#44bc5e;fill-opacity:1;fill-rule:nonzero;stroke:none"
             d="m 7433.8,14607.7 295.09,-303.4 19.59,19.1 -295.08,303.4" /><path
             id="path272"
             style="fill:#44bc5e;fill-opacity:1;fill-rule:nonzero;stroke:none"
             d="m 7351.77,14607.7 295.09,-303.4 19.59,19.1 -295.08,303.4" /><path
             id="path274"
             style="fill:#44bc5e;fill-opacity:1;fill-rule:nonzero;stroke:none"
             d="m 7269.74,14607.7 295.08,-303.4 19.6,19.1 -295.08,303.4" /><path
             id="path276"
             style="fill:#44bc5e;fill-opacity:1;fill-rule:nonzero;stroke:none"
             d="m 7187.71,14607.7 295.08,-303.4 19.6,19.1 -295.09,303.4" /><path
             id="path278"
             style="fill:#44bc5e;fill-opacity:1;fill-rule:nonzero;stroke:none"
             d="m 7105.68,14607.7 295.08,-303.4 19.6,19.1 -295.09,303.4" /><path
             id="path280"
             style="fill:#44bc5e;fill-opacity:1;fill-rule:nonzero;stroke:none"
             d="m 7023.64,14607.7 295.09,-303.4 19.6,19.1 -295.09,303.4" /><path
             id="path282"
             style="fill:#44bc5e;fill-opacity:1;fill-rule:nonzero;stroke:none"
             d="m 6941.61,14607.7 295.09,-303.4 19.6,19.1 -295.09,303.4" /><path
             id="path284"
             style="fill:#44bc5e;fill-opacity:1;fill-rule:nonzero;stroke:none"
             d="m 6859.58,14607.7 295.09,-303.4 19.59,19.1 -295.08,303.4" /><path
             id="path286"
             style="fill:#44bc5e;fill-opacity:1;fill-rule:nonzero;stroke:none"
             d="m 6777.55,14607.7 295.09,-303.4 19.59,19.1 -295.09,303.4" /><path
             id="path288"
             style="fill:#44bc5e;fill-opacity:1;fill-rule:nonzero;stroke:none"
             d="m 6695.52,14607.7 295.09,-303.4 19.64,19.1 -295.09,303.4" /><path
             id="path290"
             style="fill:#44bc5e;fill-opacity:1;fill-rule:nonzero;stroke:none"
             d="m 6613.53,14607.7 295.09,-303.4 19.59,19.1 -295.08,303.4" /><path
             id="path292"
             style="fill:#44bc5e;fill-opacity:1;fill-rule:nonzero;stroke:none"
             d="m 6531.5,14607.7 295.09,-303.4 19.59,19.1 -295.08,303.4" /><path
             id="path294"
             style="fill:#44bc5e;fill-opacity:1;fill-rule:nonzero;stroke:none"
             d="m 6449.47,14607.7 295.08,-303.4 19.6,19.1 -295.09,303.4" /><path
             id="path296"
             style="fill:#44bc5e;fill-opacity:1;fill-rule:nonzero;stroke:none"
             d="m 6367.44,14607.7 295.08,-303.4 19.6,19.1 -295.09,303.4" /><path
             id="path298"
             style="fill:#44bc5e;fill-opacity:1;fill-rule:nonzero;stroke:none"
             d="m 6285.41,14607.7 295.08,-303.4 19.6,19.1 -295.09,303.4" /><path
             id="path300"
             style="fill:#44bc5e;fill-opacity:1;fill-rule:nonzero;stroke:none"
             d="m 6203.37,14607.7 295.09,-303.4 19.59,19.1 -295.08,303.4" /><path
             id="path302"
             style="fill:#44bc5e;fill-opacity:1;fill-rule:nonzero;stroke:none"
             d="m 6121.34,14607.7 295.09,-303.4 19.59,19.1 -295.08,303.4" /><path
             id="path304"
             style="fill:#44bc5e;fill-opacity:1;fill-rule:nonzero;stroke:none"
             d="m 12026.1,14607.7 295.1,-303.4 19.6,19.1 -295.1,303.4" /><path
             id="path306"
             style="fill:#44bc5e;fill-opacity:1;fill-rule:nonzero;stroke:none"
             d="m 11944,14607.7 295.1,-303.4 19.6,19.1 -295.1,303.4" /><path
             id="path308"
             style="fill:#44bc5e;fill-opacity:1;fill-rule:nonzero;stroke:none"
             d="m 11862,14607.7 295.1,-303.4 19.6,19.1 -295,303.4" /><path
             id="path310"
             style="fill:#44bc5e;fill-opacity:1;fill-rule:nonzero;stroke:none"
             d="m 11780,14607.7 295.1,-303.4 19.6,19.1 -295.1,303.4" /><path
             id="path312"
             style="fill:#44bc5e;fill-opacity:1;fill-rule:nonzero;stroke:none"
             d="m 11698,14607.7 295.1,-303.4 19.6,19.1 -295.1,303.4" /><path
             id="path314"
             style="fill:#44bc5e;fill-opacity:1;fill-rule:nonzero;stroke:none"
             d="m 11616,14607.7 295,-303.4 19.6,19.1 -295,303.4" /><path
             id="path316"
             style="fill:#f4f4f4;fill-opacity:1;fill-rule:nonzero;stroke:none"
             d="m 4.55859,14277.1 5912.80001,0 0,61.52 -5912.80001,0 0,-61.52 z" /><path
             id="path318"
             style="fill:#f4f4f4;fill-opacity:1;fill-rule:nonzero;stroke:none"
             d="m 5947.3,14277.1 5912.8,0 0,61.52 -5912.8,0 0,-61.52 z" /><path
             id="path320"
             style="fill:#f4f4f4;fill-opacity:1;fill-rule:nonzero;stroke:none"
             d="m 0,14607.5 5912.8,0 0,61.52 -5912.8,0 0,-61.52 z" /><path
             id="path322"
             style="fill:#f4f4f4;fill-opacity:1;fill-rule:nonzero;stroke:none"
             d="m 5942.74,14607.5 5912.8,0 0,61.52 -5912.8,0 0,-61.52 z" /><path
             id="path324"
             style="fill:#f4f4f4;fill-opacity:1;fill-rule:nonzero;stroke:none"
             d="m 7739.28,1363.96 -269.48,393.07 0,-219.16 -150.25,219.16 0,-393.94 150.25,0.5 0,-0.5 269.48,0.87" /><path
             id="path326"
             style="fill:#44bc5e;fill-opacity:1;fill-rule:nonzero;stroke:none"
             d="m 2658.51,2219 -290.69,421.78 0,-422 290.69,0.22" /><path
             id="path328"
             style="fill:#44bc5e;fill-opacity:1;fill-rule:nonzero;stroke:none"
             d="m 1153.41,2640.88 c -116.65,0 -211.211,-94.57 -211.211,-211.19 0,-116.67 94.561,-211.23 211.211,-211.23 l 0,422.42" /><path
             id="path330"
             style="fill:#41bb5d;fill-opacity:1;fill-rule:nonzero;stroke:none"
             d="m 1153.48,2218.41 c -41,0 -82.04,11.85 -117.51,35.68 33.58,-22.51 73.98,-35.63 117.44,-35.63 l 0,211.05 147.38,151.53 c 83.6,-81.35 85.46,-215.06 4.1,-298.69 -41.4,-42.56 -96.37,-63.94 -151.41,-63.94" /><path
             id="path332"
             style="fill:#29882f;fill-opacity:1;fill-rule:nonzero;stroke:none"
             d="m 1153.41,2218.46 c -43.46,0 -83.86,13.12 -117.44,35.63 -10.44,7.02 -20.4,15.04 -29.73,24.11 l 147.17,151.31 0,-211.05" /><path
             id="path334"
             style="fill:#44bc5e;fill-opacity:1;fill-rule:nonzero;stroke:none"
             d="m 3867.25,2640.92 c -116.87,0 -211.61,-94.75 -211.61,-211.64 0,-116.85 94.74,-211.6 211.61,-211.6 l 0,423.24" /><path
             id="path336"
             style="fill:#41bb5d;fill-opacity:1;fill-rule:nonzero;stroke:none"
             d="m 3867.71,2218 c -0.16,0 -0.31,0 -0.46,0 l 0,211.14 148.03,152.17 c 83.77,-81.49 85.62,-215.47 4.12,-299.23 -41.48,-42.66 -96.56,-64.08 -151.69,-64.08" /><path
             id="path338"
             style="fill:#29882f;fill-opacity:1;fill-rule:nonzero;stroke:none"
             d="m 3867.25,2218 c -53.02,0.14 -106.05,20.05 -147.06,59.93 l 147.06,151.21 0,-211.14" /><path
             id="path340"
             style="fill:#44bc5e;fill-opacity:1;fill-rule:nonzero;stroke:none"
             d="m 6126.95,1786.79 c -116.85,0 -211.6,-94.75 -211.6,-211.6 0,-116.85 94.75,-211.6 211.6,-211.6 l 0,423.2" /><path
             id="path342"
             style="fill:#41bb5d;fill-opacity:1;fill-rule:nonzero;stroke:none"
             d="m 6126.99,1363.41 c -53.18,0 -106.41,19.92 -147.52,59.89 l 0.05,0.09 c 38.14,-37.01 90.1,-59.8 147.43,-59.8 l 0,211.33 147.61,151.76 c 83.76,-81.49 85.63,-215.47 4.1,-299.24 -41.47,-42.65 -96.52,-64.03 -151.67,-64.03" /><path
             id="path344"
             style="fill:#29882f;fill-opacity:1;fill-rule:nonzero;stroke:none"
             d="m 6126.95,1363.59 c -57.33,0 -109.29,22.79 -147.43,59.8 l 147.43,151.53 0,-211.33" /><path
             id="path346"
             style="fill:#44bc5e;fill-opacity:1;fill-rule:nonzero;stroke:none"
             d="m 7031.35,1786.65 c -116.9,0 -211.65,-94.75 -211.65,-211.6 0,-116.89 94.75,-211.59 211.65,-211.59 l 0,423.19" /><path
             id="path348"
             style="fill:#41bb5d;fill-opacity:1;fill-rule:nonzero;stroke:none"
             d="m 7032.35,1363.41 c -3.51,0 -6.97,0.05 -10.48,0.23 3.14,-0.14 6.29,-0.18 9.48,-0.18 l 0,210.45 148.56,152.77 c 83.77,-81.49 85.64,-215.47 4.15,-299.24 -41.47,-42.65 -96.57,-64.03 -151.71,-64.03" /><path
             id="path350"
             style="fill:#29882f;fill-opacity:1;fill-rule:nonzero;stroke:none"
             d="m 7031.35,1363.46 c -3.19,0 -6.34,0.04 -9.48,0.18 -49.63,2.46 -98.62,22.29 -137.04,59.66 l 146.52,150.61 0,-210.45" /><path
             id="path352"
             style="fill:#44bc5e;fill-opacity:1;fill-rule:nonzero;stroke:none"
             d="m 2124.82,2590.47 0,52.23 c -117.04,0 -212.27,-95.25 -212.27,-212.33 0,-117.03 95.23,-212.28 212.27,-212.28 l 0,52.23 c -78.56,0 -144.04,56.92 -157.48,131.71 l 90.87,0 0,52.22 -91.65,0 c 11.55,76.98 78.12,136.22 158.26,136.22" /><path
             id="path354"
             style="fill:#44bc5e;fill-opacity:1;fill-rule:nonzero;stroke:none"
             d="m 3519.59,1362.18 -204.81,0 0,427.07 52.49,0 0,-374.57 152.32,0 0,-52.5" /><path
             id="path356"
             style="fill:#44bc5e;fill-opacity:1;fill-rule:nonzero;stroke:none"
             d="m 7727.84,1755.34 c 0,-114.43 92.83,-207.22 207.27,-207.22 114.48,0.05 207.22,92.83 207.22,207.27 l -414.49,-0.05" /><path
             id="path358"
             style="fill:#29882f;fill-opacity:1;fill-rule:nonzero;stroke:none"
             d="m 7935.11,1606.59 c -82.17,0 -148.8,66.59 -148.8,148.75 l 297.55,0 c 0,-82.12 -66.63,-148.75 -148.75,-148.75" /><path
             id="path360"
             style="fill:#44bc5e;fill-opacity:1;fill-rule:nonzero;stroke:none"
             d="m 1577.79,1363.55 50.7344,0 0,113.84 -50.7344,0 0,-113.84 z" /><path
             id="path362"
             style="fill:#44bc5e;fill-opacity:1;fill-rule:nonzero;stroke:none"
             d="m 1728.14,2501.15 c 0,78.15 -63.36,141.55 -141.54,141.55 l 0,-50.36 c 50.38,0 91.21,-40.84 91.21,-91.19 0,-50.36 -40.83,-91.24 -91.21,-91.24 l 0,-191.82 51.38,0 0,151.17 c 52.77,20.55 90.16,71.87 90.16,131.89" /><path
             id="path364"
             style="fill:#44bc5e;fill-opacity:1;fill-rule:nonzero;stroke:none"
             d="m 3414.75,2499 0,-49.76 c 49.8,0 90.16,-40.38 90.16,-90.14 0,-49.77 -40.36,-90.15 -90.16,-90.15 l 0,-49.77 c 77.29,0 139.91,62.67 139.91,139.92 0,77.29 -62.62,139.9 -139.91,139.9" /><path
             id="path366"
             style="fill:#44bc5e;fill-opacity:1;fill-rule:nonzero;stroke:none"
             d="m 3415.34,2361.33 0,49.76 c -49.8,0 -90.16,40.38 -90.16,90.15 0,49.76 40.36,90.14 90.16,90.14 l 0,49.77 c -77.29,0 -139.91,-62.67 -139.91,-139.91 0,-77.25 62.62,-139.91 139.91,-139.91" /><path
             id="path368"
             style="fill:#41bb5d;fill-opacity:1;fill-rule:nonzero;stroke:none"
             d="m 3415.19,2319.36 0,41.97 c 0.05,0 0.1,0 0.15,0 l 0,49.76 c -0.05,0 -0.1,0 -0.15,0 l 0,38.15 c 41.13,-0.18 75.75,-27.94 86.36,-65.72 -11.14,-37.09 -45.59,-64.16 -86.36,-64.16 m 18.78,178.32 c -6.14,0.87 -12.41,1.32 -18.78,1.32 l 0,0.64 c 6.44,0 12.73,-0.68 18.78,-1.96" /><path
             id="path370"
             style="fill:#29882f;fill-opacity:1;fill-rule:nonzero;stroke:none"
             d="m 3501.55,2383.52 c -10.61,37.78 -45.23,65.54 -86.36,65.72 l 0,49.76 c 6.37,0 12.64,-0.45 18.78,-1.32 40.78,-8.61 71.38,-44.84 71.38,-88.18 0,-9.02 -1.33,-17.73 -3.8,-25.98" /><path
             id="path372"
             style="fill:#29882f;fill-opacity:1;fill-rule:nonzero;stroke:none"
             d="m 3415.34,2361.33 c -0.05,0 -0.1,0 -0.15,0 l 0,49.76 c 0.05,0 0.1,0 0.15,0 l 0,-49.76" /><path
             id="path374"
             style="fill:#41bb5d;fill-opacity:1;fill-rule:nonzero;stroke:none"
             d="m 3415.05,2360.28 c -8.1,0 -15.94,1.05 -23.4,3.05 7.61,-1.32 15.43,-2 23.4,-2 l 0,-1.05 m 0,50.81 c -41.03,0.14 -75.6,27.67 -86.38,65.22 11.13,37.19 45.58,64.26 86.38,64.26 l 0,-41.57 c -0.1,0 -0.2,0 -0.3,0 l 0,-49.76 c 0.1,0 0.2,0 0.3,0 l 0,-38.15" /><path
             id="path376"
             style="fill:#29882f;fill-opacity:1;fill-rule:nonzero;stroke:none"
             d="m 3415.05,2449.24 c -0.1,0 -0.2,0 -0.3,0 l 0,49.76 c 0.1,0 0.2,0 0.3,0 l 0,-49.76" /><path
             id="path378"
             style="fill:#29882f;fill-opacity:1;fill-rule:nonzero;stroke:none"
             d="m 3415.05,2361.33 c -7.97,0 -15.79,0.68 -23.4,2 -38.45,10.3 -66.76,45.39 -66.76,87.09 0,8.98 1.32,17.69 3.78,25.89 10.78,-37.55 45.35,-65.08 86.38,-65.22 l 0,-49.76" /><path
             id="path380"
             style="fill:#44bc5e;fill-opacity:1;fill-rule:nonzero;stroke:none"
             d="m 1680.57,1705.07 c -41.77,41.75 -109.48,41.75 -151.25,0 -41.76,-41.78 -41.76,-109.51 0,-151.25 l 151.25,151.25" /><path
             id="path382"
             style="fill:#41bb5d;fill-opacity:1;fill-rule:nonzero;stroke:none"
             d="m 1680.98,1553.73 -75.87,75.88 75.46,75.46 c -15.94,15.91 -35.66,25.8 -56.27,29.54 20.76,-3.7 40.63,-13.58 56.67,-29.63 41.76,-41.74 41.77,-109.46 0.01,-151.25" /><path
             id="path384"
             style="fill:#29882f;fill-opacity:1;fill-rule:nonzero;stroke:none"
             d="m 1605.11,1629.61 -75.38,75.37 c 20.89,20.88 48.25,31.31 75.63,31.31 6.34,0 12.68,-0.54 18.94,-1.68 20.61,-3.74 40.33,-13.63 56.27,-29.54 l -75.46,-75.46" /><path
             id="path386"
             style="fill:#44bc5e;fill-opacity:1;fill-rule:nonzero;stroke:none"
             d="m 4114.98,2429.32 c 0,-115.43 93.59,-209.04 209.04,-209.04 115.44,0 209.03,93.61 209.03,209.04 l -418.07,0" /><path
             id="path388"
             style="fill:#41bb5d;fill-opacity:1;fill-rule:nonzero;stroke:none"
             d="m 4322.31,2429.32 -152.51,0 c 0.09,31.81 10.04,63.85 30.56,91.29 l 121.95,-91.29" /><path
             id="path390"
             style="fill:#29882f;fill-opacity:1;fill-rule:nonzero;stroke:none"
             d="m 4322.93,2275.52 c -0.08,0 -0.15,0 -0.23,0 31.87,0.04 64,10.02 91.47,30.57 12.13,9.07 22.54,19.6 31.15,31.18 l 0.41,-0.32 c -30.09,-40.2 -76.15,-61.43 -122.8,-61.43 m -122.85,61.75 c -20.02,26.88 -30.37,59.33 -30.28,92.05 l 152.51,0 0.39,-0.27 -122.62,-91.78" /><path
             id="path392"
             style="fill:#44bc5e;fill-opacity:1;fill-rule:nonzero;stroke:none"
             d="m 2749.52,1574.73 c 0,-116.66 94.61,-211.32 211.32,-211.32 116.71,0 211.32,94.66 211.32,211.32 l -422.64,0" /><path
             id="path394"
             style="fill:#44bc5e;fill-opacity:1;fill-rule:nonzero;stroke:none"
             d="m 2606.1,2219.23 51.4453,0 0,421.551 -51.4453,0 0,-421.551 z" /><path
             id="path396"
             style="fill:#41bb5d;fill-opacity:1;fill-rule:nonzero;stroke:none"
             d="m 2414.7,2218.78 0,0.04 196.31,0.14 0.03,-0.05 -196.34,-0.13" /><path
             id="path398"
             style="fill:#29882f;fill-opacity:1;fill-rule:nonzero;stroke:none"
             d="m 2414.7,2218.82 0,284.97 191.4,-277.68 0,-6.88 4.72,0 0.19,-0.27 -196.31,-0.14" /><path
             id="path400"
             style="fill:#29882f;fill-opacity:1;fill-rule:nonzero;stroke:none"
             d="m 2610.82,2219.23 -4.72,0 0,6.88 4.72,-6.88" /><path
             id="path402"
             style="fill:#41bb5d;fill-opacity:1;fill-rule:nonzero;stroke:none"
             d="m 3519.61,1362.14 -133.19,0.04 133.15,0 0.04,-0.04 m -204.83,0.09 -0.07,0 0,298.41 0.07,-0.09 0,-298.32 m 168.76,52.45 -116.27,0 0,169.4 116.27,-169.4" /><path
             id="path404"
             style="fill:#29882f;fill-opacity:1;fill-rule:nonzero;stroke:none"
             d="m 3519.57,1362.18 -133.15,0 -71.64,0.05 0,298.32 52.49,-76.47 0,-169.4 116.27,0 36.03,-52.5" /><path
             id="path406"
             style="fill:#44bc5e;fill-opacity:1;fill-rule:nonzero;stroke:none"
             d="m 7909.09,1364.1 52,0 0,152.625 -52,0 0,-152.625 z" /><path
             id="path408"
             style="fill:#44bc5e;fill-opacity:1;fill-rule:nonzero;stroke:none"
             d="m 3856.98,1686.62 57.1,-98.9 -114.21,0 57.11,98.9 z m 102.59,-177.74 43.98,25.39 -23.51,40.74 0.01,0 -123.07,213.15 -123.09,-213.15 0.01,0 -23.51,-40.74 43.98,-25.39 12.93,22.42 179.35,0 12.92,-22.42" /><path
             id="path410"
             style="fill:#41bb5d;fill-opacity:1;fill-rule:nonzero;stroke:none"
             d="m 4475.6,2429.32 -152.51,0 121.95,91.29 c 20.52,-27.44 30.47,-59.48 30.56,-91.29" /><path
             id="path412"
             style="fill:#29882f;fill-opacity:1;fill-rule:nonzero;stroke:none"
             d="m 4322.47,2275.52 c -46.65,0 -92.71,21.23 -122.81,61.43 l 0.42,0.32 c 8.62,-11.58 19.02,-22.11 31.15,-31.18 27.48,-20.55 59.61,-30.53 91.47,-30.57 -0.08,0 -0.15,0 -0.23,0 m 122.85,61.75 -122.62,91.78 0.39,0.27 152.51,0 c 0.1,-32.72 -10.25,-65.17 -30.28,-92.05" /><path
             id="path414"
             style="fill:#1e591e;fill-opacity:1;fill-rule:nonzero;stroke:none"
             d="m 4322.7,2275.52 c -31.86,0.04 -63.99,10.02 -91.47,30.57 -12.13,9.07 -22.53,19.6 -31.15,31.18 l 122.62,91.78 122.62,-91.78 c -8.61,-11.58 -19.02,-22.11 -31.15,-31.18 -27.47,-20.55 -59.6,-30.53 -91.47,-30.57" /><path
             id="path416"
             style="fill:#41bb5d;fill-opacity:1;fill-rule:nonzero;stroke:none"
             d="m 2960.11,1574.73 -152.96,0 c -0.22,32.68 9.83,65.63 30.89,93.8 l 123.68,-92.57 -1.61,-1.23" /><path
             id="path418"
             style="fill:#29882f;fill-opacity:1;fill-rule:nonzero;stroke:none"
             d="m 2961.94,1420.74 c -0.07,0 -0.15,0 -0.22,0 32.21,0.05 64.69,10.12 92.47,30.9 12.27,9.21 22.79,19.83 31.5,31.54 l 0.41,-0.32 c -30.43,-40.65 -76.99,-62.12 -124.16,-62.12 m -124.19,62.44 c -19.93,26.8 -30.38,59.02 -30.6,91.55 l 152.96,0 -122.36,-91.55" /><path
             id="path420"
             style="fill:#41bb5d;fill-opacity:1;fill-rule:nonzero;stroke:none"
             d="m 3116.29,1574.73 -152.97,0 -1.6,1.23 123.67,92.57 c 21.07,-28.17 31.12,-61.12 30.9,-93.8" /><path
             id="path422"
             style="fill:#29882f;fill-opacity:1;fill-rule:nonzero;stroke:none"
             d="m 2961.5,1420.74 c -47.17,0 -93.74,21.47 -124.16,62.12 l 0.41,0.32 c 8.71,-11.71 19.23,-22.33 31.5,-31.54 27.78,-20.78 60.26,-30.85 92.47,-30.9 -0.08,0 -0.15,0 -0.22,0 m 124.19,62.44 -122.37,91.55 152.97,0 c -0.22,-32.53 -10.67,-64.8 -30.6,-91.55" /><path
             id="path424"
             style="fill:#27802d;fill-opacity:1;fill-rule:nonzero;stroke:none"
             d="m 2963.32,1574.73 -3.21,0 1.61,1.23 1.6,-1.23" /><path
             id="path426"
             style="fill:#1e591e;fill-opacity:1;fill-rule:nonzero;stroke:none"
             d="m 2961.72,1420.74 c -32.21,0.05 -64.69,10.12 -92.47,30.9 -12.27,9.21 -22.79,19.83 -31.5,31.54 l 122.36,91.55 3.21,0 122.37,-91.55 c -8.71,-11.71 -19.23,-22.33 -31.5,-31.54 -27.78,-20.78 -60.26,-30.85 -92.47,-30.9" /><path
             id="path428"
             style="fill:#44bc5e;fill-opacity:1;fill-rule:nonzero;stroke:none"
             d="m 2140.23,1357.81 -47.88,74.97 0,-68.32 -51.44,0 0,244.45 142.67,-223.44 -43.35,-27.66" /><path
             id="path430"
             style="fill:#44bc5e;fill-opacity:1;fill-rule:nonzero;stroke:none"
             d="m 2183.19,1647.15 c 0,78.25 -63.42,141.69 -141.69,141.69 l 0,-50.41 c 50.44,0 91.3,-40.88 91.3,-91.28 0,-50.45 -40.86,-91.33 -91.3,-91.33 l 0,-192.04 51.44,0 0,151.34 c 52.82,20.61 90.25,71.92 90.25,132.03" /><path
             id="path432"
             style="fill:#44bc5e;fill-opacity:1;fill-rule:nonzero;stroke:none"
             d="m 5742.58,2591.97 0,52.23 c -117.08,0 -212.28,-95.25 -212.28,-212.28 0,-117.08 95.2,-212.32 212.28,-212.32 l 0,52.22 c -78.56,0 -144.05,56.97 -157.5,131.71 l 90.87,0 0,52.23 -91.64,0 c 11.53,76.97 78.11,136.21 158.27,136.21" /><path
             id="path434"
             style="fill:#44bc5e;fill-opacity:1;fill-rule:nonzero;stroke:none"
             d="m 1227.68,1364.32 c -115.75,0 -209.93,94.2 -209.93,209.96 0,115.76 94.18,209.95 209.93,209.95 l 0,-51.68 c -87.27,0 -158.28,-71 -158.28,-158.27 0,-87.27 71.01,-158.28 158.28,-158.28 l 0,-51.68" /><path
             id="path436"
             style="fill:#44bc5e;fill-opacity:1;fill-rule:nonzero;stroke:none"
             d="m 2602.5,1362.82 c -118.27,0 -214.48,96.21 -214.48,214.51 0,118.27 96.21,214.47 214.48,214.47 l 0,-52.73 c -89.17,0 -161.71,-72.55 -161.71,-161.74 0,-89.18 72.54,-161.74 161.71,-161.74 l 0,-52.77" /><path
             id="path438"
             style="fill:#44bc5e;fill-opacity:1;fill-rule:nonzero;stroke:none"
             d="m 5308.13,2218.68 c -115.75,0 -209.91,94.16 -209.91,209.91 0,115.8 94.16,209.96 209.91,209.96 l 0,-51.63 c -87.27,0 -158.27,-71.01 -158.27,-158.33 0,-87.27 71,-158.27 158.27,-158.27 l 0,-51.64" /><path
             id="path440"
             style="fill:#44bc5e;fill-opacity:1;fill-rule:nonzero;stroke:none"
             d="m 5744.45,1365.42 c -115.75,0 -209.95,94.15 -209.95,209.91 0,115.8 94.2,209.96 209.95,209.96 l 0,-51.64 c -87.27,0 -158.32,-71 -158.32,-158.32 0,-87.28 71.05,-158.28 158.32,-158.28 l 0,-51.63" /><path
             id="path442"
             style="fill:#44bc5e;fill-opacity:1;fill-rule:nonzero;stroke:none"
             d="m 5307.04,1734.93 0,52.22 c -117.03,0 -212.28,-95.25 -212.28,-212.32 0,-117.03 95.25,-212.28 212.28,-212.28 l 0,52.22 c -78.57,0 -144.01,56.93 -157.45,131.66 l 90.87,0 0,52.28 -91.69,0 c 11.57,76.97 78.15,136.22 158.27,136.22" /><path
             id="path444"
             style="fill:#44bc5e;fill-opacity:1;fill-rule:nonzero;stroke:none"
             d="m 6671.27,1363.32 51.4531,0 0,424.191 -51.4531,0 0,-424.191 z" /><path
             id="path446"
             style="fill:#44bc5e;fill-opacity:1;fill-rule:nonzero;stroke:none"
             d="m 6723,1363.28 -289.85,423.28 0,-423.47 289.85,0.19" /><path
             id="path448"
             style="fill:#41bb5d;fill-opacity:1;fill-rule:nonzero;stroke:none"
             d="m 6479.87,1363.09 0,0.05 197.05,0.14 0.1,-0.14 -197.15,-0.05" /><path
             id="path450"
             style="fill:#29882f;fill-opacity:1;fill-rule:nonzero;stroke:none"
             d="m 6479.87,1363.14 0,286.65 197.05,-286.51 -197.05,-0.14" /><path
             id="path452"
             style="fill:#41bb5d;fill-opacity:1;fill-rule:nonzero;stroke:none"
             d="m 7469.8,1537.87 -150.25,219.16 150.25,-219.16 0,0" /><path
             id="path454"
             style="fill:#41bb5d;fill-opacity:1;fill-rule:nonzero;stroke:none"
             d="m 7319.55,1363.09 0,393.94 150.25,-219.16 0,-64.12 -106.64,155.58 0,-266.1 -43.61,-0.14" /><path
             id="path456"
             style="fill:#44bc5e;fill-opacity:1;fill-rule:nonzero;stroke:none"
             d="m 4391.77,1357.81 -47.88,74.97 0,-68.32 -51.44,0 0,244.45 142.67,-223.44 -43.35,-27.66" /><path
             id="path458"
             style="fill:#44bc5e;fill-opacity:1;fill-rule:nonzero;stroke:none"
             d="m 4434.74,1647.15 c 0,78.25 -63.42,141.69 -141.69,141.69 l 0,-50.41 c 50.43,0 91.3,-40.88 91.3,-91.28 0,-50.45 -40.87,-91.33 -91.3,-91.33 l 0,-192.04 51.43,0 0,151.34 c 52.82,20.61 90.26,71.92 90.26,132.03" /><path
             id="path460"
             style="fill:#44bc5e;fill-opacity:1;fill-rule:nonzero;stroke:none"
             d="m 4832.26,2212.99 -47.85,75.01 0,-68.36 -51.45,0 0,244.45 142.64,-223.39 -43.34,-27.71" /><path
             id="path462"
             style="fill:#44bc5e;fill-opacity:1;fill-rule:nonzero;stroke:none"
             d="m 4875.23,2502.33 c 0,78.25 -63.43,141.69 -141.68,141.69 l 0,-50.41 c 50.45,0 91.28,-40.88 91.28,-91.28 0,-50.4 -40.83,-91.28 -91.28,-91.28 l 0,-192.05 51.45,0 0,151.31 c 52.77,20.6 90.23,71.91 90.23,132.02" /><path
             id="path464"
             style="fill:#44bc5e;fill-opacity:1;fill-rule:nonzero;stroke:none"
             d="m 1135.53,900.391 c 0,4.968 -0.67,9.523 -2,13.625 -1.34,4.101 -3.25,7.656 -5.74,10.574 -2.49,2.871 -5.54,5.148 -9.18,6.789 -3.64,1.641 -7.7,2.461 -12.19,2.461 l -14.19,0 0,-67.309 14.19,0 c 4.61,0 8.73,0.864 12.37,2.551 3.64,1.684 6.7,4.055 9.19,7.109 2.48,3.008 4.36,6.606 5.64,10.711 1.27,4.145 1.91,8.61 1.91,13.489 z m -78.78,-64.762 0,129.156 49.67,0 c 10.67,0 20.07,-1.687 28.2,-5.105 8.13,-3.418 14.92,-8.02 20.37,-13.809 5.46,-5.832 9.59,-12.668 12.38,-20.461 2.79,-7.84 4.18,-16.18 4.18,-25.019 0,-9.844 -1.55,-18.731 -4.64,-26.661 -3.09,-7.929 -7.49,-14.722 -13.19,-20.371 -5.7,-5.652 -12.55,-10.027 -20.56,-13.125 -8,-3.101 -16.91,-4.605 -26.74,-4.605 l -49.67,0" /><path
             id="path466"
             style="fill:#44bc5e;fill-opacity:1;fill-rule:nonzero;stroke:none"
             d="m 1602.2,884.531 -11.46,40.059 -12.01,-40.059 23.47,0 z m -27.65,80.254 32.38,0 44.75,-129.156 -36.02,0 -7.82,25.25 -34.38,0 -7.64,-25.25 -36.21,0 44.94,129.156" /><path
             id="path468"
             style="fill:#44bc5e;fill-opacity:1;fill-rule:nonzero;stroke:none"
             d="m 2039.81,964.785 23.1,-55.875 23.65,55.875 38.58,0 -44.58,-86.406 0,-42.75 -35.29,0 0,43.113 -43.85,86.043 38.39,0" /><path
             id="path470"
             style="fill:#44bc5e;fill-opacity:1;fill-rule:nonzero;stroke:none"
             d="m 2553.95,922.582 c -3.64,2.188 -7.4,4.106 -11.27,5.789 -3.28,1.457 -6.95,2.828 -11.01,4.102 -4.07,1.277 -8.04,1.914 -11.92,1.914 -3.16,0 -5.67,-0.5 -7.55,-1.457 -1.88,-0.957 -2.82,-2.598 -2.82,-4.922 0,-1.688 0.55,-3.055 1.64,-4.149 1.09,-1.093 2.66,-2.097 4.73,-3.007 2.06,-0.911 4.57,-1.821 7.55,-2.645 2.97,-0.863 6.33,-1.867 10.09,-3.098 5.95,-1.82 11.31,-3.828 16.11,-6.015 4.79,-2.188 8.88,-4.739 12.28,-7.703 3.39,-3.004 6,-6.606 7.82,-10.844 1.81,-4.238 2.73,-9.391 2.73,-15.449 0,-7.793 -1.43,-14.313 -4.28,-19.551 -2.85,-5.289 -6.61,-9.527 -11.28,-12.672 -4.67,-3.145 -9.94,-5.422 -15.82,-6.789 -5.89,-1.414 -11.8,-2.098 -17.74,-2.098 -4.73,0 -9.58,0.367 -14.56,1.094 -4.97,0.73 -9.91,1.734 -14.82,3.055 -4.92,1.367 -9.65,2.918 -14.19,4.738 -4.55,1.824 -8.77,3.875 -12.65,6.199 l 15.28,31.129 c 4.25,-2.691 8.67,-5.062 13.28,-7.113 3.88,-1.82 8.28,-3.461 13.19,-4.922 4.92,-1.457 9.92,-2.188 15.01,-2.188 3.88,0 6.58,0.504 8.1,1.551 1.52,1.047 2.27,2.418 2.27,4.102 0,1.824 -0.75,3.371 -2.27,4.648 -1.52,1.278 -3.61,2.371 -6.28,3.371 -2.67,0.957 -5.73,1.914 -9.18,2.875 -3.46,1 -7.13,2.141 -11.01,3.461 -5.7,1.961 -10.61,4.055 -14.74,6.289 -4.12,2.235 -7.52,4.785 -10.19,7.657 -2.66,2.824 -4.63,6.062 -5.91,9.707 -1.27,3.648 -1.91,7.839 -1.91,12.578 0,7.156 1.3,13.445 3.91,18.914 2.61,5.469 6.16,9.98 10.65,13.625 4.48,3.648 9.6,6.426 15.37,8.297 5.76,1.867 11.85,2.824 18.28,2.824 4.73,0 9.34,-0.457 13.83,-1.367 4.48,-0.914 8.82,-2.051 13.01,-3.465 4.18,-1.41 8.09,-2.918 11.73,-4.555 3.64,-1.644 6.91,-3.191 9.83,-4.648 l -15.29,-29.262" /><path
             id="path472"
             style="fill:#44bc5e;fill-opacity:1;fill-rule:nonzero;stroke:none"
             d="m 7714.26,819.863 c 2.51,63.938 -33.72,123.047 -91.83,149.844 -58.11,26.75 -126.6,15.906 -173.59,-27.527 -46.98,-43.43 -63.16,-110.879 -40.97,-170.899 22.1,-60.019 78.25,-100.761 142.15,-103.269 30.07,-1.184 59.78,6.336 85.72,21.418 -31.27,28.074 -51.09,66.082 -56.24,107.691 -6.93,-5.559 -15.68,-8.613 -24.75,-8.25 -33.08,1.277 -48.12,41.973 -23.79,64.488 24.34,22.512 63.76,4.375 62.44,-28.757 -2.19,-56.465 25.89,-109.832 73.69,-139.957 21.51,34.089 43.02,68.179 64.49,102.265 -11.21,7.113 -17.82,19.645 -17.32,32.953" /><path
             id="path474"
             style="fill:#44bc5e;fill-opacity:1;fill-rule:nonzero;stroke:none"
             d="m 7641.02,692.531 0,0 0,0 0,0 z" /><path
             id="path476"
             style="fill:#44bc5e;fill-opacity:1;fill-rule:nonzero;stroke:none"
             d="m 7584.79,802.227 0,0" /><path
             id="path478"
             style="fill:#44bc5e;fill-opacity:1;fill-rule:nonzero;stroke:none"
             d="m 7723.15,843.469 0,-0.137 0.13,0.137 -0.13,0" /><path
             id="path480"
             style="fill:#44bc5e;fill-opacity:1;fill-rule:nonzero;stroke:none"
             d="m 7945.5,789.512 -39.06,24.379 c 0.46,12.214 -0.5,24.609 -3.01,36.961 l -0.09,1.867 c -0.09,1.14 0.59,2.554 1.51,3.191 l 38.92,26.34 c 0.91,0.641 1.32,2.051 0.86,3.055 l -18.77,43.066 c -0.46,1.047 -1.69,1.688 -2.78,1.414 l -46.63,-10.754 c -1.09,-0.273 -2.64,0.227 -3.37,1.047 l -24.74,23.606 c -0.87,0.73 -1.37,2.234 -1.19,3.328 l 9.07,47.168 c 0.23,1.093 -0.45,2.324 -1.51,2.734 l -43.75,17.176 c -1.04,0.41 -2.36,-0.04 -2.96,-1 l -25.43,-40.695 -0.27,-0.317 c -8.11,1.641 -16.5,2.688 -25.02,3.004 -5.79,0.23 -11.53,0.137 -17.27,-0.27 l -24.79,36.598 c -0.64,0.91 -2.01,1.32 -3.06,0.86 l -43.02,-18.774 c -1.05,-0.457 -1.68,-1.73 -1.41,-2.824 l 8.07,-34.91 c 2.55,-2.324 5.06,-4.742 7.52,-7.246 l 3.64,-3.828 -0.05,-0.047 c 23.93,-26.25 39.06,-59.7 43.21,-94.973 6.52,4.602 14.4,7.062 22.51,6.742 37.37,-1.457 48.67,-51.449 15.59,-68.859 18.46,-35.047 36.91,-70.094 55.32,-105.137 28.9,15.223 51.37,38.555 65.58,66.035 l 37.42,-7.199 c 1.09,-0.184 2.37,0.5 2.78,1.547 l 17.14,43.707 c 0.41,1.047 0,2.414 -0.96,3.008" /><path
             id="path482"
             style="fill:#44bc5e;fill-opacity:1;fill-rule:nonzero;stroke:none"
             d="m 6864.91,897.656 c 0,-17.32 12.58,-30.078 26.98,-30.078 14.45,0 25.93,12.758 25.93,30.078 0,17.27 -11.48,29.711 -25.93,29.711 -14.58,0 -26.98,-12.441 -26.98,-29.711 z m 95.8,0.18 c 0,-37.461 -29.17,-65.031 -69.32,-65.031 -40.19,0 -69.36,27.39 -69.36,65.031 0,37.461 29.17,64.305 69.36,64.305 40.15,0 69.32,-27.024 69.32,-64.305" /><path
             id="path484"
             style="fill:#44bc5e;fill-opacity:1;fill-rule:nonzero;stroke:none"
             d="m 7089.32,947.738 -15.14,-31.718 c -12.8,7.019 -32.4,14.765 -43.38,14.765 -4.69,0 -7.79,-1.457 -7.79,-5.238 0,-15.813 65.39,-5.926 65.39,-51.68 0,-28.074 -24.65,-40.515 -53.13,-40.515 -21.97,0 -46.44,7.382 -63.22,20.187 l 15.5,31.313 c 12.99,-10.805 35.32,-19.598 48.08,-19.598 6.15,0 10.07,1.957 10.07,6.469 0,16.363 -65.35,5.562 -65.35,49.859 0,25.246 21.24,41.106 54.05,41.106 19.96,0 40.7,-5.969 54.92,-14.95" /><path
             id="path486"
             style="fill:#44bc5e;fill-opacity:1;fill-rule:nonzero;stroke:none"
             d="m 7225.49,939.082 -24.15,-28.668 c -7.57,10.301 -18.92,16.953 -28.63,16.953 -15.13,0 -26.11,-12.074 -26.11,-28.801 0,-16.953 10.98,-29.211 26.11,-29.211 8.98,0 20.33,5.606 28.63,14.446 l 24.15,-25.793 c -14.08,-15.313 -35.5,-25.203 -54.96,-25.203 -38.69,0 -66.82,27.57 -66.82,65.215 0,37.097 28.81,64.121 68.46,64.121 19.28,0 40.33,-9.024 53.32,-23.059" /><path
             id="path488"
             style="fill:#44bc5e;fill-opacity:1;fill-rule:nonzero;stroke:none"
             d="m 7282.91,929.148 0,-15.453 59.11,0 0,-31.718 -59.11,0 0,-15.676 66.67,0 0,-31.672 -108.46,0 0,126.238 106.82,0 0,-31.719 -65.03,0" /><path
             id="path490"
             style="fill:#44bc5e;fill-opacity:1;fill-rule:nonzero;stroke:none"
             d="m 6844.5,706.066 27.61,0 c 21.1,0 37.6,15.86 37.6,36.961 0,21.235 -16.77,37.047 -38.01,37.047 l -27.2,0 0,-74.008 z m 27.48,84.446 c 27.61,0 48.72,-20.414 48.72,-47.348 0,-26.934 -21.24,-47.352 -49.13,-47.352 l -37.87,0 0,94.7 38.28,0" /><path
             id="path492"
             style="fill:#44bc5e;fill-opacity:1;fill-rule:nonzero;stroke:none"
             d="m 7028.98,778.207 -21.1,-48.035 42.47,0 -21.37,48.035 z m -25.71,-58.469 -10.57,-23.926 -11.49,0 42.48,94.7 11.26,0 42.34,-94.7 -11.76,0 -10.58,23.926 -51.68,0" /><path
             id="path494"
             style="fill:#44bc5e;fill-opacity:1;fill-rule:nonzero;stroke:none"
             d="m 7176.36,695.812 -10.66,0 0,32.036 -36.69,62.664 11.26,0 30.71,-49.399 30.31,49.399 11.07,0 -36,-62.25 0,-32.45" /><path
             id="path496"
             style="fill:#44bc5e;fill-opacity:1;fill-rule:nonzero;stroke:none"
             d="m 7342.47,782.129 -4.6,-10.164 c -8.57,5.695 -18.55,8.019 -26.11,8.019 -12.22,0 -20.19,-4.601 -20.19,-12.621 0,-24.336 53.32,-11.621 53.18,-45.984 0,-15.859 -13.94,-25.977 -34.22,-25.977 -13.81,0 -27.35,5.926 -36.28,14.446 l 4.88,9.754 c 8.79,-8.524 20.82,-13.399 31.53,-13.399 13.68,0 22.2,5.559 22.2,14.629 0.14,24.883 -53.18,11.621 -53.18,45.617 0,14.856 13.12,24.473 32.71,24.473 10.99,0 22.2,-3.508 30.08,-8.793" /><path
             id="path498"
             style="fill:#44bc5e;fill-opacity:1;fill-rule:nonzero;stroke:none"
             d="m 8018,836.039 0,121.91 -26.93,0 0,3.598 30.49,0 0,-125.508 -3.56,0" /><path
             id="path500"
             style="fill:#44bc5e;fill-opacity:1;fill-rule:nonzero;stroke:none"
             d="m 8018,836.039 4.56,0 0,126.465 -31.49,0 0,-4.555 4.56,0 0,3.598 -4.56,0 0,-4.555 25.93,0 0,-120.953 4.56,0 0,4.559 -3.56,0 0,-4.559 4.56,0 -4.56,0 0,-4.555 8.12,0 0,134.621 -39.6,0 0,-12.714 26.88,0 0.05,-121.907 4.55,0 0,4.555" /><path
             id="path502"
             style="fill:#44bc5e;fill-opacity:1;fill-rule:nonzero;stroke:none"
             d="m 8077.16,957.949 0,-52.047 c 8.79,3.008 19.55,5.016 27.43,5.016 24.61,0 40.43,-13.672 40.43,-34.637 0,-24.246 -16,-39.875 -40.79,-39.875 -12.35,0 -27.44,4.875 -38.55,12.211 l 1.77,2.871 c 10.76,-7.015 25.3,-11.484 36.78,-11.484 22.65,0 37.19,14.176 37.19,36.277 0,18.824 -14.54,31.035 -36.83,31.035 -9.16,0 -21.32,-2.507 -31.03,-6.472 l 0,60.703 66.94,0 0,-3.598 -63.34,0" /><path
             id="path504"
             style="fill:#44bc5e;fill-opacity:1;fill-rule:nonzero;stroke:none"
             d="m 8077.16,957.949 -4.56,0 0,-58.469 6.02,2.094 c 8.29,2.871 18.82,4.785 25.97,4.785 11.49,0 20.46,-3.191 26.48,-8.339 5.97,-5.196 9.34,-12.395 9.39,-21.739 -0.05,-11.164 -3.65,-19.777 -9.75,-25.793 -6.11,-5.972 -15,-9.48 -26.48,-9.527 -11.21,-0.043 -25.75,4.605 -36.05,11.441 l -2.5,-3.785 3.82,-2.414 1.82,2.871 -3.87,2.414 -2.5,-3.828 c 11.62,-7.472 26.66,-12.168 39.28,-12.211 12.26,-0.047 22.83,3.871 30.26,11.117 7.43,7.246 11.48,17.684 11.48,29.715 0.05,10.574 -4.24,19.824 -11.66,26.067 -7.48,6.246 -17.77,9.527 -29.72,9.527 -9.93,-0.047 -22.47,-2.598 -32.76,-6.789 l 1.73,-4.242 4.56,0 0,56.148 62.38,0 0,4.555 -4.55,0 0,-3.598 4.55,0 0,4.555 -67.9,0 0,-4.555 4.56,0 0,-4.558 67.9,0 0,12.714 -76.06,0 0,-72.05 6.29,2.597 c 9.07,3.692 20.96,6.153 29.3,6.106 10.35,0 18.41,-2.824 23.84,-7.383 5.37,-4.602 8.38,-10.844 8.43,-19.094 -0.05,-10.07 -3.24,-17.82 -8.75,-23.152 -5.47,-5.375 -13.49,-8.567 -23.88,-8.567 -10.3,-0.046 -24.38,4.239 -34.32,10.754 l -3.87,2.555 -6.61,-10.617 3.69,-2.465 c 11.99,-7.836 27.58,-12.894 41.11,-12.941 13.35,0 24.79,4.238 32.86,12.121 8.06,7.886 12.48,19.187 12.48,32.312 0,11.621 -4.51,21.739 -12.57,28.621 -8.07,6.926 -19.28,10.575 -32.41,10.575 -8.61,-0.047 -19.64,-2.098 -28.93,-5.289 l 1.5,-4.286 4.55,0 0,52.047 -4.55,0 0,-4.558 0,4.558" /><path
             id="path506"
             style="fill:#41bb5d;fill-opacity:1;fill-rule:nonzero;stroke:none"
             d="m 7363.16,1363.09 0,0.14 106.64,0.36 0,-0.13 -106.64,-0.37" /><path
             id="path508"
             style="fill:#41bb5d;fill-opacity:1;fill-rule:nonzero;stroke:none"
             d="m 7363.16,1363.23 0,0 106.64,0.36 0,-0.13 0,0.13 -106.64,-0.36" /><path
             id="path510"
             style="fill:#27802d;fill-opacity:1;fill-rule:nonzero;stroke:none"
             d="m 7363.16,1363.23 0,266.1 106.64,-155.58 0,-110.16 -106.64,-0.36" /><path
             id="path512"
             style="fill:#41bb5d;fill-opacity:1;fill-rule:nonzero;stroke:none"
             d="m 7469.8,1363.09 0,0.37 43.62,0.13 0,-0.36 -43.62,-0.14" /><path
             id="path514"
             style="fill:#41bb5d;fill-opacity:1;fill-rule:nonzero;stroke:none"
             d="m 7695.44,1363.82 -182.02,265.51 0,-155.08 -43.62,63.62 0,219.16 269.48,-393.07 -43.84,-0.14" /><path
             id="path516"
             style="fill:#27802d;fill-opacity:1;fill-rule:nonzero;stroke:none"
             d="m 7513.42,1410.17 -43.62,63.58 0,64.12 43.62,-63.62 0,-64.08" /><path
             id="path518"
             style="fill:#27802d;fill-opacity:1;fill-rule:nonzero;stroke:none"
             d="m 7469.8,1363.46 0,0.13 43.62,0.14 0,-0.14 -43.62,-0.13" /><path
             id="path520"
             style="fill:#1c541c;fill-opacity:1;fill-rule:nonzero;stroke:none"
             d="m 7469.8,1363.59 0,110.16 43.62,-63.58 0,-46.44 -43.62,-0.14" /><path
             id="path522"
             style="fill:#41bb5d;fill-opacity:1;fill-rule:nonzero;stroke:none"
             d="m 7513.42,1363.09 0,0.14 182.02,0.59 0.09,-0.13 -182.11,-0.6" /><path
             id="path524"
             style="fill:#27802d;fill-opacity:1;fill-rule:nonzero;stroke:none"
             d="m 7513.42,1363.23 0,0.36 31.85,0.1 -0.09,0.13 43.84,0.14 -75.6,110.29 0,155.08 182.02,-265.51 -182.02,-0.59" /><path
             id="path526"
             style="fill:#1c541c;fill-opacity:1;fill-rule:nonzero;stroke:none"
             d="m 7545.18,1363.82 -31.76,46.35 0,64.08 75.6,-110.29 -43.84,-0.14" /><path
             id="path528"
             style="fill:#1c541c;fill-opacity:1;fill-rule:nonzero;stroke:none"
             d="m 7513.42,1363.59 0,0.14 31.76,0.09 0.09,-0.13 -31.85,-0.1" /><path
             id="path530"
             style="fill:#153711;fill-opacity:1;fill-rule:nonzero;stroke:none"
             d="m 7513.42,1363.73 0,46.44 31.76,-46.35 -31.76,-0.09" /><g
             transform="scale(4.55732)"
             id="g532"><text
               id="text534"
               style="font-variant:normal;font-weight:900;font-size:40px;font-family:Raleway;-inkscape-font-specification:Raleway-Black;writing-mode:lr-tb;fill:#44bc5e;fill-opacity:1;fill-rule:nonzero;stroke:none"
               transform="matrix(1,0,0,-1,224.347,111.2)"><tspan
                 id="tspan536"
                 y="0"
                 x="0 21.200199 53.479519 86.199203">JUNE</tspan></text>
<text
               id="text538"
               style="font-variant:normal;font-weight:900;font-size:38px;font-family:Montserrat;-inkscape-font-specification:Montserrat-Black;writing-mode:lr-tb;fill:#44bc5e;fill-opacity:1;fill-rule:nonzero;stroke:none"
               transform="matrix(1,0,0,-1,349.7845,111.2)"><tspan
                 id="tspan540"
                 y="0"
                 x="0 20.330114 40.660229 67.640724 87.970833 114.98842 128.85854 140.60077 167.58125 198.47484 218.80496">11—15, 2015</tspan></text>
</g></g></g><g
         id="g542"><g
           clip-path="url(#clipPath546)"
           id="g544"><path
             id="path556"
             style="fill:url(#linearGradient550);fill-opacity:1;fill-rule:nonzero;stroke:none"
             d="m 1316.02,2409.73 c -10.6,-90.74 -93.06,-155.95 -183.81,-145.38 -43.96,5.15 -83.3,27.07 -110.76,61.79 -27.45,34.73 -39.751,78.07 -34.602,122.05 5.132,43.93 27.082,83.26 61.802,110.74 34.71,27.44 78.05,39.74 122.01,34.59 3.37,-0.36 6.74,-0.91 10.08,-1.5 l -11.79,-29.03 75.61,10.48 -46.89,60.25 -12.03,-29.67 c -4.48,0.87 -8.98,1.64 -13.5,2.15 -47.35,5.51 -94.02,-7.71 -131.41,-37.29 -37.39,-29.53 -61.031,-71.91 -66.558,-119.26 -5.531,-47.35 7.707,-94.02 37.278,-131.39 29.57,-37.41 71.93,-61.06 119.28,-66.58 97.74,-11.39 186.54,58.84 197.97,156.59 l -12.68,1.46" /></g></g><g
         id="g558"><g
           clip-path="url(#clipPath562)"
           id="g560"><path
             id="path572"
             style="fill:url(#linearGradient566);fill-opacity:1;fill-rule:nonzero;stroke:none"
             d="m 4030.55,2409.68 c -10.62,-90.92 -93.23,-156.27 -184.16,-145.65 -44.05,5.15 -83.46,27.16 -110.96,61.93 -27.51,34.77 -39.83,78.21 -34.68,122.27 5.15,44.03 27.14,83.45 61.92,110.93 34.78,27.48 78.2,39.83 122.25,34.68 3.37,-0.41 6.74,-0.91 10.09,-1.5 l -11.82,-29.12 75.76,10.53 -46.98,60.33 -12.06,-29.71 c -4.47,0.87 -8.98,1.64 -13.51,2.19 -47.44,5.51 -94.2,-7.75 -131.65,-37.37 -37.48,-29.62 -61.16,-72.05 -66.69,-119.49 -5.55,-47.45 7.72,-94.2 37.33,-131.66 29.63,-37.47 72.08,-61.16 119.53,-66.68 97.92,-11.44 186.88,58.93 198.33,156.86 l -12.7,1.46" /></g></g><g
         id="g574"><g
           clip-path="url(#clipPath578)"
           id="g576"><path
             id="path588"
             style="fill:url(#linearGradient582);fill-opacity:1;fill-rule:nonzero;stroke:none"
             d="m 6289.82,1555.05 c -10.61,-90.92 -93.24,-156.23 -184.16,-145.61 -44.02,5.11 -83.44,27.12 -110.96,61.89 -27.49,34.82 -39.84,78.21 -34.69,122.27 5.15,44.02 27.17,83.45 61.94,110.93 34.77,27.52 78.2,39.83 122.27,34.68 3.37,-0.41 6.74,-0.91 10.07,-1.5 l -11.8,-29.12 75.74,10.52 -46.99,60.34 -12.03,-29.67 c -4.51,0.87 -9.02,1.6 -13.53,2.14 -47.45,5.52 -94.2,-7.74 -131.66,-37.37 -37.47,-29.62 -61.16,-72.05 -66.68,-119.49 -5.55,-47.44 7.7,-94.2 37.33,-131.66 29.62,-37.46 72.1,-61.11 119.54,-66.67 97.89,-11.44 186.89,58.92 198.33,156.86 l -12.72,1.46" /></g></g><g
         id="g590"><g
           clip-path="url(#clipPath594)"
           id="g592"><path
             id="path604"
             style="fill:url(#linearGradient598);fill-opacity:1;fill-rule:nonzero;stroke:none"
             d="m 7195.18,1555.05 c -10.62,-90.92 -93.2,-156.23 -184.11,-145.61 -44.07,5.11 -83.5,27.12 -110.98,61.89 -27.52,34.82 -39.82,78.21 -34.68,122.27 5.15,44.02 27.12,83.45 61.89,110.93 34.82,27.52 78.21,39.83 122.27,34.68 3.38,-0.41 6.75,-0.91 10.08,-1.5 l -11.81,-29.12 75.75,10.52 -46.99,60.34 -12.03,-29.67 c -4.47,0.87 -8.98,1.6 -13.53,2.14 -47.45,5.52 -94.2,-7.74 -131.66,-37.37 -37.47,-29.62 -61.12,-72.05 -66.68,-119.49 -5.52,-47.44 7.75,-94.2 37.37,-131.66 29.62,-37.46 72.05,-61.11 119.49,-66.67 97.94,-11.44 186.9,58.92 198.33,156.86 l -12.71,1.46" /></g></g><g
         id="g606"><g
           clip-path="url(#clipPath610)"
           id="g608"><path
             id="path620"
             style="fill:url(#linearGradient614);fill-opacity:1;fill-rule:nonzero;stroke:none"
             d="m 1604.89,2629.03 -2.1,-12.67 c 63.03,-10.48 105.81,-70.23 95.36,-133.26 -5.05,-30.53 -21.7,-57.24 -46.87,-75.29 -25.16,-18 -55.84,-25.11 -86.37,-20.05 -58.7,9.71 -99.82,62.26 -96.73,120.36 l 29.3,-10.85 -12.96,75.79 -59.13,-49.13 30.26,-11.16 c -5.58,-66.13 40.62,-126.7 107.16,-137.68 6.9,-1.18 13.79,-1.73 20.64,-1.78 26.87,-0.13 53.03,8.12 75.31,24.07 27.95,20 46.45,49.72 52.06,83.62 11.61,70 -35.91,136.4 -105.93,148.03" /></g></g><g
         id="g622"><g
           clip-path="url(#clipPath626)"
           id="g624"><path
             id="path636"
             style="fill:url(#linearGradient630);fill-opacity:1;fill-rule:nonzero;stroke:none"
             d="m 3373.37,2467.61 4.11,-11.17 c 55.52,20.46 117.34,-8.02 137.81,-63.53 9.92,-26.89 8.78,-56.05 -3.21,-82.08 -12,-26.02 -33.42,-45.8 -60.31,-55.73 -51.71,-19.05 -108.89,4.37 -133.02,52.54 l 28.54,4.7 -45.15,55.05 -25.09,-66.63 29.44,4.88 c 19.84,-42.89 62.82,-69.09 108.27,-69.09 13.67,0 27.58,2.37 41.13,7.38 29.87,11.03 53.66,33 66.99,61.94 13.33,28.89 14.6,61.29 3.58,91.14 -22.75,61.66 -91.41,93.33 -153.09,70.6" /></g></g><g
         id="g638"><g
           clip-path="url(#clipPath642)"
           id="g640"><path
             id="path652"
             style="fill:url(#linearGradient646);fill-opacity:1;fill-rule:nonzero;stroke:none"
             d="m 2058.68,1773.12 -2.03,-12.72 c 63.14,-10.11 106.28,-69.73 96.17,-132.85 -4.91,-30.57 -21.42,-57.42 -46.52,-75.6 -25.1,-18.18 -55.78,-25.48 -86.35,-20.56 -58.81,9.4 -100.25,61.8 -97.47,119.95 l 29.39,-10.66 -13.39,75.74 -58.91,-49.44 30.33,-11.03 c -5.22,-66.22 41.35,-126.61 108.01,-137.27 6.91,-1.09 13.81,-1.64 20.67,-1.64 26.9,0 53.04,8.43 75.26,24.47 27.87,20.19 46.23,50.04 51.67,83.99 11.24,70.14 -36.68,136.36 -106.83,147.62" /></g></g><g
         id="g654"><g
           clip-path="url(#clipPath658)"
           id="g656"><path
             id="path668"
             style="fill:url(#linearGradient662);fill-opacity:1;fill-rule:nonzero;stroke:none"
             d="m 4310.23,1773.12 -2.03,-12.72 c 63.14,-10.11 106.28,-69.73 96.16,-132.85 -4.9,-30.57 -21.42,-57.42 -46.52,-75.6 -25.09,-18.18 -55.77,-25.48 -86.34,-20.56 -58.81,9.4 -100.26,61.8 -97.47,119.95 l 29.38,-10.66 -13.38,75.74 -58.92,-49.44 30.34,-11.03 c -5.22,-66.22 41.34,-126.61 108.01,-137.27 6.91,-1.09 13.81,-1.64 20.66,-1.64 26.9,0 53.05,8.43 75.26,24.47 27.88,20.19 46.23,50.04 51.68,83.99 11.24,70.14 -36.68,136.36 -106.83,147.62" /></g></g><g
         id="g670"><g
           clip-path="url(#clipPath674)"
           id="g672"><path
             id="path684"
             style="fill:url(#linearGradient678);fill-opacity:1;fill-rule:nonzero;stroke:none"
             d="m 4750.73,2628.3 -2.05,-12.68 c 63.16,-10.11 106.27,-69.72 96.16,-132.84 -4.88,-30.62 -21.42,-57.47 -46.49,-75.6 -25.11,-18.19 -55.78,-25.48 -86.36,-20.61 -58.79,9.44 -100.26,61.8 -97.48,120 l 29.4,-10.71 -13.4,75.79 -58.89,-49.49 30.31,-11.03 c -5.19,-66.18 41.34,-126.56 108.01,-137.22 6.93,-1.1 13.81,-1.64 20.69,-1.64 26.89,0 53.05,8.38 75.24,24.47 27.89,20.19 46.21,49.99 51.68,83.99 11.26,70.14 -36.68,136.36 -106.82,147.57" /></g></g></g></g></svg>